Place,Sex,Name,CyrillicName,BodyweightKg,Squat1Kg,Squat2Kg,Squat3Kg,Best3SquatKg,Squat4Kg,TotalKg,WeightClassKg,Event,Equipment,Tested,Deadlift1Kg,Deadlift2Kg,Deadlift3Kg,Best3DeadliftKg,Deadlift4Kg,Bench1Kg,Bench2Kg,Bench3Kg,Best3BenchKg,Bench4Kg,Division,Age,BirthDate
1,F,Kristina Galaganenko,Кристина Галаганенко,66.4,90,100,105,105,,105,67.5,S,Unlimited,No,,,,,,,,,,,Amateur Teen 18-19,18,1999-07-29
1,F,Alena Mukovnina,Алена Муковнина,66,90,100,102.5,102.5,,102.5,67.5,S,Unlimited,No,,,,,,,,,,,Amateur Juniors 20-23,20,1998-02-18
1,M,Oleg Shcherbachenko,Олег Щербаченко,108,210,220,230,230,,230,110,S,Unlimited,No,,,,,,,,,,,Amateur Open,28,1990-02-25
1,F,Ekaterina Ilyashenko,Екатерина Ильяшенко,62.3,,,,,,92.5,67.5,B,Unlimited,No,,,,,,85,92.5,,92.5,,Amateur Open,29,1989-03-26
2,F,Valentina Rodichkina,Валентина Родичкина,67.5,,,,,,90,67.5,B,Unlimited,No,,,,,,-90,-90,90,90,,Amateur Open,31,1986-08-23
1,M,Andrey Noskov,Андрей Носков,82.1,,,,,,237.5,82.5,B,Unlimited,No,,,,,,-230,230,237.5,237.5,,Amateur Open,24,1993-07-26
1,M,Dmitriy Boytsevskiy,Дмитрий Бойцевский,88.1,,,,,,170,90,B,Unlimited,No,,,,,,130,155,170,170,,Amateur Teen 14-15,14,2003-06-16
1,M,Anton Shchekolkin,Антон Щеколкин,99.4,,,,,,232.5,100,B,Unlimited,No,,,,,,220,232.5,-240,232.5,,Amateur Juniors 20-23,22,1995-05-26
1,M,Vitaliy Petrov,Виталий Петров,95.3,,,,,,195,100,B,Unlimited,No,,,,,,195,-202.5,-202.5,195,,Amateur Open,28,1989-04-17
1,M,Dmitriy Nadzha,Дмитрий Наджа,99.3,,,,,,265,100,B,Unlimited,No,,,,,,240,255,265,265,,Amateur Masters 40-44,42,1975-10-10
1,M,Karlen Osipov,Карлен Осипов,107.7,,,,,,265,110,B,Unlimited,No,,,,,,250,265,-275,265,,Amateur Open,45,1972-08-26
1,M,Karlen Osipov,Карлен Осипов,107.7,,,,,,265,110,B,Unlimited,No,,,,,,250,265,-275,265,,Amateur Masters 45-49,45,1972-08-26
1,M,Pavel Drozhko,Павел Дрожко,123.1,,,,,,210,125,B,Unlimited,No,,,,,,210,-227.5,,210,,Amateur Open,35,1982-07-02
1,M,Aleksandr Polfuntikov,Александр Полфунтиков,98.1,320,340,,340,,740,100,SBD,Single-ply,No,-260,260,-280,260,,140,-190,-195,140,,Amateur Open,35,1982-12-06
1,F,Sofya Konovalova,Софья Коновалова,42.1,,,,,,87.5,44,D,Raw,No,80,-87.5,87.5,87.5,,,,,,,Amateur Teen 14-15,14,2003-07-07
1,F,Nadezhda Derkacheva,Надежда Деркачева,52,,,,,,125,52,D,Raw,No,117.5,122.5,125,125,,,,,,,Amateur Juniors 20-23,23,1995-03-22
2,F,Yuliya Semenyakina,Юлия Семенякина,49.9,,,,,,92.5,52,D,Raw,No,80,87.5,92.5,92.5,,,,,,,Amateur Juniors 20-23,22,1995-08-29
1,F,Inga Boriskina,Инга Борискина,51,,,,,,97.5,52,D,Raw,No,90,97.5,-100,97.5,,,,,,,Amateur Masters 40-44,41,1976-04-18
1,F,Anastasiya Oleynikova,Анастасия Олейникова,56,,,,,,112.5,56,D,Raw,No,100,107.5,112.5,112.5,,,,,,,Amateur Teen 14-15,15,2003-01-05
1,F,Lidiya Voronova,Лидия Воронова,56,,,,,,125,56,D,Raw,No,117.5,122.5,125,125,,,,,,,Amateur Open,28,1989-10-23
2,F,Svetlana Aleksandrova,Светлана Александрова,55.8,,,,,,107.5,56,D,Raw,No,100,105,107.5,107.5,,,,,,,Amateur Open,37,1981-01-16
1,F,Yuliya Ignatenko,Юлия Игнатенко,58.5,,,,,,132.5,60,D,Raw,No,122.5,130,132.5,132.5,,,,,,,Amateur Open,32,1985-09-17
1,F,Kristina Kasyanova,Кристина Касьянова,61.7,,,,,,95,67.5,D,Raw,No,85,95,-100,95,,,,,,,Amateur Teen 18-19,18,1999-04-17
1,F,Elena Sviderskaya,Елена Свидерская,95.1,,,,,,110,90+,D,Raw,No,97.5,110,-125,110,,,,,,,Amateur Open,33,1984-06-29
1,M,Vladislav Vashchekin,Владислав Ващекин,66.7,,,,,,152.5,67.5,D,Raw,No,152.5,-167.5,-167.5,152.5,,,,,,,Amateur Teen 16-17,17,2000-08-10
1,M,Boris Shavrin,Борис Шаврин,67.2,,,,,,180,67.5,D,Raw,No,162.5,175,180,180,,,,,,,Amateur Open,67,1951-03-12
1,M,Boris Shavrin,Борис Шаврин,67.2,,,,,,180,67.5,D,Raw,No,162.5,175,180,180,,,,,,,Amateur Masters 65-69,67,1951-03-12
1,M,Vladimir Grigorev,Владимир Григорьев,74,,,,,,220,75,D,Raw,No,190,210,220,220,,,,,,,Amateur Open,24,1993-05-14
2,M,Igor Chernyaev #2,Игорь Черняев,74.2,,,,,,220,75,D,Raw,No,-210,210,220,220,,,,,,,Amateur Open,34,1984-04-05
3,M,Konstantin Popov,Константин Попов,74,,,,,,205,75,D,Raw,No,180,195,205,205,,,,,,,Amateur Open,27,1991-01-11
4,M,Yaroslav Korol,Ярослав Король,74,,,,,,170,75,D,Raw,No,150,160,170,170,,,,,,,Amateur Open,27,1990-05-15
1,M,Valeriy Stoyanov,Валерий Стоянов,73.6,,,,,,180,75,D,Raw,No,-165,165,180,180,,,,,,,Amateur Masters 60-64,60,1957-11-25
1,M,Aleksey Nevzorov,Алексей Невзоров,77.3,,,,,,210,82.5,D,Raw,No,190,200,210,210,,,,,,,Amateur Teen 16-17,17,2000-11-10
1,M,Dmitriy Lyanguzov,Дмитрий Лянгузов,81.2,,,,,,232.5,82.5,D,Raw,No,-212.5,232.5,-240,232.5,,,,,,,Amateur Open,29,1988-11-15
2,M,Aleksandr Kozlov,Александр Козлов,80.5,,,,,,230,82.5,D,Raw,No,220,230,-240,230,,,,,,,Amateur Open,34,1983-07-01
3,M,Denis Bakanov,Денис Баканов,79.8,,,,,,190,82.5,D,Raw,No,190,-205,-205,190,,,,,,,Amateur Open,39,1979-01-12
4,M,Ramin Gasymov,Рамин Гасымов,80.3,,,,,,190,82.5,D,Raw,No,170,190,-200,190,,,,,,,Amateur Open,33,1984-08-31
5,M,Roman Khachatryan,Роман Хачатрян,81,,,,,,187.5,82.5,D,Raw,No,167.5,177.5,187.5,187.5,,,,,,,Amateur Open,29,1988-10-26
1,M,Albek Shurdumov,Альбек Шурдумов,88.6,,,,,,225,90,D,Raw,No,215,220,225,225,,,,,,,Amateur Teen 16-17,17,2000-12-17
1,M,Maksim Astanin,Максим Астанин,85.3,,,,,,210,90,D,Raw,No,210,-220,,210,,,,,,,Amateur Open,24,1994-03-01
2,M,Aleksey Shcherbak,Алексей Щербак,90,,,,,,200,90,D,Raw,No,197.5,200,-202.5,200,,,,,,,Amateur Open,34,1983-08-12
1,M,Artem Shekhovtsov,Артем Шеховцов,98.9,,,,,,275,100,D,Raw,No,255,275,-290,275,,,,,,,Amateur Open,33,1985-01-25
2,M,Anatoliy Melnik,Анатолий Мельник,95.9,,,,,,210,100,D,Raw,No,205,210,-215,210,,,,,,,Amateur Open,25,1992-12-09
1,M,Oleg Shcherbachenko,Олег Щербаченко,108,,,,,,260,110,D,Raw,No,242.5,250,260,260,,,,,,,Amateur Open,28,1990-02-25
1,M,Oleg Novoseltsev,Олег Новосельцев,122.8,,,,,,300,125,D,Raw,No,280,290,300,300,,,,,,,Amateur Open,32,1985-05-10
2,M,Aleksey Borilko,Алексей Борилко,117.5,,,,,,235,125,D,Raw,No,220,235,-250,235,,,,,,,Amateur Open,38,1979-09-06
1,F,Anastasiya Kharitidi,Анастасия Харитиди,50.7,,,,,,42.5,52,B,Raw,No,,,,,,35,40,42.5,42.5,,Amateur Open,32,1985-08-23
1,F,Kristina Simdyankina,Кристина Симдянкина,52.8,,,,,,42.5,56,B,Raw,No,,,,,,35,40,42.5,42.5,,Amateur Open,27,1990-08-01
1,F,Tatyana Pshichenko,Татьяна Пшиченко,58.8,,,,,,45,60,B,Raw,No,,,,,,40,45,-50,45,,Amateur Open,32,1985-10-20
2,F,Ekaterina Lukyanova,Екатерина Лукьянова,59,,,,,,40,60,B,Raw,No,,,,,,35,37.5,40,40,,Amateur Open,31,1987-03-13
1,F,Emiliya Orlova,Эмилия Орлова,66,,,,,,60,67.5,B,Raw,No,,,,,,55,-60,60,60,,Amateur Open,26,1991-12-12
2,F,Lyudmila Anisimova,Людмила Анисимова,64.5,,,,,,57.5,67.5,B,Raw,No,,,,,,50,55,57.5,57.5,,Amateur Open,32,1986-01-23
1,F,Olga Shibaeva,Ольга Шибаева,78.6,,,,,,60,82.5,B,Raw,No,,,,,,50,55,60,60,,Amateur Open,41,1976-06-06
1,M,Rostislav Panchenko,Ростислав Панченко,57.3,,,,,,60,60,B,Raw,No,,,,,,52.5,-60,60,60,,Amateur Teen 13,13,2004-04-15
1,M,Roman Krivtsev,Роман Кривцев,66.6,,,,,,140,67.5,B,Raw,No,,,,,,140,-142.5,-145,140,,Amateur Open,40,1978-04-10
2,M,Aleksey Petrov,Алексей Петров,66.7,,,,,,132.5,67.5,B,Raw,No,,,,,,127.5,132.5,-135,132.5,,Amateur Open,32,1985-07-18
1,M,Roman Krivtsev,Роман Кривцев,66.6,,,,,,140,67.5,B,Raw,No,,,,,,140,-142.5,-145,140,,Amateur Masters 40-44,40,1978-04-10
1,M,Aleksey Abramov,Алексей Абрамов,74.7,,,,,,150,75,B,Raw,No,,,,,,140,145,150,150,,Amateur Open,34,1984-03-25
2,M,Andrey Nagornyy,Андрей Нагорный,73.4,,,,,,137.5,75,B,Raw,No,,,,,,130,137.5,-145,137.5,,Amateur Open,27,1990-09-01
1,M,Shamil Apazaov,Шамиль Апазаов,81.7,,,,,,152.5,82.5,B,Raw,No,,,,,,147.5,152.5,-155,152.5,,Amateur Juniors 20-23,23,1994-05-23
1,M,Aleksandr Burgelov,Александр Бургелов,81.1,,,,,,130,82.5,B,Raw,No,,,,,,130,-142.5,,130,,Amateur Open,43,1975-03-12
1,M,Ilya Serkin,Илья Серкин,87.9,,,,,,165,90,B,Raw,No,,,,,,150,160,165,165,,Amateur Juniors 20-23,22,1995-05-14
1,M,Sergey Klimenko,Сергей Клименко,87.4,,,,,,177.5,90,B,Raw,No,,,,,,170,177.5,-182.5,177.5,,Amateur Open,28,1989-09-01
2,M,Georgiy Sadovnikov,Георгий Садовников,89.4,,,,,,155,90,B,Raw,No,,,,,,150,155,-157.5,155,,Amateur Open,27,1990-09-18
3,M,Artem Bakanov,Артем Баканов,89,,,,,,147.5,90,B,Raw,No,,,,,,-147.5,147.5,-155,147.5,,Amateur Open,33,1984-10-26
1,M,Dmitriy Zadorozhniy,Дмитрий Задорожний,96.7,,,,,,142.5,100,B,Raw,No,,,,,,130,137.5,142.5,142.5,,Amateur Open,38,1979-12-18
DQ,M,Denis Davydov,Денис Давыдов,99.6,,,,,,,100,B,Raw,No,,,,,,-170,-170,-170,,,Amateur Open,34,1983-07-27
1,M,Aleksey Bezverbnyy,Алексей Безвербный,95,,,,,,150,100,B,Raw,No,,,,,,140,150,-157.5,150,,Amateur Masters 45-49,45,1973-03-18
1,M,Aleksandr Filipenko,Александр Филипенко,109,,,,,,160,110,B,Raw,No,,,,,,150,160,-167.5,160,,Amateur Open,35,1982-08-07
1,M,Igor Eroshkin,Игорь Ерошкин,109.3,,,,,,150,110,B,Raw,No,,,,,,150,-160,-167.5,150,,Amateur Masters 50-54,52,1965-12-14
1,M,Vladimir Zakharov,Владимир Захаров,105,,,,,,195,110,B,Raw,No,,,,,,185,195,-202.5,195,,Amateur Masters 60-64,62,1955-07-07
1,M,Artur Gulyan,Артур Гулян,123.8,,,,,,242.5,125,B,Raw,No,,,,,,235,242.5,-247.5,242.5,,Amateur Open,36,1982-01-23
2,M,Vladimir Belousov,Владимир Белоусов,118.7,,,,,,155,125,B,Raw,No,,,,,,155,-175,-175,155,,Amateur Open,31,1986-06-11
1,M,Igor Vagner,Игорь Вагнер,115.2,,,,,,180,125,B,Raw,No,,,,,,175,180,-185,180,,Amateur Masters 40-44,40,1977-10-14
1,M,Denis Zverev,Денис Зверев,183,,,,,,180,140+,B,Raw,No,,,,,,180,-212.5,-212.5,180,,Amateur Open,30,1987-09-26
DQ,F,Laura Shabukaeva,Лаура Шабукаева,48,70,75,80,80,,,48,SBD,Wraps,No,70,75,-82.5,75,,35,37.5,-40,37.5,,Amateur Juniors 20-23,22,1995-08-05
1,F,Inga Boriskina,Инга Борискина,51,67.5,72.5,77.5,77.5,,220,52,SBD,Wraps,No,90,97.5,-100,97.5,,37.5,40,45,45,,Amateur Masters 40-44,41,1976-04-18
DQ,F,Mariya Eliseeva,Мария Елисеева,59.6,95,-102.5,-102.5,95,,,60,SBD,Wraps,No,95,105,-110,105,,40,45,47.5,47.5,,Amateur Juniors 20-23,23,1994-06-05
DQ,F,Svetlana Slobozhaninova,Светлана Слобожанинова,59.2,85,90,95,95,,,60,SBD,Wraps,No,87.5,95,-97.5,95,,42.5,45,-47.5,45,,Amateur Open,39,1978-04-27
1,F,Anna Akimova,Анна Акимова,62.3,90,102.5,110,110,,305,67.5,SBD,Wraps,No,120,130,-135,130,,-55,60,65,65,,Amateur Open,25,1992-09-07
1,F,Elena Rudenko,Елена Руденко,76.2,102.5,-105,107.5,107.5,,312.5,82.5,SBD,Wraps,No,-135,137.5,142.5,142.5,,60,62.5,-65,62.5,,Amateur Masters 45-49,47,1970-05-19
DQ,M,Vladimir Grigorev,Владимир Григорьев,74,160,162.5,165,165,,,75,SBD,Wraps,No,190,210,-220,210,,110,115,-120,115,,Amateur Open,24,1993-05-14
DQ,M,Igor Chernyaev #2,Игорь Черняев,74.2,-180,-180,-180,,,,75,SBD,Wraps,No,-210,,,,,-130,,,,,Amateur Open,34,1984-04-05
1,M,Aleksey Khekalo,Алексей Хекало,80.9,-180,180,-190,180,,542.5,82.5,SBD,Wraps,No,220,-232.5,,220,,130,137.5,142.5,142.5,,Amateur Teen 16-17,17,2000-08-28
1,M,Dmitriy Lyanguzov,Дмитрий Лянгузов,81.2,175,185,195,195,,572.5,82.5,SBD,Wraps,No,-212.5,232.5,-240,232.5,,137.5,145,-150,145,,Amateur Open,29,1988-11-15
2,M,Aleksey Khekalo,Алексей Хекало,80.9,-180,180,-190,180,,542.5,82.5,SBD,Wraps,No,220,-232.5,,220,,130,137.5,142.5,142.5,,Amateur Open,17,2000-08-28
3,M,Aleksandr Kozlov,Александр Козлов,80.5,165,172.5,180,180,,540,82.5,SBD,Wraps,No,220,230,-240,230,,122.5,-127.5,130,130,,Amateur Open,34,1983-07-01
DQ,M,Denis Novak,Денис Новак,80.7,155,-165,-165,155,,,82.5,SBD,Wraps,No,165,175,-200,175,,-130,130,-145,130,,Amateur Open,27,1990-05-25
DQ,M,Dmitriy Boytsevskiy,Дмитрий Бойцевский,88.1,130,140,150,150,,,90,SBD,Wraps,No,150,160,175,175,,80,90,100,100,,Amateur Teen 14-15,14,2003-06-16
1,M,Albek Shurdumov,Альбек Шурдумов,88.6,190,-195,195,195,,552.5,90,SBD,Wraps,No,215,220,225,225,,130,132.5,-135,132.5,,Amateur Teen 16-17,17,2000-12-17
DQ,M,Maksim Astanin,Максим Астанин,85.3,170,180,190,190,,,90,SBD,Wraps,No,210,-220,,210,,120,130,132.5,132.5,,Amateur Open,24,1994-03-01
2,M,Sergey Buzdin,Сергей Буздин,87.7,-170,170,-185,170,,517.5,90,SBD,Wraps,No,200,210,-215,210,,130,137.5,-145,137.5,,Amateur Open,24,1994-04-04
DQ,M,Vladislav Kolodin,Владислав Колодин,100,220,227.5,235,235,,,100,SBD,Wraps,No,225,240,-255,240,,145,-155,-155,145,,Amateur Juniors 20-23,21,1996-12-12
DQ,M,Aleksandr Filipenko,Александр Филипенко,109,175,190,205,205,,,110,SBD,Wraps,No,-210,225,232.5,232.5,,150,160,-167.5,160,,Amateur Open,35,1982-08-07
1,M,Artem Fatykhov,Артем Фатыхов,123.1,100,115,135,135,,405,125,SBD,Wraps,No,150,165,180,180,,80,85,90,90,,Amateur Teen 16-17,17,2001-04-07
1,M,Andrey Peregnyak,Андрей Перегняк,122.8,,,,,,200,125,B,Unlimited,No,,,,,,-200,-200,200,200,,Pro Open,26,1991-06-12
1,M,Aleksandr Ballod,Александр Баллод,145,,,,,,325,140+,B,Unlimited,No,,,,,,325,-342.5,-342.5,325,,Pro Open,38,1979-08-17
1,M,Stepan Pogosyan,Степан Погосян,89.2,,,,,,230,90,B,Unlimited,No,,,,,,220,230,-240,230,,Pro Open,32,1985-04-18
1,M,Eduard Trudnev,Эдуард Труднев,94.7,,,,,,240,100,B,Unlimited,No,,,,,,240,-260,-275,240,,Pro Open,38,1979-11-11
1,M,Vitaliy Sorokotyagin,Виталий Сорокотягин,116,,,,,,320,125,B,Unlimited,No,,,,,,300,320,-330,320,,Pro Open,36,1981-05-28
DQ,F,Tatyana Zlydennaya,Татьяна Злыденная,67,-145,,,,,,67.5,SBD,Unlimited,No,-130,,,,,-100,,,,,Pro Open,31,1987-01-28
1,M,Maksim Shkalikov,Максим Шкаликов,82.5,200,210,-220,210,,635,82.5,SBD,Unlimited,No,200,-215,,200,,210,225,-235,225,,Pro Open,25,1992-11-10
DQ,M,Anatoliy Gribov,Анатолий Грибов,105,350,360,-370,360,,,110,SBD,Unlimited,No,320,-340,-340,320,,280,320,-330,320,,Pro Open,26,1992-02-07
DQ,M,Viktor Vodovskov,Виктор Водовсков,118.5,360,-380,-380,360,,,125,SBD,Unlimited,No,100,,,100,,-280,280,-300,280,,Pro Open,35,1982-10-22
DQ,M,Andrey Peregnyak,Андрей Перегняк,122.8,-240,-250,-250,,,,125,SBD,Unlimited,No,-180,,,,,-200,,,,,Pro Open,26,1991-06-12
1,M,Andrey Sizov,Андрей Сизов,98.3,,,,,,310,100,D,Single-ply,No,300,-310,310,310,,,,,,,Pro Masters 50-54,50,1968-01-29
1,M,Pavel Mitrofanov,Павел Митрофанов,100,340,370,-390,370,,930,100,SBD,Multi-ply,No,270,290,-300,290,,270,-290,-290,270,,Pro Open,34,1983-08-12
1,M,Vladimir Vinnikov,Владимир Винников,101.2,250,275,-300,275,,760,110,SBD,Multi-ply,No,255,-275,285,285,,170,190,200,200,,Pro Open,31,1986-08-28
2,M,Sergey Igoshin,Сергей Игошин,102.9,250,275,300,300,,755,110,SBD,Multi-ply,No,255,270,-280,270,,160,175,185,185,,Pro Open,31,1986-11-04
1,M,Aleksandr Ogly,Александр Оглы,75,,,,,,182.5,75,B,Single-ply,No,,,,,,-180,180,182.5,182.5,,Pro Open,32,1986-03-31
1,M,Igor Kryat,Игорь Крят,87.7,,,,,,267.5,90,D,Raw,No,260,267.5,-270,267.5,,,,,,,Pro Open,29,1988-05-31
1,M,Vladimir Ukhobotov,Владимир Ухоботов,98.6,,,,,,210,100,D,Raw,No,195,210,-230,210,,,,,,,Pro Open,39,1978-06-18
1,M,Anatoliy Talovasov,Анатолий Таловасов,113,,,,,,245,125,D,Raw,No,230,240,245,245,,,,,,,Pro Masters 55-59,57,1960-12-01
1,M,Sergey Alampiev,Сергей Алампиев,69.4,,,,,,90,75,B,Raw,No,,,,,,80,85,90,90,,Pro Masters 60-64,61,1957-04-07
1,M,Ruslan Rukavishnikov,Руслан Рукавишников,81,,,,,,165,82.5,B,Raw,No,,,,,,-155,155,165,165,,Pro Juniors 20-23,23,1994-07-29
1,M,Arkadiy Osaulenko,Аркадий Осауленко,81.3,,,,,,150,82.5,B,Raw,No,,,,,,140,150,-160,150,,Pro Open,30,1987-04-30
1,M,Saribek Iskhanyan,Сарибек Исханян,86.4,,,,,,160,90,B,Raw,No,,,,,,-155,155,160,160,,Pro Open,32,1985-12-31
1,M,Evgeniy Korotchenko,Евгений Коротченко,97,,,,,,170,100,B,Raw,No,,,,,,160,170,-175,170,,Pro Juniors 20-23,22,1996-04-03
1,M,Mikhail Izofatov,Михаил Изофатов,95.6,,,,,,170,100,B,Raw,No,,,,,,160,170,-180,170,,Pro Masters 40-44,40,1977-09-03
1,M,Ivan Taranenko,Иван Тараненко,108.1,,,,,,200,110,B,Raw,No,,,,,,185,200,-202.5,200,,Pro Open,31,1986-05-24
2,M,Ivan Bondarenko,Иван Бондаренко,108.3,,,,,,170,110,B,Raw,No,,,,,,-160,170,-175,170,,Pro Open,31,1986-06-06
1,M,Artur Tozliyan,Артур Тозлиян,121,,,,,,185,125,B,Raw,No,,,,,,-170,185,-200,185,,Pro Juniors 20-23,21,1996-11-22
1,M,Viktor Koshkin,Виктор Кошкин,119.1,,,,,,200,125,B,Raw,No,,,,,,190,195,200,200,,Pro Open,39,1979-02-26
2,M,Ilya Serikov,Илья Сериков,114.5,,,,,,190,125,B,Raw,No,,,,,,175,190,-200,190,,Pro Open,34,1983-07-16
3,M,Aleksey Morozov,Алексей Морозов,119.2,,,,,,185,125,B,Raw,No,,,,,,175,185,-200,185,,Pro Open,39,1979-04-11
DQ,M,Vasiliy Remnyov,Василий Ремнёв,120,,,,,,,125,B,Raw,No,,,,,,-190,,,,,Pro Open,39,1978-09-19
1,F,Natalya Tsaryova,Наталья Царёва,55.6,95,100,-105,100,,300,56,SBD,Wraps,No,125,130,135,135,,-60,60,65,65,,Pro Open,38,1979-05-16
DQ,M,Daniyar Duysembay,Данияр Дуйсембай,88.6,180,195,-210,195,,,90,SBD,Wraps,No,200,215,-230,215,,130,140,-145,140,,Pro Open,25,1993-01-31
1,M,Yashar Shavoev,Яшар Шавоев,120.7,290,310,-320,310,,785,125,SBD,Wraps,No,290,-300,,290,,170,180,185,185,,Pro Open,31,1986-10-02
