Tested,Equipment,Place,Name,Division,BirthYear,Country,BodyweightKg,Squat1Kg,Squat2Kg,Squat3Kg,Best3SquatKg,Bench1Kg,Bench2Kg,Bench3Kg,Best3BenchKg,Deadlift1Kg,Deadlift2Kg,Deadlift3Kg,Best3DeadliftKg,TotalKg,WeightClassKg,Sex,CyrillicName,Event
Yes,Wraps,1,Anastasiya Buyskikh,Amateur Juniors 20-23,1992,Russia,50.6,65,70,77.5,77.5,42.5,47.5,50,50,70,80,85,85,212.5,52,F,Анастасия Буйских,SBD
Yes,Wraps,1,Mariya Ivanova,Amateur Open,1992,Russia,52.1,65,-70,-72.5,65,42.5,-47.5,47.5,47.5,80,87.5,-97.5,87.5,200,56,F,Мария Иванова,SBD
Yes,Wraps,2,Darya Kim,Amateur Open,1987,Russia,53.6,-57,57.5,62.5,62.5,30,35,-37.5,35,-75,75,82.5,82.5,180,56,F,Дарья Ким,SBD
Yes,Wraps,3,Alfina Morzhukhina,Amateur Open,1984,Russia,54.1,50,-57.5,60,60,32.5,-37.5,37.5,37.5,60,67.5,75,75,172.5,56,F,Альфина Моржухина,SBD
Yes,Wraps,1,Viktoriya Shargorodskaya,Amateur Open,1988,Russia,65.8,80,-85,-90,80,-40,40,-45,40,80,,,80,200,67.5,F,Виктория Шаргородская,SBD
Yes,Wraps,1,Ekaterina Nazarova,Amateur Juniors 20-23,1992,Russia,71.5,90,100,-105,100,55,-60,-60,55,90,-100,100,100,255,75,F,Екатерина Назарова,SBD
Yes,Wraps,1,Denis Prin,Amateur Teen 16-17,2000,Russia,73.3,125,140,-147.5,140,85,97.5,100,100,145,160,170,170,410,75,M,Денис Принь,SBD
Yes,Wraps,DQ,Oleg Stepanov,Amateur Open,1990,Russia,74.2,-160,-160,-160,,,,,,,,,,,75,M,Олег Степанов,SBD
Yes,Wraps,1,Vladislav Baklynkov,Amateur Teen 13-15,2001,Russia,75.2,95,110,122.5,122.5,60,75,-77.5,75,120,135,145,145,342.5,82.5,M,Владислав Баклынков,SBD
Yes,Wraps,1,Evgeniy Grigoryev,Amateur Open,1983,Russia,88.7,210,-220,220,220,-145,145,-150,145,215,-232.5,-232.5,215,580,90,M,Евгений Григорьев,SBD
Yes,Wraps,1,Nikolay Adyukov,Amateur Masters 60-64,1954,Russia,88.3,80,90,100,100,65,70,75,75,110,125,135,135,310,90,M,Николай Адюков,SBD
Yes,Wraps,1,Maksim Markov,Amateur Open,1985,Russia,97.8,-240,240,260,260,180,-190,-190,180,300,340,-350,340,780,100,M,Максим Марков,SBD
Yes,Wraps,1,Vasiliy Timchenko,Amateur Masters 40-44,1974,Russia,97.7,165,-175,-175,165,120,125,130,130,185,200,205,205,500,100,M,Василий Тимченко,SBD
Yes,Wraps,1,Aleksandr Oleynik,Amateur Open,1978,Russia,124,235,250,262.5,262.5,150,162.5,170,170,240,255,270,270,702.5,125,M,Александр Олейник,SBD
Yes,Wraps,1,Maksim Anisimov,Amateur Open,1982,Russia,135,-205,215,235,235,155,170,180,180,200,220,235,235,650,140,M,Максим Анисимов,SBD
No,Wraps,1,Oksana Samarzina,Pro Open,1986,Russia,64.6,90,100,110,110,50,55,-60,55,100,110,-120,110,275,67.5,F,Оксана Симарзина,SBD
No,Wraps,1,Stanislav Butorin,Pro Open,1983,Russia,72.4,120,130,-140,130,80,90,95,95,160,170,180,180,405,75,M,Станислав Буторин,SBD
No,Wraps,1,Kirill Lutsik,Pro Juniors 20-23,1993,Russia,88.2,140,145,150,150,105,107.5,-110,107.5,150,155,-160,155,412.5,90,M,Кирилл Луцик,SBD
No,Wraps,1,Sergey Buryabash,Pro Open,1979,Russia,98.9,-220,220,230,230,140,150,-160,150,-255,265,-302.5,265,645,100,M,Сергей Бурябаш,SBD
No,Wraps,1,Maksim Khardin,Pro Open,1983,Russia,108.4,240,250,255,255,160,170,-175,170,300,-310,,300,725,110,M,Максим Хардин,SBD
No,Single-ply,1,Alan Zagagov,Pro Open,1979,Russia,110,-250,250,-270,250,150,160,-170,160,-210,210,220,220,630,110,M,Алан Загагов,SBD
Yes,Raw,1,Marina Zharova,Amateur Open,1984,Russia,47.7,,,,,-47.5,-55,55,55,,,,,55,48,F,Марина Жарова,B
Yes,Raw,1,Yana Chernyavskaya,Amateur Open,1982,Russia,51.2,,,,,47.5,50,52.5,52.5,,,,,52.5,52,F,Яна Чернявская,B
Yes,Raw,2,Marina Mironova,Amateur Open,1978,Russia,50.7,,,,,-37.5,37.5,42.5,42.5,,,,,42.5,52,F,Марина Миронова,B
Yes,Raw,1,Darya Proskurina,Amateur Open,1991,Russia,55.9,,,,,-52.5,55,57.5,57.5,,,,,57.5,56,F,Дарья Проскурина,B
Yes,Raw,1,Anna Belitskaya,Amateur Open,1976,Russia,59.7,,,,,52.5,57.5,60,60,,,,,60,60,F,Анна Белицкая,B
Yes,Raw,1,Ekaterina Vinogradova,Amateur Open,1988,Russia,67.5,,,,,45,-52.5,-52.5,45,,,,,45,67.5,F,Екатерина Виноградова,B
Yes,Raw,1,Ekaterina Nazarova,Amateur Juniors 20-23,1992,Russia,71.5,,,,,50,55,-60,55,,,,,55,75,F,Екатерина Назарова,B
Yes,Raw,1,Dmitriy Grigoryev #6,Amateur Teen 13-15,2001,Russia,44.2,,,,,35,40,42.5,42.5,,,,,42.5,52,M,Дмитрий Григорьев,B
Yes,Raw,1,Dmitriy Neganov,Amateur Open,1991,Russia,54,,,,,70,-80,-85,70,,,,,70,56,M,Дмитрий Неганов,B
Yes,Raw,1,Dmitriy Arteni,Amateur Teen 16-17,1998,Russia,74.9,,,,,80,87.5,-90,87.5,,,,,87.5,75,M,Дмитрий Артени,B
Yes,Raw,1,Mikhail Pivkin,Amateur Juniors 20-23,1995,Russia,71.1,,,,,120,125,130,130,,,,,130,75,M,Михаил Пивкин,B
Yes,Raw,1,Aleksandr Timofeev,Amateur Open,1989,Russia,74.4,,,,,117.5,-120,120,120,,,,,120,75,M,Александр Тимофеев,B
Yes,Raw,2,Rufat Mamedov,Amateur Open,1987,Russia,71.7,,,,,95,105,110,110,,,,,110,75,M,Руфат Мамедов,B
Yes,Raw,3,Aleksey Radaykin,Amateur Open,1984,Russia,72.5,,,,,110,-117.5,-117.5,110,,,,,110,75,M,Алексей Радайкин,B
Yes,Raw,1,Dmitriy Bazhenov,Amateur Masters 40-44,1973,Russia,73.3,,,,,100,110,-117.5,110,,,,,110,75,M,Дмитрий Баженов,B
Yes,Raw,DQ,Mikhail Kushnir,Amateur Juniors 20-23,1993,Ukraine,80.3,,,,,-112.5,-112.5,,,,,,,,82.5,M,Михаил Кушнир,B
Yes,Raw,1,Timofey Chernyavskiy,Amateur Open,1985,Russia,79.9,,,,,165,170,-175,170,,,,,170,82.5,M,Тимофей Чернявский,B
Yes,Raw,2,Yuriy Sklyarov,Amateur Open,1978,Russia,79.8,,,,,150,155,157.5,157.5,,,,,157.5,82.5,M,Юрий Скляров,B
Yes,Raw,3,Feliks Eskendarov,Amateur Open,1992,Russia,80.2,,,,,145,-147.5,147.5,147.5,,,,,147.5,82.5,M,Феликс Эскендаров,B
Yes,Raw,4,Igor Chulkov,Amateur Open,1990,Russia,79.3,,,,,140,-145,-145,140,,,,,140,82.5,M,Игорь Чулков,B
Yes,Raw,5,Vadim Nikulin,Amateur Open,1990,Russia,82,,,,,-137.5,140,-145,140,,,,,140,82.5,M,Вадим Никулин,B
Yes,Raw,6,Evgeniy Tsapko,Amateur Open,1985,Russia,81,,,,,135,-145,-145,135,,,,,135,82.5,M,Евгений Цапко,B
Yes,Raw,7,Artem Dygalo,Amateur Open,1990,Russia,81.2,,,,,-127.5,-127.5,127.5,127.5,,,,,127.5,82.5,M,Артем Дыгало,B
Yes,Raw,8,Maksim Skoblikov,Amateur Open,1979,Russia,79.5,,,,,120,-127.5,-127.5,120,,,,,120,82.5,M,Максим Скобликов,B
Yes,Raw,DQ,Nikolay Zheleznyak,Amateur Open,1986,Russia,79.5,,,,,-117.5,-117.5,,,,,,,,82.5,M,Николай Железняк,B
Yes,Raw,1,Dmitriy Sychev,Amateur Masters 40-44,1975,Russia,77,,,,,115,120,-125,120,,,,,120,82.5,M,Дмитрий Сычев,B
Yes,Raw,2,Anatoliy Shakhov,Amateur Masters 40-44,1972,Russia,80.5,,,,,75,80,-85,80,,,,,80,82.5,M,Анатолий Шахов,B
Yes,Raw,1,Rafail Valeev,Amateur Masters 60-64,1954,Russia,81.8,,,,,75,-82.5,82.5,82.5,,,,,82.5,82.5,M,Рафаил Валеев,B
Yes,Raw,1,Aleksey Ivanov,Amateur Open,1982,Russia,89.9,,,,,155,160,-165,160,,,,,160,90,M,Алексей Иванов,B
Yes,Raw,2,Viktor Davidovskiy,Amateur Open,1988,Russia,84.9,,,,,145,152.5,157.5,157.5,,,,,157.5,90,M,Виктор Давидовский,B
Yes,Raw,3,Parviz Isaev,Amateur Open,1984,Russia,88,,,,,152.5,155,-157.5,155,,,,,155,90,M,Парвиз Исаев,B
Yes,Raw,4,Evgeniy Khabarov,Amateur Open,1981,Russia,85.8,,,,,140,150,152.5,152.5,,,,,152.5,90,M,Евгений Хабаров,B
Yes,Raw,5,Arkadiy Litvin,Amateur Open,1985,Russia,89,,,,,145,-152.5,152.5,152.5,,,,,152.5,90,M,Аркадий Литвин,B
Yes,Raw,6,Aleksey Rusanov,Amateur Open,1983,Russia,87.7,,,,,150,-160,-160,150,,,,,150,90,M,Алексей Русанов,B
Yes,Raw,7,Evgeniy Kurashko,Amateur Open,1980,Russia,87.5,,,,,132.5,-140,-145,132.5,,,,,132.5,90,M,Евгений Курашко,B
Yes,Raw,8,Aleksandr Telesnikov,Amateur Open,1987,Russia,86.6,,,,,120,-125,-132.5,120,,,,,120,90,M,Александр Телесников,B
Yes,Raw,DQ,Roman Savchenko,Amateur Open,1989,Russia,85.1,,,,,-140,,-140,,,,,,,90,M,Роман Савченко,B
Yes,Raw,DQ,Aleksandr Stepanov,Amateur Open,1988,Russia,86.5,,,,,-120,-125,-132.5,,,,,,,90,M,Александр Степанов,B
Yes,Raw,1,Vladimir Ivanov,Amateur Masters 40-44,1972,Russia,88.4,,,,,120,-135,135,135,,,,,135,90,M,Владимир Иванов,B
Yes,Raw,1,Vasil Shakirov,Amateur Masters 55-59,1957,Russia,88.7,,,,,90,-100,100,100,,,,,100,90,M,Василь Шакиров,B
Yes,Raw,1,Vladimir Shmidt,Amateur Open,1985,Russia,99.9,,,,,180,185,-187.5,185,,,,,185,100,M,Владимир Шмидт,B
Yes,Raw,2,Andrey Yuferev,Amateur Open,1990,Russia,96.9,,,,,175,-185,-185,175,,,,,175,100,M,Андрей Юферев,B
Yes,Raw,3,Artem Maslov,Amateur Open,1992,Russia,95.1,,,,,135,140,-162.5,140,,,,,140,100,M,Артем Маслов,B
Yes,Raw,4,Anton Chernoschekov,Amateur Open,1991,Russia,96.7,,,,,130,-140,140,140,,,,,140,100,M,Антон Чернощеков,B
Yes,Raw,1,Mikhail Yanin,Amateur Masters 40-44,1972,Russia,97.6,,,,,60,65,70,70,,,,,70,100,M,Михаил Янин,B
Yes,Raw,1,Petr Sidorenko,Amateur Masters 45-49,1967,Russia,98.7,,,,,-155,-155,160,160,,,,,160,100,M,Петр Сидоренко,B
Yes,Raw,1,Igor Aksentyev,Amateur Masters 50-54,1965,Russia,95.4,,,,,130,140,-150,140,,,,,140,100,M,Игорь Аксентьев,B
Yes,Raw,1,Aleksandr Bobulin,Amateur Open,1983,Russia,108.7,,,,,167.5,-175,175,175,,,,,175,110,M,Александр Бобулин,B
Yes,Raw,1,Vladimir Moshkovskiy,Amateur Masters 40-44,1973,Russia,107.7,,,,,-170,170,175,175,,,,,175,110,M,Владимир Мошковский,B
Yes,Raw,1,Evgeniy Krylov,Amateur Open,1980,Russia,118,,,,,145,152.5,-157.5,152.5,,,,,152.5,125,M,Евгений Крылов,B
Yes,Raw,1,Vasiliy Gorbunov,Amateur Masters 40-44,1974,Russia,113.4,,,,,145,-152.5,-152.5,145,,,,,145,125,M,Василий Горбунов,B
Yes,Raw,1,Evgeniy Kardapoltsev,Amateur Open,1979,Russia,134.5,,,,,185,-210,-210,185,,,,,185,140,M,Евгений Кардапольцев,B
Yes,Raw,2,Maksim Anisimov,Amateur Open,1982,Russia,135,,,,,160,182.5,185,185,,,,,185,140,M,Максим Анисимов,B
Yes,Single-ply,1,Timur Baev,Amateur Open,1991,Russia,70,,,,,90,-110,110,110,,,,,110,75,M,Тимур Баев,B
Yes,Single-ply,1,Andrey Skorobogatov,Amateur Open,1983,Russia,81.4,,,,,105,-112.5,-112.5,105,,,,,105,82.5,M,Андрей Скоробогатов,B
Yes,Single-ply,1,Stanislav Dedevshin,Amateur Masters 45-49,1969,Russia,99,,,,,-205,205,-215,205,,,,,205,100,M,Станислав Дедевшин,B
No,Raw,1,Denis Romanov,Pro Open,1983,Russia,77.1,,,,,55,-75,,55,,,,,55,82.5,M,Денис Романов,B
No,Raw,1,Aleksandr Tomchuk,Pro Open,1987,Russia,88.5,,,,,170,180,187.5,187.5,,,,,187.5,90,M,Александр Томчук,B
No,Raw,2,Eduard Gurevich,Pro Open,1991,Russia,88,,,,,160,170,-180,170,,,,,170,90,M,Эдуард Гуревич,B
No,Raw,DQ,David Bagdasaryan,Pro Open,1991,Russia,88.4,,,,,-160,,-160,,,,,,,90,M,Давид Багдасарян,B
No,Raw,1,Ivan Lobov,Pro Open,1985,Russia,99.3,,,,,190,200,-210,200,,,,,200,100,M,Иван Лобов,B
No,Raw,1,Oleg Shepilenko,Pro Masters 40-44,1971,Russia,97.4,,,,,150,160,-170,160,,,,,160,100,M,Олег Шепиленко,B
No,Raw,1,Oleg Larin,Pro Open,1986,Russia,107.9,,,,,192.5,-202.5,-202.5,192.5,,,,,192.5,110,M,Олег Ларин,B
No,Raw,1,Eduard Zavatskiy,Pro Masters 40-44,1975,Russia,103.5,,,,,180,185,-197.5,185,,,,,185,110,M,Эдуард Завацкий,B
No,Raw,1,Mikhail Pyatkov,Pro Masters 55-59,1958,Russia,110,,,,,165,-172.5,-172.5,165,,,,,165,110,M,Михаил Пятков,B
Yes,Raw,1,Marina Kutuzova,Amateur Open,1989,Russia,45.8,,,,,,,,,92.5,-95,,92.5,92.5,48,F,Марина Кутузова,D
Yes,Raw,1,Tatyana Ryzhkova,Amateur Open,1978,Russia,65.4,,,,,,,,,110,117.5,120,120,120,67.5,F,Татьяна Рыжкова,D
Yes,Raw,2,Ekaterina Vinogradova,Amateur Open,1988,Russia,67.5,,,,,,,,,85,92.5,-95,92.5,92.5,67.5,F,Екатерина Виноградова,D
Yes,Raw,3,Viktoriya Shargorodskaya,Amateur Open,1988,Russia,65.8,,,,,,,,,85,90,-95,90,90,67.5,F,Виктория Шаргородская,D
Yes,Raw,DQ,Ekaterina Ledovskaya,Amateur Open,1990,Russia,64.9,,,,,,,,,-110,-110,-117.5,,,67.5,F,Екатерина Ледовская,D
Yes,Raw,1,Ekaterina Nazarova,Amateur Juniors 20-23,1992,Russia,71.5,,,,,,,,,90,100,105,105,105,75,F,Екатерина Назарова,D
Yes,Raw,1,Nikolay Vetrov,Amateur Juniors 20-23,1996,Russia,73,,,,,,,,,180,-192.5,-202.5,180,180,75,M,Николай Ветров,D
Yes,Raw,1,Oleg Stepanov,Amateur Open,1990,Russia,74.2,,,,,,,,,-190,190,202.5,202.5,202.5,75,M,Олег Степанов,D
Yes,Raw,1,Nikolay Zheleznyak,Amateur Open,1986,Russia,79.5,,,,,,,,,190,200,207.5,207.5,207.5,82.5,M,Николай Железняк,D
Yes,Raw,2,Yuriy Sklyarov,Amateur Open,1978,Russia,79.8,,,,,,,,,175,185,,185,185,82.5,M,Юрий Скляров,D
Yes,Raw,3,Maksim Skoblikov,Amateur Open,1979,Russia,79.5,,,,,,,,,162.5,-170,-170,162.5,162.5,82.5,M,Максим Скобликов,D
Yes,Raw,1,Rustam Rabadanov,Amateur Masters 45-49,1970,Russia,81.9,,,,,,,,,160,-172.5,-172.5,160,160,82.5,M,Рустам Рабаданов,D
Yes,Raw,1,Vasiliy Vorobyev,Amateur Open,1988,Russia,88.8,,,,,,,,,222.5,227.5,232.5,232.5,232.5,90,M,Василий Воробьев,D
Yes,Raw,2,Roman Vdovin,Amateur Open,1986,Russia,87.4,,,,,,,,,195,222.5,-230,222.5,222.5,90,M,Роман Вдовин,D
Yes,Raw,3,Evgeniy Grigoryev,Amateur Open,1983,Russia,88.7,,,,,,,,,210,220,-225,220,220,90,M,Евгений Григорьев,D
Yes,Raw,1,Artem Maslov,Amateur Open,1992,Russia,95.1,,,,,,,,,-195,202.5,232.5,232.5,232.5,100,M,Артем Маслов,D
Yes,Raw,1,Nikolay Madzhar,Amateur Masters 40-44,1973,Russia,97.9,,,,,,,,,205,220,232.5,232.5,232.5,100,M,Николай Маджар,D
Yes,Raw,1,Lev Sibilev,Amateur Teen 18-19,1998,Russia,104.5,,,,,,,,,195,207.5,215,215,215,110,M,Лев Сибилев,D
Yes,Raw,1,Konstantin Tishkin,Amateur Open,1987,Russia,107.2,,,,,,,,,220,240,255,255,255,110,M,Константин Тишкин,D
No,Raw,1,Irina Gorshkova,Pro Masters 40-44,1973,Russia,73.2,,,,,,,,,-155,155,,155,155,75,F,Ирина Горшкова,D
