Name,Place,Division,Sex,BirthYear,Country,WeightClassKg,BodyweightKg,Squat1Kg,Squat2Kg,Squat3Kg,Best3SquatKg,Bench1Kg,Bench2Kg,Bench3Kg,Best3BenchKg,Deadlift1Kg,Deadlift2Kg,Deadlift3Kg,Best3DeadliftKg,TotalKg,Event,Equipment
Sergey Fedosienko,1,Light,M,1982,Russia,59,55.86,260,280,290,290,185,192.5,-197.5,192.5,240,-260,260,260,742.5,SBD,Single-ply
Hassan El Belghiti,2,Light,M,1975,France,66,65.62,280,290,-300,290,162.5,167.5,-170,167.5,295,307.5,315,315,772.5,SBD,Single-ply
Charles Okpoko,3,Light,M,1995,USA,66,65.42,302.5,-312.5,312.5,312.5,190,197.5,200,200,250,-257.5,257.5,257.5,770,SBD,Single-ply
Tsung-Ting Hsieh,4,Light,M,1982,Taiwan,66,64.5,-265,265,-275,265,200,207.5,210,210,265,275,280,280,755,SBD,Single-ply
Franklin León,5,Light,M,1983,Ecuador,66,59.25,260,270,280,280,165,172.5,177.5,177.5,225,235,-242.5,235,692.5,SBD,Single-ply
Antti Savolainen,6,Light,M,1978,Finland,66,65.67,255,265,270,270,190,195,200,200,270,285,-297.5,285,755,SBD,Single-ply
Yi-Chun Lin,7,Light,M,1994,Taiwan,66,59.51,245,255,260,260,155,162.5,170,170,240,250,257.5,257.5,687.5,SBD,Single-ply
Yoshihiro Sato,8,Light,M,1982,Japan,66,65.35,255,-265,265,265,210,215,-221,215,220,235,-237.5,235,715,SBD,Single-ply
Dariusz Wszoła,9,Light,M,1978,Poland,59,58.78,245,252.5,260,260,165,-170,170,170,205,212.5,217.5,217.5,647.5,SBD,Single-ply
Jarosław Olech,1,Middle,M,1974,Poland,74,71.52,340,355,-365,355,207.5,-212.5,212.5,212.5,290,307.5,315,315,882.5,SBD,Single-ply
Volodymyr Rysiev,2,Middle,M,1982,Ukraine,83,82.6,342.5,352.5,360,360,245,252.5,-260,252.5,310,325,332.5,332.5,945,SBD,Single-ply
Andriy Naniev,3,Middle,M,1984,Ukraine,83,82.83,337.5,347.5,-355,347.5,257.5,268.5,-272.5,268.5,300,310,315,315,931,SBD,Single-ply
Andrey Prokopenko,4,Middle,M,1988,Kazakhstan,83,74.37,310,320,327.5,327.5,225,232.5,237.5,237.5,285,297.5,302.5,302.5,867.5,SBD,Single-ply
Adam Ramzy,5,Middle,M,1990,Canada,83,81.28,335,345,352.5,352.5,255,-260,-260,255,305,310,-315,310,917.5,SBD,Single-ply
Knute Douglas,6,Middle,M,1989,USA,83,82.76,345,352.5,357.5,357.5,215,222.5,-225,222.5,310,-320,-320,310,890,SBD,Single-ply
Kim-Raino Rølvåg,7,Middle,M,1986,Norway,83,81.95,-317.5,322.5,330,330,-245,245,252.5,252.5,270,280,290,290,872.5,SBD,Single-ply
Nobuyuki Hamada,8,Middle,M,1969,Japan,74,73.39,-290,290,-300,290,220,227.5,-230,227.5,260,270,275,275,792.5,SBD,Single-ply
Norihiro Otani,9,Middle,M,1980,Japan,74,72.44,-290,290,-307.5,290,-232.5,-232.5,232.5,232.5,240,250,-260,250,772.5,SBD,Single-ply
Rabah El Fekair,10,Middle,M,1987,Algeria,83,75.44,310,-312.5,320,320,140,145,-150,145,270,285,-300,285,750,SBD,Single-ply
Sergii Bilyi,1,Heavy,M,1990,Ukraine,105,98.11,385,400,407.5,407.5,285,295,297.5,297.5,350,362.5,375,375,1080,SBD,Single-ply
Dmitry Inzarkin,2,Heavy,M,1987,Russia,93,91.27,360,-370,-370,360,275,282.5,-290,282.5,330,345,350,350,992.5,SBD,Single-ply
Dmytro Semenenko,3,Heavy,M,1988,Ukraine,105,104.08,415,432,-440.5,432,265,272.5,280,280,330,-342.5,-342.5,330,1042,SBD,Single-ply
Sofiane Belkesir,4,Heavy,M,1984,France,105,104.7,377.5,390,-395,390,265,272.5,-275,272.5,340,355,-362.5,355,1017.5,SBD,Single-ply
Ian Bell,5,Heavy,M,1992,USA,93,92.67,345,357.5,-365,357.5,217.5,225,230,230,357.5,371,-380,371,958.5,SBD,Single-ply
Sascha Stendebach,6,Heavy,M,1991,Germany,93,92.79,-337.5,337.5,-345,337.5,265,270,275,275,335,342.5,-347.5,342.5,955,SBD,Single-ply
Stian Walgermo,7,Heavy,M,1988,Norway,105,104.96,382.5,-390,,382.5,-282.5,282.5,-287.5,282.5,305,315,322.5,322.5,987.5,SBD,Single-ply
David Coimbra,8,Heavy,M,1983,Brazil,93,91.96,-320,325,340,340,232.5,247.5,-257.5,247.5,327.5,345,-371.5,345,932.5,SBD,Single-ply
Charlie Conner,9,Heavy,M,1989,USA,105,103.15,-370,372.5,382.5,382.5,312.5,-325,-325,312.5,265,280,-290,280,975,SBD,Single-ply
Jan Wegiera,10,Heavy,M,1965,Poland,93,92.92,320,340,350,350,290,300,-305.5,300,260,-280,280,280,930,SBD,Single-ply
Kristoffer Skadsem Eikeland,DQ,Heavy,M,1989,Norway,105,104.98,350,355,-360,355,-290,-295,-295,,325,340,-350,340,,SBD,Single-ply
Oleksiy Rokochyy Jr,1,SuperHeavy,M,1981,Ukraine,120+,122.32,415,432.5,-435,432.5,300,310,317.5,317.5,340,350,355,355,1105,SBD,Single-ply
Joseph Cappellino,2,SuperHeavy,M,1988,USA,120+,166.26,-440,-440,440,440,-350,350,-360,350,335,-355,-372.5,335,1125,SBD,Single-ply
Nurlan Yeshmakhanov,3,SuperHeavy,M,1990,Kazakhstan,120,117.61,-375,375,390,390,270,280,290,290,320,340,365,365,1045,SBD,Single-ply
David Lupáč,4,SuperHeavy,M,1991,Czechia,120+,145.32,-415,415,-425,415,320,330,-335,330,320,340,-350,340,1085,SBD,Single-ply
Krzysztof Wierzbicki,5,SuperHeavy,M,1990,Poland,120,105.07,285,300,,300,175,190,200,200,388,408.5,420,420,920,SBD,Single-ply
Ryan Stinn,6,SuperHeavy,M,1981,Canada,120+,144.25,-380,-385,385,385,285,-295,-295,285,280,295,-305,295,965,SBD,Single-ply
Oleksiy Bychkov,DQ,SuperHeavy,M,1985,Ukraine,120,119.8,-405,-410,-410,,,,,,,,,,,SBD,Single-ply
Kevin Jäger #1,DQ,SuperHeavy,M,1995,Germany,120+,129.83,-392.5,-392.5,-392.5,,-390,,,,,,,,,SBD,Single-ply
Júlían J.K. Jóhannsson,DQ,SuperHeavy,M,1993,Iceland,120+,166.24,-395,-405,-405,,295,-305,-315,295,330,350,-370,350,,SBD,Single-ply
Blaine Sumner,DQ,SuperHeavy,M,1987,USA,120+,175.21,-475,-475,475,475,405,-425,-425,405,-335,-335,-335,,,SBD,Single-ply
Natalia Salnikova,1,Light,F,1986,Russia,52,50.88,195,205,210,210,127.5,132.5,135,135,170,180,,180,525,SBD,Single-ply
Yukako Fukushima,2,Light,F,1970,Japan,47,46.44,170,-180,185,185,125,132.5,135,135,155,165,-172.5,165,485,SBD,Single-ply
Wei-Ling Chen,3,Light,F,1982,Taiwan,47,44.27,-175,175,185,185,80,85,87.5,87.5,170,180,-197.5,180,452.5,SBD,Single-ply
María Luisa Vásquez,4,Light,F,1983,Puerto Rico,47,45.41,-175,177.5,182.5,182.5,-105,105,110,110,155,-160,160,160,452.5,SBD,Single-ply
Maria Dominguez,5,Light,F,1995,Venezuela,52,51.99,180,187.5,-192.5,187.5,-145,147.5,150,150,162.5,-170,-175,162.5,500,SBD,Single-ply
Frankmary Duno,6,Light,F,1987,Venezuela,47,46.14,170,-177.5,-177.5,170,110,-115,-115,110,155,160,162.5,162.5,442.5,SBD,Single-ply
Kateryna Klymenko,7,Light,F,1985,Ukraine,52,51.88,170,175,-180,175,110,117.5,120,120,165,172.5,-177.5,172.5,467.5,SBD,Single-ply
Steph Kean,8,Light,F,1986,Canada,52,51.67,170,-177.5,-180,170,82.5,87.5,-95,87.5,172.5,175,-180,175,432.5,SBD,Single-ply
Vanessa Martin,9,Light,F,1976,France,52,51.75,165,-170,170,170,92.5,97.5,-102.5,97.5,155,160,165,165,432.5,SBD,Single-ply
Olimpia Felińska,DQ,Light,F,1992,Poland,52,51.73,-170,-170,-170,,80,85,-87.5,85,140,150,155,155,,SBD,Single-ply
Larysa Soloviova,1,Middle,F,1978,Ukraine,63,62.94,215,-225,225,225,160,170,-180,170,200,210,-220,210,605,SBD,Single-ply
Anna Ryzhkova,2,Middle,F,1986,Russia,57,56.92,205,215,220,220,130,140,-145,140,185,192.5,-200,192.5,552.5,SBD,Single-ply
Hui-Chun Wu,3,Middle,F,1986,Taiwan,63,58.94,190,200,205,205,130,140,145,145,195,200,202.5,202.5,552.5,SBD,Single-ply
Vilma Ochoa Vargas,4,Middle,F,1980,Ecuador,57,53.38,-205,212.5,-217.5,212.5,105,-112.5,-115,105,170,180,187.5,187.5,505,SBD,Single-ply
Olga Adamovich,5,Middle,F,1991,Russia,63,61.6,215,222.5,227.5,227.5,132.5,-137.5,-137.5,132.5,190,200,-212.5,200,560,SBD,Single-ply
Cícera Tavares,6,Middle,F,1976,Brazil,63,61.8,-215,215,220,220,-122.5,122.5,-127.5,122.5,-210,210,-232.5,210,552.5,SBD,Single-ply
Érica Batista Bueno,7,Middle,F,1980,Brazil,63,58.71,185,192.5,-197.5,192.5,147.5,-155,155,155,182.5,-187.5,-192.5,182.5,530,SBD,Single-ply
Kenia Monserrate,8,Middle,F,1991,Ecuador,63,57.19,190,200,207.5,207.5,95,102.5,107.5,107.5,180,190,195,195,510,SBD,Single-ply
Gundula Fiona Sommer von Bachhaus,9,Middle,F,1981,Germany,63,61.82,150,165,180,180,155,170,-185.5,170,160,175,187.5,187.5,537.5,SBD,Single-ply
Egdimar Ruiz,DQ,Middle,F,1991,Venezuela,57,52.19,-190,-195,-197.5,,,,,,,,,,,SBD,Single-ply
Ana Rosa Castellain,1,Heavy,F,1985,Brazil,72,66.96,240,247.5,-252.5,247.5,167.5,-172.5,175,175,-200,205,212.5,212.5,635,SBD,Single-ply
Priscilla Ribic,2,Heavy,F,1972,USA,72,69.94,-235,235,-250,235,150,160,-162.5,160,227.5,240,-260,240,635,SBD,Single-ply
Yenifer Canelón,3,Heavy,F,1987,Venezuela,72,63.02,225,235,-240,235,125,132.5,-137.5,132.5,220,-227.5,-227.5,220,587.5,SBD,Single-ply
Marte Elverum,4,Heavy,F,1990,Norway,72,71.57,235,-242.5,242.5,242.5,135,140,-145,140,232.5,237.5,248.5,248.5,631,SBD,Single-ply
Rhaea Stinn,5,Heavy,F,1988,Canada,72,71.01,230,237.5,247.5,247.5,157.5,-165,-165,157.5,200,207.5,-212.5,207.5,612.5,SBD,Single-ply
Antonietta Orsini,6,Heavy,F,1964,Italy,72,64.32,-205,205,212.5,212.5,-140,-140,140,140,190,202.5,-215,202.5,555,SBD,Single-ply
Ankie Timmers,7,Heavy,F,1986,Netherlands,72,71.34,210,-217.5,220,220,152.5,157.5,-160,157.5,210,217.5,-222.5,217.5,595,SBD,Single-ply
Yulia Medvedeva,8,Heavy,F,1986,Russia,72,63.21,205,-215,-215,205,145,152.5,-157.5,152.5,160,170,,170,527.5,SBD,Single-ply
Johanna Aguinaga,9,Heavy,F,1993,Ecuador,72,64.98,-190,-195,195,195,155,-160,-160,155,165,175,-180,175,525,SBD,Single-ply
Chantelle Du Toit,10,Heavy,F,1985,South Africa,72,71.78,145,155,162.5,162.5,105,-110,110,110,150,160,-167.5,160,432.5,SBD,Single-ply
Bonica Brown,1,SuperHeavy,F,1988,USA,84+,130.97,297.5,310.5,-315,310.5,-205,205,-215,205,227.5,240,247.5,247.5,763,SBD,Single-ply
Tetyana Melnyk,2,SuperHeavy,F,1985,Ukraine,84,73.25,-230,237.5,245,245,165,170,-175,170,190,200,205,205,620,SBD,Single-ply
Liane Blyn,3,SuperHeavy,F,1972,USA,84,79.48,235,242.5,-247.5,242.5,-175,175,182.5,182.5,210,217.5,-227.5,217.5,642.5,SBD,Single-ply
Ielja Strik,4,SuperHeavy,F,1973,Netherlands,84+,84.5,237.5,250,255,255,-172.5,-172.5,172.5,172.5,205,212.5,-217.5,212.5,640,SBD,Single-ply
Yevheniia Tishakova,5,SuperHeavy,F,1989,Ukraine,84,80.87,260,-270,-270,260,135,-140,140,140,210,220,-230,220,620,SBD,Single-ply
Heidi Hille Arnesen,6,SuperHeavy,F,1970,Norway,84,83.76,240,247.5,-252.5,247.5,140,145,-150,145,207.5,212.5,215,215,607.5,SBD,Single-ply
Marzena Wierzbicka,7,SuperHeavy,F,1989,Poland,84,74.23,210,-220,220,220,120,125,130,130,200,-210,210,210,560,SBD,Single-ply
Nadezhda Sindikas,8,SuperHeavy,F,1986,Russia,84,82.6,-220,225,-240,225,140,-150,150,150,190,-200,202.5,202.5,577.5,SBD,Single-ply
Ágnes Szabó,9,SuperHeavy,F,1988,Hungary,84+,116.99,240,255,260,260,-190,190,195,195,190,-200,-202.5,190,645,SBD,Single-ply
Ya-Wen Chang,10,SuperHeavy,F,1984,Taiwan,84+,96.24,235,245,-250,245,-145,-145,145,145,205,217.5,-227.5,217.5,607.5,SBD,Single-ply
