Division,WeightClassKg,Place,Name,Team,BodyweightKg,Best3SquatKg,Best3BenchKg,Best3DeadliftKg,TotalKg,Equipment,Event,Sex
Boys,51.71,1,Will Cross,Huntington,51.35,113.4,65.77,140.61,319.78,Single-ply,SBD,M
Boys,51.71,2,Cye Wilson,Huntington,49.44,86.18,56.7,104.33,247.21,Single-ply,SBD,M
Boys,51.71,3,Corey Frazier,Jasper,43.09,43.09,34.02,102.06,179.17,Single-ply,SBD,M
Boys,55.79,1,Melvin Suell,Center,54.88,122.47,77.11,161.03,360.61,Single-ply,SBD,M
Boys,55.79,2,Bj Wafer,Huntington,54.88,97.52,77.11,120.2,294.84,Single-ply,SBD,M
Boys,55.79,3,Brian Ruiz,Center,52.62,79.38,45.36,104.33,229.06,Single-ply,SBD,M
Boys,59.87,1,Kaegan Dillard,Lufkin,59.87,158.76,70.31,158.76,387.82,Single-ply,SBD,M
Boys,59.87,2,Jay Harris,Huntington,59.78,124.74,90.72,140.61,356.07,Single-ply,SBD,M
Boys,59.87,3,Jesse Rose,Shelbyville,57.61,113.4,74.84,131.54,319.78,Single-ply,SBD,M
Boys,59.87,DQ,Josh Mathis,Diboll,58.97,90.72,54.43,113.4,,Single-ply,SBD,M
Boys,67.13,1,Justin Lovett,Center,67.13,161.03,120.2,199.58,480.81,Single-ply,SBD,M
Boys,67.13,2,KeKe Flanigan,San Augustine,66.9,158.76,74.84,199.58,433.18,Single-ply,SBD,M
Boys,67.13,3,Chance Mays,Jasper,66.68,158.76,83.91,188.24,430.91,Single-ply,SBD,M
Boys,67.13,4,Jetarvis Jackson,Center,67.13,142.88,117.93,158.76,419.57,Single-ply,SBD,M
Boys,67.13,5,TyAundra Taylor,San Augustine,65.32,145.15,88.45,181.44,415.04,Single-ply,SBD,M
Boys,67.13,6,Doug Waters,Diboll,61.69,147.42,88.45,142.88,378.75,Single-ply,SBD,M
Boys,67.13,7,Jason Williams,Huntington,63.5,104.33,63.5,142.88,310.71,Single-ply,SBD,M
Boys,67.13,8,Quincy Ivey,Lufkin,63.96,99.79,68.04,138.35,306.17,Single-ply,SBD,M
Boys,67.13,9,Lane Williams,Huntington,66.32,90.72,61.23,131.54,283.5,Single-ply,SBD,M
Boys,67.13,10,Fidell Perez,Joaquin,63.5,113.4,52.16,108.86,274.42,Single-ply,SBD,M
Boys,67.13,11,Chris Horn,Jasper,64.41,56.7,45.36,102.06,204.12,Single-ply,SBD,M
Boys,67.13,DQ,Iman Ashtiani,Jasper,67.13,,,,,Single-ply,SBD,M
Boys,67.13,DQ,Cielance Bailey,Diboll,62.14,113.4,,,,Single-ply,SBD,M
Boys,74.84,1,Xavier Brown,San Augustine,74.84,172.37,122.47,181.44,476.27,Single-ply,SBD,M
Boys,74.84,2,Kj Garrett,Center,74.39,151.95,108.86,185.97,446.79,Single-ply,SBD,M
Boys,74.84,3,Andrew Dean,Joaquin,71.44,158.76,97.52,156.49,412.77,Single-ply,SBD,M
Boys,74.84,4,Alex Renfro,San Augustine,74.84,142.88,83.91,181.44,408.23,Single-ply,SBD,M
Boys,74.84,5,Bubba Cook,Diboll,68.49,151.95,90.72,158.76,401.43,Single-ply,SBD,M
Boys,74.84,6,Josh Packard,Huntington,72.21,127.01,90.72,154.22,371.95,Single-ply,SBD,M
Boys,74.84,7,Garrett Standley,Center,71.67,127.01,70.31,161.03,358.34,Single-ply,SBD,M
Boys,74.84,8,Ethan Guley,Shelbyville,73.94,106.59,65.77,167.83,340.19,Single-ply,SBD,M
Boys,74.84,9,Moises Arrajo,Center,69.85,106.59,77.11,145.15,328.85,Single-ply,SBD,M
Boys,74.84,10,Salvadore Santana,Shelbyville,68.95,108.86,74.84,140.61,324.32,Single-ply,SBD,M
Boys,74.84,11,Brennan Shedd,Shelbyville,74.39,111.13,58.97,136.08,306.17,Single-ply,SBD,M
Boys,74.84,12,Luke Martin,Huntington,68.04,102.06,54.43,111.13,267.62,Single-ply,SBD,M
Boys,82.1,1,Jamorian Houston,Lufkin,77.11,158.76,106.59,195.04,460.4,Single-ply,SBD,M
Boys,82.1,2,Zach Mason,Joaquin,81.65,170.1,97.52,192.78,460.4,Single-ply,SBD,M
Boys,82.1,3,Markeith Cauley,Jasper,78.02,142.88,106.59,174.63,424.11,Single-ply,SBD,M
Boys,82.1,4,Nick Stott,Jasper,77.56,142.88,102.06,174.63,419.57,Single-ply,SBD,M
Boys,82.1,5,Kianis Williams,Center,80.74,154.22,83.91,181.44,419.57,Single-ply,SBD,M
Boys,82.1,6,Cort McPherson,Lufkin,81.65,124.74,83.91,188.24,396.89,Single-ply,SBD,M
Boys,82.1,7,Hunter Mettlen,Huntington,81.47,129.27,97.52,154.22,381.02,Single-ply,SBD,M
Boys,82.1,8,Wyatt Windham,Shelbyville,79.83,136.08,88.45,136.08,360.61,Single-ply,SBD,M
Boys,82.1,9,Robert Butcher,Lufkin,81.19,142.88,65.77,147.42,356.07,Single-ply,SBD,M
Boys,82.1,DQ,Cody Causey,Joaquin,77.56,154.22,,,,Single-ply,SBD,M
Boys,89.81,1,Khadafy Davis,San Augustine,88,215.46,108.86,235.87,560.19,Single-ply,SBD,M
Boys,89.81,2,Tyler McSwain,Joaquin,88,183.7,120.2,197.31,501.22,Single-ply,SBD,M
Boys,89.81,3,Nathan Sears,Center,83.91,185.97,120.2,190.51,496.68,Single-ply,SBD,M
Boys,89.81,4,Robert Harrison,San Augustine,89.36,195.04,95.25,201.85,492.15,Single-ply,SBD,M
Boys,89.81,5,Justin Mays,Jasper,89.81,192.78,102.06,192.78,487.61,Single-ply,SBD,M
Boys,89.81,6,Quin Sawyer,Diboll,85.28,158.76,108.86,176.9,444.52,Single-ply,SBD,M
Boys,89.81,7,Jacob Cartwright,Huntington,85.28,183.7,92.99,161.03,437.72,Single-ply,SBD,M
Boys,89.81,8,Alex Moreno,San Augustine,89.13,165.56,113.4,158.76,437.72,Single-ply,SBD,M
Boys,89.81,9,Erik Louis,Lufkin,83.01,122.47,58.97,181.44,362.87,Single-ply,SBD,M
Boys,89.81,DQ,Alan Woodfin,Joaquin,83.46,154.22,,,,Single-ply,SBD,M
Boys,99.79,1,Kevinski Pitts,Center,94.8,249.48,138.35,249.48,637.3,Single-ply,SBD,M
Boys,99.79,2,Aaron Liker,Center,96.62,217.72,131.54,204.12,553.38,Single-ply,SBD,M
Boys,99.79,3,Eduardo Miranda,Diboll,92.08,170.1,115.67,174.63,460.4,Single-ply,SBD,M
Boys,99.79,4,Will Capps,Huntington,99.34,170.1,97.52,172.37,439.98,Single-ply,SBD,M
Boys,99.79,5,Austin Brown,Lufkin,94.35,154.22,72.57,190.51,417.3,Single-ply,SBD,M
Boys,99.79,6,Carl Matthews,Lufkin,98.43,151.95,99.79,147.42,399.16,Single-ply,SBD,M
Boys,99.79,7,Holden Cummings,Joaquin,94.35,142.88,83.91,167.83,394.63,Single-ply,SBD,M
Boys,109.77,1,Dillon Bryer,Jasper,101.6,204.12,124.74,206.38,535.24,Single-ply,SBD,M
Boys,109.77,2,Devron Hadnot,Diboll,105.69,210.92,127.01,195.04,532.97,Single-ply,SBD,M
Boys,109.77,3,Monty Williams,Diboll,100.7,226.8,115.67,188.24,530.7,Single-ply,SBD,M
Boys,109.77,4,BriDarian Dodd,Center,108.86,190.51,120.2,206.38,517.1,Single-ply,SBD,M
Boys,109.77,5,Jevaris Rankin,Center,105.23,192.78,111.13,197.31,501.22,Single-ply,SBD,M
Boys,109.77,6,Cyrus Martin,Diboll,107.95,217.72,99.79,174.63,492.15,Single-ply,SBD,M
Boys,109.77,7,Jacob Slaughter,Huntington,107.5,181.44,99.79,204.12,485.34,Single-ply,SBD,M
Boys,109.77,8,Dominic Hall,Lufkin,102.06,127.01,102.06,147.42,376.48,Single-ply,SBD,M
Boys,109.77,9,Omar Lopez,Lufkin,102.97,156.49,61.23,145.15,362.87,Single-ply,SBD,M
Boys,109.77,DQ,Rhett Golden,Joaquin,106.59,195.04,,,,Single-ply,SBD,M
Boys,124.74,1,Dj Parks,San Augustine,124.28,215.46,124.74,190.51,530.7,Single-ply,SBD,M
Boys,124.74,2,Austin Underbrink,Joaquin,121.11,188.24,136.08,183.7,508.02,Single-ply,SBD,M
Boys,124.74,3,John Serrato,Diboll,113.4,201.85,108.86,185.97,496.68,Single-ply,SBD,M
Boys,124.74,4,Brandon White #2,Diboll,110.68,163.29,104.33,172.37,439.98,Single-ply,SBD,M
Boys,124.74,5,Jake Davis,San Augustine,119.98,149.69,102.06,167.83,419.57,Single-ply,SBD,M
Boys,124.74+,1,Jarvis Adams,Jasper,136.08,233.6,140.61,226.8,601.01,Single-ply,SBD,M
Boys,124.74+,2,Edwin Hurtado,Diboll,126.1,195.04,115.67,204.12,514.83,Single-ply,SBD,M
Boys,124.74+,3,Seth Johnson #4,Diboll,144.7,181.44,113.4,181.44,476.27,Single-ply,SBD,M
