Place,Name,Age,Team,Equipment,Division,BodyweightKg,WeightClassKg,Squat1Kg,Squat2Kg,Squat3Kg,Best3SquatKg,Bench1Kg,Bench2Kg,Bench3Kg,Best3BenchKg,Deadlift1Kg,Deadlift2Kg,Deadlift3Kg,Best3DeadliftKg,TotalKg,Event,Sex
1,Ishka Trace-Kleeberg,21,SE,Raw,FR-Jr,47.4,52,72.5,77.5,-82.5,77.5,47.5,-52.5,-52.5,47.5,80,87.5,92.5,92.5,217.5,SBD,F
1,Mollie Thorpe,20,SW,Raw,FR-Jr,61.2,63,122.5,130,135,135,67.5,72.5,-75,72.5,130,145,150,150,357.5,SBD,F
2,Liv Harris,22,SE,Raw,FR-Jr,61,63,90,97.5,102.5,102.5,60,-65,-65,60,130,-140,147.5,147.5,310,SBD,F
3,Kirsty Wright,23,SW,Raw,FR-Jr,61.6,63,-95,100,110,110,45,-47.5,-50,45,120,-125,-125,120,275,SBD,F
4,Emma Williams #1,22,SW,Raw,FR-Jr,62.3,63,85,90,,90,50,55,-57.5,55,65,,,65,210,SBD,F
5,Hannah Cheney,22,SW,Raw,FR-Jr,61.4,63,65,70,72.5,72.5,-37.5,37.5,40,40,80,87.5,92.5,92.5,205,SBD,F
1,Isabelle Jefferies,21,EM,Raw,FR-Jr,66.3,72,97.5,105,110,110,50,55,60,60,110,120,130,130,300,SBD,F
1,Imogen Fenner,23,SW,Raw,FR-Jr,83,84,120,125,130,130,60,65,67.5,67.5,122.5,-127.5,-127.5,122.5,320,SBD,F
1,Lucy Brown,40,SW,Raw,FR-M1,88.2,84+,90,95,100,100,45,47.5,-50,47.5,112.5,117.5,122.5,122.5,270,SBD,F
1,Sandra Wright,52,NW,Raw,FR-M2,91.7,84+,-85,95,115,115,50,60,70,70,-115,125,142.5,142.5,327.5,SBD,F
1,Ann Morgan,63,SW,Raw,FR-M3,70.2,72,,,,,30,32.5,-35,32.5,,,,,32.5,B,F
1,Lenka Pilnikova,36,NM,Raw,FR-O,47.2,52,95,102.5,105,105,67.5,72.5,-75,72.5,135,140,-145,140,317.5,SBD,F
1,Sunita Raja,30,NM,Raw,FR-O,56.9,57,120,125,135,135,75,80,85,85,150,160,-170,160,380,SBD,F
2,Sarah Hattee,31,WM,Raw,FR-O,55.5,57,80,85,90,90,55,57.5,62.5,62.5,120,125,130,130,282.5,SBD,F
3,Amina Bux,29,EM,Raw,FR-O,56.5,57,75,82.5,-90,82.5,55,60,67.5,67.5,105,115,120,120,270,SBD,F
4,Kat Armstrong,26,SW,Raw,FR-O,56.4,57,75,82.5,-90,82.5,35,40,-45,40,80,-90,-90,80,202.5,SBD,F
1,Lucia Puricelli,26,WM,Raw,FR-O,62.8,63,142.5,152.5,160,160,-87.5,90,-95,90,150,160,170,170,420,SBD,F
2,Hannah Yardy,37,SW,Raw,FR-O,62.8,63,110,117.5,122.5,122.5,62.5,67.5,72.5,72.5,145,157.5,172.5,172.5,367.5,SBD,F
3,Catherine Phipps,29,SM,Raw,FR-O,62.1,63,115,125,132.5,132.5,65,-70,-70,65,150,160,167.5,167.5,365,SBD,F
4,Maariyah Tahir,30,GL,Raw,FR-O,62.5,63,107.5,115,-122.5,115,65,-70,70,70,152.5,-165,170,170,355,SBD,F
5,Nasreen Ahmed Brooker,36,WM,Raw,FR-O,62.6,63,105,112.5,-115,112.5,55,60,-62.5,60,137.5,145,-150,145,317.5,SBD,F
6,Sara Lessmann,28,GL,Raw,FR-O,62.5,63,105,-110,-110,105,65,70,-75,70,117.5,120,125,125,300,SBD,F
1,Emily Williams #1,29,GL,Raw,FR-O,71.4,72,147.5,157.5,-165,157.5,70,75,-77.5,75,150,-160,160,160,392.5,SBD,F
2,Abigail Simmons,27,SW,Raw,FR-O,68.2,72,127.5,135,-142.5,135,70,77.5,82.5,82.5,157.5,167.5,172.5,172.5,390,SBD,F
3,Rianna Graham,25,SW,Raw,FR-O,68.2,72,137.5,145,150,150,82.5,86,-90,86,142.5,152.5,-157.5,152.5,388.5,SBD,F
4,Lianne Brook,29,WM,Raw,FR-O,70.9,72,130,137.5,-142.5,137.5,72.5,-77.5,-77.5,72.5,145,152.5,160,160,370,SBD,F
5,Bernadett Erdelyi,30,SM,Raw,FR-O,71.5,72,125,132.5,-137.5,132.5,-60,62.5,-65,62.5,130,135,-140,135,330,SBD,F
6,Cara O'keefe,29,SW,Raw,FR-O,69.2,72,107.5,112.5,-120,112.5,52.5,57.5,60,60,120,130,140,140,312.5,SBD,F
7,Holly Malins,28,SM,Raw,FR-O,69,72,75,87.5,-95,87.5,55,57.5,-67.5,57.5,115,125,130,130,275,SBD,F
1,Lola Gloria Alabi,26,GL,Raw,FR-O,78.9,84,145,152.5,157.5,157.5,65,70,72.5,72.5,152.5,162.5,172.5,172.5,402.5,SBD,F
2,Bethan Ashton,24,SW,Raw,FR-O,80,84,135,142.5,-150,142.5,65,70,72.5,72.5,140,150,155,155,370,SBD,F
3,Farzana Ahmed,38,WM,Raw,FR-O,82.9,84,105,115,122.5,122.5,45,52.5,57.5,57.5,115,127.5,137.5,137.5,317.5,SBD,F
4,Cara Waller,27,SM,Raw,FR-O,82.6,84,82.5,92.5,-100,92.5,42.5,50,-52.5,50,110,117.5,-122.5,117.5,260,SBD,F
1,Hira Teirney,37,SW,Raw,FR-O,87.1,84+,160,167.5,172.5,172.5,82.5,85,-87.5,85,210,220,-225,220,477.5,SBD,F
2,Claire Roberts,36,NW,Raw,FR-O,97.2,84+,155,160,170,170,-70,75,90,90,180,200,205,205,465,SBD,F
3,Charlotte Stapleton,29,EM,Raw,FR-O,88.3,84+,75,-85,85,85,52.5,-57.5,60,60,105,115,117.5,117.5,262.5,SBD,F
1,Olly Turner,23,SW,Raw,MR-Jr,73,74,160,167.5,175,175,107.5,115,-120,115,200,210,-220,210,500,SBD,M
2,James Freeman #1,20,NM,Raw,MR-Jr,73.1,74,145,155,-160,155,70,75,85,85,180,190,195,195,435,SBD,M
3,Lee Harris,21,WM,Raw,MR-Jr,72.1,74,,,,,140,150,160,160,,,,,160,B,M
1,Jack Suljevic,23,SW,Raw,MR-Jr,83,83,245,257.5,265,265,132.5,140,145,145,260,280,290,290,700,SBD,M
2,David Payne,22,SW,Raw,MR-Jr,80.8,83,165,175,182.5,182.5,120,130,135,135,195,205,215,215,532.5,SBD,M
1,Alex Fraser,22,NM,Raw,MR-Jr,86.2,93,170,175,-182.5,175,-105,110,-115,110,225,232.5,,232.5,517.5,SBD,M
2,Jack Hale,22,SW,Raw,MR-Jr,91.2,93,160,170,177.5,177.5,115,122.5,-140,122.5,170,190,215,215,515,SBD,M
3,Nicholas Potter,21,SE,Raw,MR-Jr,91.5,93,150,165,180,180,87.5,-95,-95,87.5,180,200,215,215,482.5,SBD,M
4,Greg Dix,22,SW,Raw,MR-Jr,90.1,93,157.5,165,170,170,82.5,87.5,92.5,92.5,180,190,200,200,462.5,SBD,M
1,Callum Weir,19,SW,Raw,MR-Jr,98.9,105,250,257.5,263,263,112.5,117.5,120,120,255,272.5,277.5,277.5,660.5,SBD,M
2,Vikram Thakur,22,WM,Raw,MR-Jr,96,105,215,227.5,237.5,237.5,135,140,-142.5,140,240,255,270,270,647.5,SBD,M
3,Jack Dunk,19,SM,Raw,MR-Jr,103.3,105,190,-202.5,-202.5,190,125,-135,-135,125,235,-245,250,250,565,SBD,M
4,Kieron Evans,21,NM,Raw,MR-Jr,104,105,200,210,-215,210,-135,142.5,147.5,147.5,200,205,207.5,207.5,565,SBD,M
1,Alex Stock,19,SM,Raw,MR-Jr,118.5,120,247.5,265,-275,265,135,145,147.5,147.5,247.5,265,-270,265,677.5,SBD,M
1,Martin Smith #1,46,SW,Raw,MR-M1,81.5,83,170,177.5,185,185,135,140,145,145,210,225,232.5,232.5,562.5,SBD,M
1,Jeff Day,55,SW,Raw,MR-M2,108.8,120,170,180,190,190,-120,120,130,130,180,-190,200,200,520,SBD,M
1,Kibria Ali,24,WM,Raw,MR-O,63.9,66,205,215,222.5,222.5,110,117.5,-120,117.5,230,245,-260,245,585,SBD,M
2,Jacob Downes,30,WAL,Raw,MR-O,64.9,66,165,177.5,185,185,107.5,117.5,122.5,122.5,210,222.5,235,235,542.5,SBD,M
3,Giorgio Hlad,26,SW,Raw,MR-O,65.4,66,190,-200,200,200,120,125,,125,200,210,,210,535,SBD,M
1,Jordan Partington,25,SW,Raw,MR-O,73.5,74,225,237.5,-245,237.5,130,140,145,145,225,240,250,250,632.5,SBD,M
2,Steven Tyers,30,SW,Raw,MR-O,73.7,74,205,220,230,230,130,140,145,145,225,240,250,250,625,SBD,M
3,John Phillips,27,SW,Single-ply,M-O,73.3,74,215,225,,225,-140,140,142.5,142.5,215,227.5,-235,227.5,595,SBD,M
1,Christopher Teague,28,WM,Raw,MR-O,83,83,237.5,250,-255,250,175,-182.5,-182.5,175,250,267.5,-275,267.5,692.5,SBD,M
2,Liam Belcher,30,GL,Raw,MR-O,82.8,83,230,237.5,240,240,150,-155,-155,150,250,260,270,270,660,SBD,M
3,Kam Lee,25,GL,Raw,MR-O,81.4,83,172.5,180,182.5,182.5,135,140,-142.5,140,197.5,205,-212.5,205,527.5,SBD,M
4,Tommy Goodspeed,26,SW,Raw,MR-O,80.7,83,160,170,175,175,125,132.5,-140,132.5,180,200,207.5,207.5,515,SBD,M
1,Junior Nelson,29,WM,Raw,MR-O,89.1,93,240,-255,-255,240,155,165,-172.5,165,270,290,300,300,705,SBD,M
2,Owen Leggett,24,NM,Raw,MR-O,89.9,93,230,240,247.5,247.5,132.5,140,145,145,267.5,280,-285,280,672.5,SBD,M
3,Spencer Stylianides,25,EM,Raw,MR-O,92.9,93,225,-235,-235,225,-150,157.5,-165,157.5,227.5,242.5,-250,242.5,625,SBD,M
4,James Churchill,35,SW,Raw,MR-O,88.9,93,-195,-207.5,207.5,207.5,130,-140,140,140,195,212.5,222.5,222.5,570,SBD,M
5,Thomas Pugh,25,SM,Raw,MR-O,87.3,93,155,165,-175,165,102.5,110,115,115,-165,185,200,200,480,SBD,M
6,Thomas Win,37,SW,Raw,MR-O,85.5,93,145,155,160,160,75,-80,80,80,172.5,182.5,190,190,430,SBD,M
1,Max Taberham,24,SW,Raw,MR-O,104.3,105,247.5,262.5,275,275,162.5,170,-177.5,170,275,292.5,305,305,750,SBD,M
2,Kyle Renwick,23,EM,Raw,MR-O,104.9,105,232.5,247.5,260,260,150,157.5,-162.5,157.5,265,290,-300,290,707.5,SBD,M
3,Thomas Blakey,26,EM,Raw,MR-O,102.9,105,235,245,252.5,252.5,137.5,-145,145,145,232.5,245,260,260,657.5,SBD,M
1,Francis Sanders,28,EM,Raw,MR-O,119.8,120,275,300,310,310,167.5,175,180,180,300,325,335,335,825,SBD,M
2,Mike Roberts #1,32,SW,Raw,MR-O,110.4,120,210,220,230,230,-135,142.5,150,150,220,250,-280,250,630,SBD,M
3,Ahmed Sharif,28,SM,Raw,MR-O,111.1,120,212.5,-222.5,232.5,232.5,110,120,-125,120,235,247.5,252.5,252.5,605,SBD,M
4,Yianno Koumi,34,WM,Raw,MR-O,118.4,120,132.5,-145,150,150,95,100,-105,100,147.5,162.5,172.5,172.5,422.5,SBD,M
5,Harvey Robinson,24,WAL,Single-ply,M-O,117.3,120,,,,,305,312.5,317.5,317.5,,,,,317.5,B,M
1,Lewis Walden,25,SW,Raw,MR-O,162,120+,250,260,270,270,140,155,160,160,270,300,-310,300,730,SBD,M
2,Jim Matthews,38,SW,Raw,MR-O,134.7,120+,170,180,190,190,120,130,140,140,220,235,240,240,570,SBD,M
1,Louis Short,16,SW,Raw,MR-Sj,57.4,59,125,-137.5,137.5,137.5,65,75,77.5,77.5,150,160,-175,160,375,SBD,M
1,Dominic Topham,18,SW,Raw,MR-Sj,72.3,74,125,132.5,-135,132.5,75,80,-85,80,145,155,162.5,162.5,375,SBD,M
1,Robert Emslie,16,SE,Raw,MR-Sj,82.5,83,-75,75,80,80,35,40,-42.5,40,95,-100,100,100,220,SBD,M
1,Josh Meikle,17,SW,Raw,MR-Sj,89.4,93,137.5,150,157.5,157.5,102.5,110,-115,110,192.5,205,212.5,212.5,480,SBD,M
