Place,WeightClassKg,Name,CyrillicName,Team,BirthDate,Division,BodyweightKg,Bench1Kg,Bench2Kg,Bench3Kg,Bench4Kg,Best3BenchKg,Deadlift1Kg,Deadlift2Kg,Deadlift3Kg,Deadlift4Kg,Best3DeadliftKg,TotalKg,Event,Equipment,Tested,Sex
1,44,Inna Makarova,Инна Макарова,Тор-Фитнес,1994-10-29,Amateur Open,43.5,45,-50,-50,,45,,,,,,45,B,Raw,Yes,F
2,44,Ekaterina Sklyar,Екатерина Скляр,Колизей,1978-06-15,Amateur Open,43.6,35,-40,-40,,35,,,,,,35,B,Raw,Yes,F
1,48,Evgeniya Akhmetzyanova,Евгения Ахметзянова,Лайт-Фитнес,1991-06-24,Amateur Open,45.95,50,55,-57.5,,55,,,,,,55,B,Raw,Yes,F
2,48,Irina Minofeva,Ирина Минофьева,Бодибум,1982-09-26,Amateur Open,47.6,50,55,-57.5,,55,,,,,,55,B,Raw,Yes,F
3,48,Faina Sultangareeva,Фаина Султангареева,Стиль Жи,1988-07-18,Amateur Open,47.1,-47.5,-47.5,47.5,,47.5,,,,,,47.5,B,Raw,Yes,F
4,48,Anastasiya Shulga,Анастасия Шульга,Алекс-Фитнес,1990-09-01,Amateur Open,47.35,42.5,-45,-45,,42.5,,,,,,42.5,B,Raw,Yes,F
5,48,Margarita Didzhokayte,Маргарита Диджокайте,Тор-Фитнес,1992-10-07,Amateur Open,48,40,-45,-45,,40,,,,,,40,B,Raw,Yes,F
6,48,Mariya Chudinova,Мария Чудинова,Тор-Фитнес,1992-04-29,Amateur Open,47.6,-35,-35,35,,35,,,,,,35,B,Raw,Yes,F
1,52,Natalya Shchekaleva,Наталья Щекалева,Лев,1980-07-09,Amateur Open,50.45,-52.5,52.5,55,,55,,,,,,55,B,Raw,Yes,F
2,52,Alyona Ananeva,Алёна Ананьева,Кизил,2000-07-31,Amateur Open,50.5,45,-50,52.5,,52.5,,,,,,52.5,B,Raw,Yes,F
3,52,Alyona Sadilova,Алёна Садилова,Дрим-Тим,1988-07-06,Amateur Open,51.3,50,52.5,-55,,52.5,,,,,,52.5,B,Raw,Yes,F
4,52,Yana Putyatova,Яна Путятова,Кизил,2000-12-27,Amateur Open,51.5,45,-50,50,,50,,,,,,50,B,Raw,Yes,F
1,56,Olesya Dudina,Олеся Дудина,Бодибум,1990-08-02,Amateur Open,53.9,60,65,67.5,,67.5,,,,,,67.5,B,Raw,Yes,F
2,56,Irina Emelyanova,Ирина Емельянова,Колизей,1975-03-20,Amateur Open,55.7,65,-67.5,67.5,,67.5,,,,,,67.5,B,Raw,Yes,F
3,56,Viktoriya Gurskaya,Виктория Гурская,Тор-Фитнес,1994-08-15,Amateur Open,55.2,-65,65,-72.5,,65,,,,,,65,B,Raw,Yes,F
4,56,Darya Posokhina,Дарья Посохина,Березники,1997-04-03,Amateur Open,54.2,-52.5,52.5,55,,55,,,,,,55,B,Raw,Yes,F
5,56,Inna Loskutova,Инна Лоскутова,Колизей,1964-10-05,Amateur Open,55.15,40,45,47.5,,47.5,,,,,,47.5,B,Raw,Yes,F
6,56,Anastasiya Dmitrieva,Анастасия Дмитриева,Олимпия,1994-10-30,Amateur Open,53,40,42.5,-45,,42.5,,,,,,42.5,B,Raw,Yes,F
1,60,Anna Zavyalova,Анна Завьялова,Колизей,1975-08-26,Amateur Open,58.4,77.5,80,-82.5,,80,,,,,,80,B,Raw,Yes,F
2,60,Mariya Getashvili,Мария Геташвили,Колизей,1980-06-18,Amateur Open,58,65,70,-75,,70,,,,,,70,B,Raw,Yes,F
3,60,Natalya Sannikova,Наталья Санникова,Елово,1993-10-31,Amateur Open,59.6,55,60,-65,,60,,,,,,60,B,Raw,Yes,F
4,60,Olga Safonova,Ольга Сафонова,Тор-Фитнес,1967-08-16,Amateur Open,59.9,-45,45,50,,50,,,,,,50,B,Raw,Yes,F
1,67.5,Vera Ronzhina,Вера Роньжина,Бодибум,1970-10-09,Amateur Open,66.9,-62.5,62.5,67.5,,67.5,,,,,,67.5,B,Raw,Yes,F
DQ,67.5,Olga Kipriyanova,Ольга Киприянова,Олимп-Джим,2000-07-28,Amateur Open,67.5,-67.5,-67.5,-72.5,,,,,,,,,B,Raw,Yes,F
1,75,Elena Chepkaya,Елена Чепкая,Екатеринбург,1989-02-28,Amateur Open,74.85,92.5,100,-105,,100,,,,,,100,B,Raw,Yes,F
2,75,Natalya Mochilevskaya,Наталья Мочилевская,Тор-Фитнес,1986-03-03,Amateur Open,74.5,70,75,-77.5,,75,,,,,,75,B,Raw,Yes,F
1,82.5,Svetlana Nekrasova,Светлана Некрасова,Колизей,1963-03-02,Amateur Open,78.4,50,55,-57.5,,55,,,,,,55,B,Raw,Yes,F
1,60,Dmitriy Kornetov,Дмитрий Корнетов,Грин-Лайн,1996-10-26,Amateur Juniors 20-23,60,85,90,-97.5,,90,,,,,,90,B,Raw,Yes,M
1,60,Galimzhan Akhmetzyanov,Галимжан Ахметзянов,Чернушка,1952-10-29,Amateur Masters 50+,59.9,87.5,92.5,95,100,95,,,,,,95,B,Raw,Yes,M
1,60,Artem Yaganov,Артем Яганов,Пермь,1998-12-22,Amateur Teen,59,115,120,122.5,,122.5,,,,,,122.5,B,Raw,Yes,M
2,60,Evgeniy Bychkov,Евгений Бычков,Березники,1997-04-30,Amateur Teen,58.65,105,115,-120,,115,,,,,,115,B,Raw,Yes,M
3,60,Roman Kuskov,Роман Кусков,Заречный,1999-08-22,Amateur Teen,59,105,110,115,,115,,,,,,115,B,Raw,Yes,M
4,60,Kirill Konin,Кирилл Конин,Фаворит,2003-03-26,Amateur Teen,59.3,70,-72.5,72.5,,72.5,,,,,,72.5,B,Raw,Yes,M
1,67.5,Aleksandr Belyaev,Александр Беляев,Ермак,1996-05-12,Amateur Juniors 20-23,64.1,127.5,132.5,-135,,132.5,,,,,,132.5,B,Raw,Yes,M
2,67.5,Furkat Ismoilov,Фуркат Исмоилов,Екатеринбург,1994-11-01,Amateur Juniors 20-23,62.95,112.5,117.5,120,,120,,,,,,120,B,Raw,Yes,M
3,67.5,Danila Migunov,Данила Мигунов,Олимп-Джим,1995-04-30,Amateur Juniors 20-23,63.9,105,110,120,,120,,,,,,120,B,Raw,Yes,M
1,67.5,Andrey Shabunin,Андрей Шабунин,Кукуштан,1968-04-24,Amateur Masters 40-49,63.95,-125,127.5,-130,,127.5,,,,,,127.5,B,Raw,Yes,M
2,67.5,Vladimir Pushvintsev,Владимир Пушвинцев,Кукуштан,1968-07-31,Amateur Masters 40-49,65.3,100,-105,-105,,100,,,,,,100,B,Raw,Yes,M
1,67.5,Aleksey Shchipitsin,Алексей Щипицин,Чернушка,1991-03-21,Amateur Open,67.4,125,130,-140,,130,,,,,,130,B,Raw,Yes,M
2,67.5,Vitaliy Bazhgin,Виталий Бажгин,Кипр,1991-03-20,Amateur Open,67,105,110,115,,115,,,,,,115,B,Raw,Yes,M
3,67.5,Maksim Moshev,Максим Мошев,Уральский,1986-03-06,Amateur Open,64.7,100,-110,110,,110,,,,,,110,B,Raw,Yes,M
1,67.5,Roman Lobanov,Роман Лобанов,Дрим-Тим,1997-05-23,Amateur Teen,63.2,90,100,110,,110,,,,,,110,B,Raw,Yes,M
2,67.5,Ivan Chalpanov,Иван Чалпанов,Яйва,2002-03-23,Amateur Teen,65.15,102.5,-105,-107.5,,102.5,,,,,,102.5,B,Raw,Yes,M
1,75,Rushan Azmagulov,Рушан Азмагулов,Барда,1995-03-02,Amateur Juniors 20-23,73.3,105,112.5,120,,120,,,,,,120,B,Raw,Yes,M
1,75,Dmitriy Nekrasov,Дмитрий Некрасов,Колизей,1963-06-06,Amateur Masters 50+,74.1,120,125,130,,130,,,,,,130,B,Raw,Yes,M
2,75,Aleksandr Teplyashin,Александр Тепляшин,Колизей,1957-02-01,Amateur Masters 50+,74.95,110,115,-117.5,,115,,,,,,115,B,Raw,Yes,M
3,75,Valeriy Baranov,Валерий Баранов,Березники,1940-12-04,Amateur Masters 50+,73.3,80,85,-90,,85,,,,,,85,B,Raw,Yes,M
1,75,Anton Krasilnikov,Антон Красильников,Дрим-Тим,1981-12-29,Amateur Open,74,137.5,142.5,-145,,142.5,,,,,,142.5,B,Raw,Yes,M
2,75,Aleksandr Popkov,Александр Попков,Новоильинский,1985-09-03,Amateur Open,72.4,130,137.5,140,,140,,,,,,140,B,Raw,Yes,M
3,75,Aleksandr Melnikov,Александр Мельников,Олимпия,1991-06-03,Amateur Open,73.5,130,137.5,140,,140,,,,,,140,B,Raw,Yes,M
4,75,Artyom Petrov,Артём Петров,Лысьва,1989-04-07,Amateur Open,74.35,130,135,140,,140,,,,,,140,B,Raw,Yes,M
5,75,Dmitriy Kukharev,Дмитрий Кухарев,Соликамск,1980-02-16,Amateur Open,74.4,-137.5,-137.5,137.5,,137.5,,,,,,137.5,B,Raw,Yes,M
6,75,Daniil Morozov,Даниил Морозов,Колизей,1986-12-30,Amateur Open,74.85,127.5,132.5,137.5,,137.5,,,,,,137.5,B,Raw,Yes,M
7,75,Denis Sharipov,Денис Шарипов,Чернушка,1992-05-02,Amateur Open,74.9,125,137.5,-140,,137.5,,,,,,137.5,B,Raw,Yes,M
8,75,Andrey Panov,Андрей Панов,Ритм,1988-06-03,Amateur Open,73.7,130,-137.5,-137.5,,130,,,,,,130,B,Raw,Yes,M
9,75,Dmitriy Yudin,Дмитрий Юдин,Колизей,1987-01-05,Amateur Open,74.85,110,-115,-120,,110,,,,,,110,B,Raw,Yes,M
1,75,Nikolay Merinov,Николай Меринов,Фит-Лайн,1999-10-08,Amateur Teen,72,120,-125,127.5,,127.5,,,,,,127.5,B,Raw,Yes,M
2,75,Sergey Varnavskiy,Сергей Варнавский,Кизил,1997-09-19,Amateur Teen,67.9,-100,100,-105,,100,,,,,,100,B,Raw,Yes,M
3,75,Egor Sukach,Егор Сукач,Дрим-Тим,2001-11-11,Amateur Teen,73.1,85,90,100,,100,,,,,,100,B,Raw,Yes,M
DQ,75,Aleksandr Mashlyakevich,Александр Машлякевич,Фаворит,2002-11-04,Amateur Teen,69,-90,-90,-90,,,,,,,,,B,Raw,Yes,M
DQ,75,Nikita Meshcheryakov,Никита Мещеряков,Чайковский,1999-09-23,Amateur Teen,74.4,-107.5,-115,-115,,,,,,,,,B,Raw,Yes,M
1,82.5,Andrey Trifonov,Андрей Трифонов,Березники,1995-04-01,Amateur Juniors 20-23,78.1,125,130,-132.5,,130,,,,,,130,B,Raw,Yes,M
DQ,82.5,Vadim Bakhmatov,Вадим Бахматов,Алекс-Фитнес,1997-03-05,Amateur Juniors 20-23,81.25,-142.5,-142.5,-142.5,,,,,,,,,B,Raw,Yes,M
1,82.5,Aleksandr Khudyakov,Александр Худяков,Олимп-Джим,1977-04-29,Amateur Masters 40-49,82.5,185,190,195,,195,,,,,,195,B,Raw,Yes,M
2,82.5,Vladimir Prytkov,Владимир Прытков,Тонус,1972-08-14,Amateur Masters 40-49,79.3,147.5,150,-157.5,,150,,,,,,150,B,Raw,Yes,M
3,82.5,Nikolay Ulitin,Николай Улитин,Медлайф,1975-07-04,Amateur Masters 40-49,81.35,140,145,-147.5,,145,,,,,,145,B,Raw,Yes,M
4,82.5,Dmitriy Bogaev,Дмитрий Богаев,Восток,1974-04-30,Amateur Masters 40-49,79.15,135,142.5,-145,,142.5,,,,,,142.5,B,Raw,Yes,M
5,82.5,Albert Osinnikov,Альберт Осинников,Яйва,1973-03-26,Amateur Masters 40-49,79.4,130,-137.5,137.5,,137.5,,,,,,137.5,B,Raw,Yes,M
1,82.5,Sergey Stelmashenko,Сергей Стельмашенко,Стиль Жи,1965-10-10,Amateur Masters 50+,80.75,147.5,152.5,-157.5,,152.5,,,,,,152.5,B,Raw,Yes,M
2,82.5,Aleksandr Nikolaev,Александр Николаев,Бодибум,1959-07-08,Amateur Masters 50+,81.2,120,127.5,132.5,,132.5,,,,,,132.5,B,Raw,Yes,M
3,82.5,Valeriy Dolgikh,Валерий Долгих,Уральский,1958-11-28,Amateur Masters 50+,80.3,125,127.5,-130,,127.5,,,,,,127.5,B,Raw,Yes,M
1,82.5,Aleksandr Khudyakov,Александр Худяков,Олимп-Джим,1977-04-29,Amateur Open,82.5,185,190,195,,195,,,,,,195,B,Raw,Yes,M
2,82.5,Sergey Stelmashenko,Сергей Стельмашенко,Стиль Жи,1965-10-10,Amateur Open,80.75,147.5,152.5,-157.5,,152.5,,,,,,152.5,B,Raw,Yes,M
3,82.5,Sergey Azinbaev,Сергей Азинбаев,Дрим-Тим,1985-01-08,Amateur Open,77.8,-150,150,-155,,150,,,,,,150,B,Raw,Yes,M
4,82.5,Denis Farion,Денис Фарион,Березники,1991-05-18,Amateur Open,79.5,147.5,150,,,150,,,,,,150,B,Raw,Yes,M
5,82.5,Evgeniy Gaylis,Евгений Гайлис,Уральский,1982-06-29,Amateur Open,80.8,-150,-150,150,,150,,,,,,150,B,Raw,Yes,M
6,82.5,Anton Maltsev,Антон Мальцев,Олимпия,1979-03-27,Amateur Open,81,130,140,147.5,,147.5,,,,,,147.5,B,Raw,Yes,M
7,82.5,Aleksandr Petrov,Александр Петров,Дрим-Тим,1987-12-23,Amateur Open,80.65,145,-152.5,-160,,145,,,,,,145,B,Raw,Yes,M
8,82.5,Aleks Trutnev,Алекс Трутнев,Уральский,1989-10-22,Amateur Open,80.65,130,140,-147.5,,140,,,,,,140,B,Raw,Yes,M
9,82.5,Konstantin Plyusnin,Константин Плюснин,Добрянка,1990-03-17,Amateur Open,81.75,-135,140,-145,,140,,,,,,140,B,Raw,Yes,M
10,82.5,Nikolay Devetev,Николай Деветьев,Ермак,1990-07-24,Amateur Open,81.05,-130,130,137.5,,137.5,,,,,,137.5,B,Raw,Yes,M
11,82.5,Artyom Khoruzhiy,Артём Хоружий,Лев,1987-01-24,Amateur Open,81.2,130,135,-140,,135,,,,,,135,B,Raw,Yes,M
12,82.5,Vitaliy Naydyonov,Виталий Найдёнов,Бийск,1981-07-30,Amateur Open,80,-125,125,130,,130,,,,,,130,B,Raw,Yes,M
13,82.5,Anton Syachin,Антон Сячин,Старт Рит,1991-12-20,Amateur Open,81.75,130,-140,-140,,130,,,,,,130,B,Raw,Yes,M
14,82.5,Aleksandr Soldatov,Александр Солдатов,Ритм,1981-09-29,Amateur Open,82.4,-130,130,-140,,130,,,,,,130,B,Raw,Yes,M
15,82.5,Sergey Kokarovtsev,Сергей Кокаровцев,Дрим-Тим,1992-12-08,Amateur Open,75.95,120,127.5,-132.5,,127.5,,,,,,127.5,B,Raw,Yes,M
DQ,82.5,Aleksey Alikin,Алексей Аликин,Спорт-Холл,1980-01-30,Amateur Open,81.5,-140,-140,-140,,,,,,,,,B,Raw,Yes,M
1,82.5,Stanislav Kilyakov,Станислав Киляков,Дрим-Тим,1997-07-19,Amateur Teen,78.2,130,140,147.5,,147.5,,,,,,147.5,B,Raw,Yes,M
1,90,Kirill Bychkov,Кирилл Бычков,Кунгур,1994-10-04,Amateur Juniors 20-23,86.7,140,-147.5,150,,150,,,,,,150,B,Raw,Yes,M
2,90,Vsevolod Lobanov,Всеволод Лобанов,Березники,1996-01-10,Amateur Juniors 20-23,87.55,135,145,150,,150,,,,,,150,B,Raw,Yes,M
3,90,Dmitriy Seletkov,Дмитрий Селетков,Заречный,1993-09-03,Amateur Juniors 20-23,88.8,135,140,145,,145,,,,,,145,B,Raw,Yes,M
4,90,Zakiy Ashrafzyanov,Закий Ашрафзянов,Барда,1996-06-07,Amateur Juniors 20-23,84.4,115,125,135,,135,,,,,,135,B,Raw,Yes,M
1,90,Stanislav Korenkov,Станислав Коренков,Чернушка,1970-05-01,Amateur Masters 40-49,88,160,170,-177.5,,170,,,,,,170,B,Raw,Yes,M
2,90,Sergey Trubin,Сергей Трубин,Спорт-Холл,1969-04-16,Amateur Masters 40-49,89.95,160,170,-172.5,,170,,,,,,170,B,Raw,Yes,M
3,90,Yuriy Golovinov,Юрий Головинов,Медлайф,1968-02-17,Amateur Masters 40-49,89.9,147.5,152.5,155,,155,,,,,,155,B,Raw,Yes,M
4,90,Valeriy Ozhgibesov,Валерий Ожгибесов,53 пож.часть,1967-10-03,Amateur Masters 40-49,87.8,142.5,147.5,-150,,147.5,,,,,,147.5,B,Raw,Yes,M
5,90,Evgeniy Chugaynov,Евгений Чугайнов,Березники,1972-07-19,Amateur Masters 40-49,85.3,115,125,-135,,125,,,,,,125,B,Raw,Yes,M
1,90,Andrey Mochalov,Андрей Мочалов,Спорт-Холл,1960-10-13,Amateur Masters 50+,89.15,125,-135,135,,135,,,,,,135,B,Raw,Yes,M
2,90,Sergey Luzin,Сергей Лузин,Здоровье,1954-04-30,Amateur Masters 50+,83.75,125,130,132.5,,132.5,,,,,,132.5,B,Raw,Yes,M
3,90,Sergey Yuzhakov,Сергей Южаков,Медлайф,1965-03-20,Amateur Masters 50+,85.4,120,125,130,,130,,,,,,130,B,Raw,Yes,M
4,90,Vladimir Zhelnin,Владимир Желнин,Фаворит,1949-09-12,Amateur Masters 50+,84,100,102.5,-105,,102.5,,,,,,102.5,B,Raw,Yes,M
5,90,Andrey Chernomorets,Андрей Черноморец,Фаворит,1946-06-20,Amateur Masters 50+,89.2,95,-100,100,,100,,,,,,100,B,Raw,Yes,M
DQ,90,Sergey Kudryakov,Сергей Кудряков,Колизей,1962-04-08,Amateur Masters 50+,89.6,-110,-115,-115,,,,,,,,,B,Raw,Yes,M
1,90,Stanislav Popov,Станислав Попов,Дрим-Тим,1992-01-03,Amateur Open,89.8,180,185,187.5,,187.5,,,,,,187.5,B,Raw,Yes,M
2,90,Robert Anika,Роберт Аньика,Лев,1991-07-19,Amateur Open,90,177.5,-185,185,,185,,,,,,185,B,Raw,Yes,M
3,90,Aleksandr Valeev,Александр Валеев,Спорт-Холл,1983-07-03,Amateur Open,89.4,180,-190,-190,,180,,,,,,180,B,Raw,Yes,M
4,90,Dmitriy Gagarin,Дмитрий Гагарин,Олимп-Джим,1989-03-26,Amateur Open,90,165,-172.5,172.5,,172.5,,,,,,172.5,B,Raw,Yes,M
5,90,Andrey Smirnov,Андрей Смирнов,Дрим-Тим,1982-11-28,Amateur Open,88.9,170,-177.5,-180,,170,,,,,,170,B,Raw,Yes,M
6,90,Denis Bocharov,Денис Бочаров,Спартак,1981-08-23,Amateur Open,87.25,155,165,-177.5,,165,,,,,,165,B,Raw,Yes,M
7,90,Anton Ponamaryov,Антон Понамарёв,Березники,1989-07-24,Amateur Open,85.4,150,160,-165,,160,,,,,,160,B,Raw,Yes,M
8,90,Sergey Alisevich,Сергей Алисевич,Лысьва,1982-08-21,Amateur Open,88.6,145,152.5,155,,155,,,,,,155,B,Raw,Yes,M
9,90,Evgeniy Klimov,Евгений Климов,Чайковский,1985-04-29,Amateur Open,89.9,-155,-155,155,,155,,,,,,155,B,Raw,Yes,M
10,90,Ivan Nekrasov,Иван Некрасов,Стиль Жи,1982-03-18,Amateur Open,87.2,-147.5,-147.5,152.5,,152.5,,,,,,152.5,B,Raw,Yes,M
11,90,Anton Pavletsov,Антон Павлецов,Соликамск,1989-09-23,Amateur Open,87.7,150,-155,-155,,150,,,,,,150,B,Raw,Yes,M
12,90,Denis Musharlyanov,Денис Мушарлянов,,1982-02-18,Amateur Open,88.7,135,145,-150,,145,,,,,,145,B,Raw,Yes,M
13,90,Vladimir Zakharov,Владимир Захаров,Березники,1977-12-09,Amateur Open,86.9,130,140,-147.5,,140,,,,,,140,B,Raw,Yes,M
14,90,Georgiy Seturidze,Георгий Сетуридзе,Колизей,1989-12-05,Amateur Open,87.7,130,135,-137.5,,135,,,,,,135,B,Raw,Yes,M
15,90,Radik Akhmetzyanov,Радик Ахметзянов,Лайт-Фитнес,1986-11-28,Amateur Open,88.5,135,-142.5,-142.5,,135,,,,,,135,B,Raw,Yes,M
16,90,Vladimir Kashin,Владимир Кашин,53 пож.часть,1982-07-14,Amateur Open,85.65,110,-115,-115,,110,,,,,,110,B,Raw,Yes,M
1,90,Artyom Melnikov,Артём Мельников,Березники,1998-05-26,Amateur Teen,89.4,120,125,-135,,125,,,,,,125,B,Raw,Yes,M
1,100,Yakov Khamraev,Яков Хамраев,Стиль Жи,1995-04-20,Amateur Juniors 20-23,97.7,162.5,-172.5,172.5,,172.5,,,,,,172.5,B,Raw,Yes,M
2,100,Egor Burilov,Егор Бурилов,Лобва,1996-12-08,Amateur Juniors 20-23,97.75,157.5,162.5,,,162.5,,,,,,162.5,B,Raw,Yes,M
3,100,Nikolay Kozin,Николай Козин,Дрим-Тим,1996-04-13,Amateur Juniors 20-23,98.1,142.5,147.5,152.5,,152.5,,,,,,152.5,B,Raw,Yes,M
DQ,100,Mark Demenev,Марк Деменев,Дрим-Тим,1997-01-13,Amateur Juniors 20-23,96.6,-142.5,-142.5,-142.5,,,,,,,,,B,Raw,Yes,M
1,100,Rafael Aptukov,Рафаэль Аптуков,Уральский,1968-08-03,Amateur Masters 40-49,97.7,170,177.5,-180,,177.5,,,,,,177.5,B,Raw,Yes,M
2,100,Sergey Shadrin,Сергей Шадрин,СК Сухарева,1973-11-19,Amateur Masters 40-49,96.7,170,-175,175,,175,,,,,,175,B,Raw,Yes,M
3,100,Denis Platonov,Денис Платонов,Сатурн-Р,1974-05-09,Amateur Masters 40-49,97.7,150,160,165,,165,,,,,,165,B,Raw,Yes,M
4,100,Aleksandr Reshetov,Александр Решетов,Уральский,1974-05-21,Amateur Masters 40-49,97.65,137.5,140,-142.5,,140,,,,,,140,B,Raw,Yes,M
1,100,Vladimir Nikonov,Владимир Никонов,Ритм,1966-12-22,Amateur Masters 50+,97.6,160,165,170,,170,,,,,,170,B,Raw,Yes,M
2,100,Aleksandr Rudakov,Александр Рудаков,Дрим-Тим,1957-03-25,Amateur Masters 50+,98.4,145,155,-160,,155,,,,,,155,B,Raw,Yes,M
1,100,Roman Ivshin,Роман Ившин,Кунгур,1978-02-11,Amateur Open,99.3,-185,185,-195,,185,,,,,,185,B,Raw,Yes,M
2,100,Oleg Narykov,Олег Нарыков,Соликамск,1984-10-23,Amateur Open,94.65,167.5,177.5,-187.5,,177.5,,,,,,177.5,B,Raw,Yes,M
3,100,Ralif Zaitov,Ралиф Заитов,Чернушка,1982-01-02,Amateur Open,99,-177.5,-177.5,177.5,,177.5,,,,,,177.5,B,Raw,Yes,M
4,100,Artyom Noskov,Артём Носков,Кипр,1993-03-12,Amateur Open,99.3,145,155,162.5,,162.5,,,,,,162.5,B,Raw,Yes,M
5,100,Andrey Razorvin,Андрей Разорвин,Пермь,1985-04-29,Amateur Open,100,130,-142.5,-145,,130,,,,,,130,B,Raw,Yes,M
DQ,100,Mikhail Selegen,Михаил Селегень,Бодибум,1987-07-12,Amateur Open,100,-147.5,,,,,,,,,,,B,Raw,Yes,M
1,100,Aleksandr Shishkanov,Александр Шишканов,Березники,1999-10-20,Amateur Teen,93.25,115,130,142.5,,142.5,,,,,,142.5,B,Raw,Yes,M
1,110,Aleksey Pshennikov,Алексей Пшенников,Фит-Лайн,1971-02-22,Amateur Masters 40-49,100.3,155,160,-165,,160,,,,,,160,B,Raw,Yes,M
2,110,Sergey Khmelyov,Сергей Хмелёв,Кунгур,1975-09-04,Amateur Masters 40-49,105.7,150,160,-175,,160,,,,,,160,B,Raw,Yes,M
3,110,Andrey Boldachev,Андрей Болдачев,Фит-Лайн,1971-10-11,Amateur Masters 40-49,104.9,150,-155,155,,155,,,,,,155,B,Raw,Yes,M
1,110,Yuriy Obukhov,Юрий Обухов,Олимп-Джим,1958-07-20,Amateur Masters 50+,108,145,150,155,,155,,,,,,155,B,Raw,Yes,M
2,110,Vitaliy Vshivkov,Виталий Вшивков,Уральский,1964-08-05,Amateur Masters 50+,108.2,140,-145,-145,,140,,,,,,140,B,Raw,Yes,M
1,110,Aleksandr Manin,Александр Манин,Березники,1991-01-11,Amateur Open,101.2,190,-205,205,,205,,,,,,205,B,Raw,Yes,M
2,110,Maksim Okulov,Максим Окулов,Лысьва,1988-04-20,Amateur Open,108.6,190,195,200,,200,,,,,,200,B,Raw,Yes,M
3,110,Aleksandr Zubarev,Александр Зубарев,Олимпия,1986-02-13,Amateur Open,105.4,175,182.5,185,,185,,,,,,185,B,Raw,Yes,M
4,110,Yaragi Kerimov,Яраги Керимов,Большая Соснова,1988-05-18,Amateur Open,108.4,167.5,175,-185,,175,,,,,,175,B,Raw,Yes,M
5,110,Alekandr Krotov,Алекандр Кротов,Елово,1981-12-02,Amateur Open,109.3,137.5,142.5,-147.5,,142.5,,,,,,142.5,B,Raw,Yes,M
1,125,Aleksey Misharin,Алексей Мишарин,Восток,1976-06-12,Amateur Masters 40-49,112.7,160,167.5,-170,,167.5,,,,,,167.5,B,Raw,Yes,M
1,125,Aleksandr Deryabin,Александр Дерябин,Екатеринбург,1978-02-11,Amateur Open,110.5,205,212.5,220,,220,,,,,,220,B,Raw,Yes,M
2,125,Mikhail Pozdeev,Михаил Поздеев,Ритм,1985-01-09,Amateur Open,121.1,150,160,167.5,,167.5,,,,,,167.5,B,Raw,Yes,M
1,140,Yuriy Polyakov,Юрий Поляков,Кунгур,1982-04-27,Amateur Open,135.8,225,232.5,237.5,,237.5,,,,,,237.5,B,Raw,Yes,M
1,,Roman Kilin,Роман Килин,Чайковский,1998-06-02,Amateur Open,74,-200,200,-217.5,,200,,,,,,200,B,Unlimited,Yes,M
2,,Anton Abashkin,Антон Абашкин,Тонус,1989-01-08,Amateur Open,89.6,190,207.5,217.5,,217.5,,,,,,217.5,B,Unlimited,Yes,M
3,,Dmitriy Zaporozhan,Дмитрий Запорожан,Чусовой,1986-03-18,Amateur Open,79,152.5,175,180,,180,,,,,,180,B,Unlimited,Yes,M
4,,Ilya Anokhin,Илья Анохин,Чайковский,1998-09-12,Amateur Open,67.5,135,-145,-145,,135,,,,,,135,B,Unlimited,Yes,M
1,,Denis Rudakov,Денис Рудаков,Нытва,1982-05-08,Amateur Open,81.3,225,230,237.5,,237.5,,,,,,237.5,B,Multi-ply,Yes,M
2,,Anton Shevyrin,Антон Шевырин,Кизел,1991-04-30,Amateur Open,81.45,-185,-195,195,,195,,,,,,195,B,Multi-ply,Yes,M
3,,Mikhail Tarakanovskiy,Михаил Таракановский,Губаха,1985-11-21,Amateur Open,89.6,180,-190,-190,,180,,,,,,180,B,Multi-ply,Yes,M
4,,Igor Godovalov,Игорь Годовалов,Уральский,1968-08-11,Amateur Open,74.4,135,-140,,,135,,,,,,135,B,Multi-ply,Yes,M
5,,Fanis Matyushev,Фанис Матюшев,Барда,1985-07-12,Amateur Open,85.9,160,170,-180,,170,,,,,,170,B,Multi-ply,Yes,M
6,,Maksim Kasimov,Максим Касимов,Дрим-Тим,1994-11-07,Amateur Open,123.1,185,-200,-200,,185,,,,,,185,B,Multi-ply,Yes,M
1,,Natalya Medvedeva,Наталья Медведева,Александровск,1987-06-24,Amateur Open,101.6,100,-107.5,-107.5,,100,,,,,,100,B,Multi-ply,Yes,F
DQ,,Oleg Kolotov,Олег Колотов,Губаха,1992-10-22,Amateur Open,90,-180,-180,-180,,,,,,,,,B,Multi-ply,Yes,M
1,75,Artyom Pashiev,Артём Пашиев,Олимп-Джим,1983-04-20,Pro Open,75,187.5,-197.5,-197.5,,187.5,,,,,,187.5,B,Raw,No,M
2,75,Vadim Gagarin,Вадим Гагарин,Тонус,1994-02-13,Pro Open,73.9,115,-125,125,,125,,,,,,125,B,Raw,No,M
1,82.5,Valeriy Makarov,Валерий Макаров,Дрим-тим,1975-05-18,Pro Masters 40+,79.6,140,147.5,-150,,147.5,,,,,,147.5,B,Raw,No,M
2,82.5,Aleksandr Kurilov,Александр Курилов,Фит-Лайн,1967-06-19,Pro Masters 40+,81.7,125,132.5,-137.5,,132.5,,,,,,132.5,B,Raw,No,M
1,82.5,Vitaliy Adzhikildeev,Виталий Аджикильдеев,Яйва,1988-07-28,Pro Open,80.8,155,165,-170,,165,,,,,,165,B,Raw,No,M
2,82.5,Alekandr Shaykhutdinov,Алекандр Шайхутдинов,Яйва,1986-02-09,Pro Open,79.4,140,150,-160,,150,,,,,,150,B,Raw,No,M
1,90,Vladimir Smolonogov,Владимир Смолоногов,Олимп-Джим,1982-12-13,Pro Open,89.5,195,200,-205,,200,,,,,,200,B,Raw,No,M
2,90,Sergey Balandin,Сергей Баландин,Колизей,1984-12-14,Pro Open,87.75,180,190,-200,,190,,,,,,190,B,Raw,No,M
1,100,Vladimir Boyarkin,Владимир Бояркин,Чусовой,1972-12-06,Pro Masters 40+,98.7,180,185,-190,,185,,,,,,185,B,Raw,No,M
2,100,Vladimir Buyakov,Владимир Буяков,Дрим-тим,1965-08-12,Pro Masters 40+,97.9,-145,145,150,,150,,,,,,150,B,Raw,No,M
1,100,Igor Sergeev,Игорь Сергеев,Усть-Качка,1966-08-07,Pro Open,97.8,225,230,,,230,,,,,,230,B,Raw,No,M
2,100,Aleksey Chubarev,Алексей Чубарев,Екатеринбург,1990-11-14,Pro Open,96.8,170,180,-190,,180,,,,,,180,B,Raw,No,M
3,100,Dmitriy Molokov,Дмитрий Молоков,Яйва,1985-04-05,Pro Open,94.2,130,135,140,,140,,,,,,140,B,Raw,No,M
1,110,Aleksandr Mikov,Александр Миков,Колизей,1974-12-12,Pro Masters 40+,106.8,167.5,-175,-175,,167.5,,,,,,167.5,B,Raw,No,M
1,110,Vyacheslav Shisterov,Вячеслав Шистеров,Олимп-Джим,1987-01-05,Pro Open,102.7,202.5,210,-215,,210,,,,,,210,B,Raw,No,M
2,110,Nikita Antsiferov,Никита Анциферов,Чайковский,1997-06-30,Pro Open,107,-190,190,-200,,190,,,,,,190,B,Raw,No,M
3,110,Artem Kuznetsov,Артем Кузнецов,Краснокамск,1994-10-13,Pro Open,104.4,175,185,-190,,185,,,,,,185,B,Raw,No,M
4,110,Denis Vlasov,Денис Власов,Уралец,1979-03-13,Pro Open,107.7,160,175,182.5,,182.5,,,,,,182.5,B,Raw,No,M
5,110,Dmitriy Zakhvatkin,Дмитрий Захваткин,Олимпия,1980-10-02,Pro Open,107.3,160,175,-200,,175,,,,,,175,B,Raw,No,M
6,110,Andrey Vdovin,Андрей Вдовин,Фит-Лайн,1989-01-16,Pro Open,108.3,-160,165,-175,,165,,,,,,165,B,Raw,No,M
1,125,Leonid Shevelkov,Леонид Шевельков,Екатеринбург,1987-10-06,Pro Open,116.6,180,190,-200,,190,,,,,,190,B,Raw,No,M
2,125,Dmitriy Vaskiv,Дмитрий Васькив,Чусовой,1988-03-13,Pro Open,117.6,180,-190,190,,190,,,,,,190,B,Raw,No,M
1,140+,Valentin Taran,Валентин Таран,Соликамск,1976-08-04,Pro Masters 40+,150,-230,230,242.5,,242.5,,,,,,242.5,B,Raw,No,M
1,,Igor Sergeev,Игорь Сергеев,Усть-Качка,1966-08-07,Pro Open,97.8,340,360,370,,370,,,,,,370,B,Unlimited,No,M
2,,Vyacheslav Sirotin,Вячеслав Сиротин,Дрим-тим,1987-08-09,Pro Open,74.25,260,-270,275,,275,,,,,,275,B,Unlimited,No,M
3,,Maksim Chernikov,Максим Черников,Екатеринбург,1989-07-05,Pro Open,108.5,250,270,-290,,270,,,,,,270,B,Unlimited,No,M
4,,Vitaliy Adzhikildeev,Виталий Аджикильдеев,Яйва,1988-07-28,Pro Open,80.8,207.5,-227.5,-237.5,,207.5,,,,,,207.5,B,Unlimited,No,M
DQ,,Egor Koykov,Егор Койков,Усть-Качка,1985-03-27,Pro Open,106.6,-345,-345,-350,,,,,,,,,B,Unlimited,No,M
1,,Sergey Dergousov,Сергей Дергоусов,Богатырь,1988-05-18,Pro Open,97.15,-280,280,-300,,280,,,,,,280,B,Multi-ply,No,M
2,,Konstantin Plakhuta,Константин Плахута,Усть-Качка,1986-02-28,Pro Open,108.4,250,260,-270,,260,,,,,,260,B,Multi-ply,No,M
DQ,,Kirill Kropis,Кирилл Кропис,Краснокамск,1987-07-15,Pro Open,140,-310,-310,-312.5,,,,,,,,,B,Multi-ply,No,M
1,44,Inna Makarova,Инна Макарова,Тор-Фитнес,1994-10-29,Amateur Open,43.1,,,,,,105,110,120,,120,120,D,Raw,Yes,F
1,48,Alyona Vitsina,Алёна Вицина,Лев,1989-09-10,Amateur Open,47.1,,,,,,95,107.5,-112.5,,107.5,107.5,D,Raw,Yes,F
1,52,Tatyana Shvetsova,Татьяна Швецова,Шерхан,1988-12-31,Amateur Open,48.6,,,,,,140,150,-155,,150,150,D,Raw,Yes,F
2,52,Yuliya Systerova,Юлия Сыстерова,Дрим-Тим,1991-05-31,Amateur Open,50.45,,,,,,110,120,130,,130,130,D,Raw,Yes,F
1,56,Irina Vasileva,Ирина Васильева,Чайковский,1996-01-13,Amateur Open,53.6,,,,,,122.5,127.5,132.5,,132.5,132.5,D,Raw,Yes,F
2,56,Anastasiya Reshetova,Анастасия Решетова,Березники,1992-03-23,Amateur Open,53.7,,,,,,122.5,-130,-130,,122.5,122.5,D,Raw,Yes,F
3,56,Anastasiya Verevkina,Анастасия Веревкина,Березники,1998-11-22,Amateur Open,54.3,,,,,,102.5,115,-122.5,,115,115,D,Raw,Yes,F
1,60,Mariya Makarova,Мария Макарова,Арена,1989-07-08,Amateur Open,59.45,,,,,,120,130,-132.5,,130,130,D,Raw,Yes,F
2,60,Olga Katsabina,Ольга Кацабина,Акула 79,1994-05-31,Amateur Open,59.2,,,,,,110,115,117.5,,117.5,117.5,D,Raw,Yes,F
3,60,Svetlana Batyrbekova,Светлана Батырбекова,Акула-79,1978-09-01,Amateur Open,58.5,,,,,,100,110,115,,115,115,D,Raw,Yes,F
1,67.5,Lyudmila Kravets,Людмила Кравец,Пекло,1977-04-14,Amateur Open,65.65,,,,,,125,130,135,,135,135,D,Raw,Yes,F
2,67.5,Elena Pylaeva,Елена Пылаева,Дрим-Тим,1986-02-06,Amateur Open,66.8,,,,,,-120,120,-125,,120,120,D,Raw,Yes,F
1,75,Olga Kipriyanova,Ольга Киприянова,Чернушка,2000-07-28,Amateur Open,69.6,,,,,,110,120,,,120,120,D,Raw,Yes,F
2,75,Nadezhda Averyanova,Надежда Аверьянова,Чайковский,1976-02-06,Amateur Open,71.4,,,,,,105,115,-122.5,,115,115,D,Raw,Yes,F
1,82.5,Irina Luzina,Ирина Лузина,Грифон,1987-07-25,Amateur Open,81.1,,,,,,110,122.5,-130,,122.5,122.5,D,Raw,Yes,F
1,67.5,Andrey Vishnyakov,Андрей Вишняков,Верещагино,1993-07-28,Amateur Juniors 20-23,66.55,,,,,,200,-215,-215,,200,200,D,Raw,Yes,M
2,67.5,Fyodor Popov,Фёдор Попов,Грифон,1995-11-24,Amateur Juniors 20-23,66.85,,,,,,150,-160,-160,,150,150,D,Raw,Yes,M
1,67.5,Pavel Vlasov,Павел Власов,Грифон,1987-09-29,Amateur Open,66.7,,,,,,210,220,225,,225,225,D,Raw,Yes,M
2,67.5,Igor Vshivkov,Игорь Вшивков,Дрим-Тим,1978-01-30,Amateur Open,66.45,,,,,,200,-210,-210,,200,200,D,Raw,Yes,M
1,67.5,Nikita Shevtsov,Никита Шевцов,Стиль Жи,1997-10-30,Amateur Teen,63.4,,,,,,-140,140,155,,155,155,D,Raw,Yes,M
1,75,Valeriy Dachko,Валерий Дачко,Союз силачей,1988-03-05,Amateur Open,74.6,,,,,,250,-265,-265,,250,250,D,Raw,Yes,M
2,75,Mikhail Orekhov,Михаил Орехов,Акула-79,1987-01-03,Amateur Open,72.35,,,,,,185,195,205,,205,205,D,Raw,Yes,M
3,75,Eduard Khaydukov,Эдуард Хайдуков,Дрим-Тим,1984-09-23,Amateur Open,74.6,,,,,,185,195,-205,,195,195,D,Raw,Yes,M
4,75,Aleksandr Pestov,Александр Пестов,Соликамск,1989-01-14,Amateur Open,70.7,,,,,,160,180,190,,190,190,D,Raw,Yes,M
DQ,75,Aleksey Bulatov,Алексей Булатов,Лев,1986-01-09,Amateur Open,74.25,,,,,,-160,-160,-160,,,,D,Raw,Yes,M
1,82.5,Stepan Usov,Степан Усов,Энергия,1996-05-24,Amateur Juniors 20-23,81.7,,,,,,185,192.5,-197.5,,192.5,192.5,D,Raw,Yes,M
1,82.5,Sergey Prokofev,Сергей Прокофьев,Дрим-Тим,1972-11-12,Amateur Masters 40-49,81.4,,,,,,210,-215,,,210,210,D,Raw,Yes,M
1,82.5,Valeriy Demidov,Валерий Демидов,Ритм,1963-03-17,Amateur Masters 50+,81.6,,,,,,175,185,,,185,185,D,Raw,Yes,M
2,82.5,Gabdulla Dzhuraev,Габдулла Джураев,Дрим-Тим,1956-07-22,Amateur Masters 50+,78.5,,,,,,150,160,,,160,160,D,Raw,Yes,M
1,82.5,Nikita Goloviznin,Никита Головизнин,Лев,1988-11-24,Amateur Open,80.6,,,,,,255,-270,-270,,255,255,D,Raw,Yes,M
2,82.5,Sergey Azinbaev,Сергей Азинбаев,Дрим-Тим,1985-01-08,Amateur Open,78.7,,,,,,220,230,-240,,230,230,D,Raw,Yes,M
3,82.5,Nikolay Zelenin,Николай Зеленин,Дрим-Тим,1985-02-17,Amateur Open,81.7,,,,,,200,217.5,-225,,217.5,217.5,D,Raw,Yes,M
4,82.5,Sergey Prokofev,Сергей Прокофьев,Дрим-Тим,1972-11-12,Amateur Open,81.4,,,,,,210,-215,,,210,210,D,Raw,Yes,M
5,82.5,Maksim Ovchinnikov,Максим Овчинников,Лев,1989-07-24,Amateur Open,80.35,,,,,,165,187.5,-195,,187.5,187.5,D,Raw,Yes,M
6,82.5,Mikhail Yukovich,Михаил Юкович,Лев,1980-06-11,Amateur Open,81.25,,,,,,165,-187.5,,,165,165,D,Raw,Yes,M
1,90,Ilya Sergeenko,Илья Сергеенко,Стиль Жи,1994-09-07,Amateur Juniors 20-23,87.8,,,,,,250,-265,-275,,250,250,D,Raw,Yes,M
1,90,Mikhail Voronkov,Михаил Воронков,Стиль Жи,1975-11-24,Amateur Masters 40-49,86.95,,,,,,187.5,197.5,215,,215,215,D,Raw,Yes,M
1,90,Aleksey Zhilkin,Алексей Жилкин,Фит-Лайн,1983-02-14,Amateur Open,83.35,,,,,,180,190,-195,,190,190,D,Raw,Yes,M
1,100,Ivan Novikov,Иван Новиков,Лев,1996-05-23,Amateur Juniors 20-23,98,,,,,,245,270,-282.5,,270,270,D,Raw,Yes,M
1,100,Andrey Tsvetkov,Андрей Цветков,Уральский,1971-05-24,Amateur Masters 40-49,95.35,,,,,,200,-212.5,212.5,,212.5,212.5,D,Raw,Yes,M
2,100,Ruslan Salikhov,Руслан Салихов,Стиль Жи,1975-12-16,Amateur Masters 40-49,95.65,,,,,,160,172.5,180,,180,180,D,Raw,Yes,M
1,100,Viktor Pashaev,Виктор Пашаев,Березники,1957-01-22,Amateur Masters 50+,94.4,,,,,,190,200,210,,210,210,D,Raw,Yes,M
1,100,Dmitriy Gagarin,Дмитрий Гагарин,Чернушка,1989-03-26,Amateur Open,95.9,,,,,,250,-260,-260,,250,250,D,Raw,Yes,M
2,100,Stanislav Tonkonog,Станислав Тонконог,Березники,1990-03-08,Amateur Open,95.9,,,,,,215,225,-230,,225,225,D,Raw,Yes,M
3,100,Mikhail Shikun,Михаил Шикун,Фит-Лайн,1983-02-02,Amateur Open,97.1,,,,,,-190,190,205,,205,205,D,Raw,Yes,M
1,110,Vladimir Zhelonkin,Владимир Желонкин,Березники,1971-04-12,Amateur Masters 40-49,106.1,,,,,,205,220,-230,,220,220,D,Raw,Yes,M
