Name,Place,Division,Sex,Equipment,Country,State,WeightClassKg,BodyweightKg,Age,Best3SquatKg,Squat4Kg,Best3BenchKg,Bench4Kg,Best3DeadliftKg,Deadlift4Kg,TotalKg,Event,BirthYear
Valerie Sanchez #2,1,Juniors 20-23,F,Raw,USA,TX,48,45.54,20,65,,37.5,,97.5,,200,SBD,
Nicole Stevens,1,Juniors 15-19,F,Raw,USA,CA,60,58.06,18,87.5,,47.5,,105,,240,SBD,
Heather Gray,1,Juniors 20-23,F,Raw,USA,CA,67.5,65.41,23,122.5,,62.5,,147.5,,332.5,SBD,
Tara Maier,1,Juniors 15-19,F,Raw,USA,AZ,75,74.93,19,127.5,,92.5,,173,,393,SBD,
Imelda Fowler,1,Open,F,Raw,USA,CA,44,40.82,53,70,,50,,142.5,,262.5,SBD,
Melody Schoenfeld,1,Open,F,Raw,USA,CA,48,46.45,40,70,,47.5,,112.5,,230,SBD,
Valerie Sanchez #2,2,Open,F,Raw,USA,TX,48,45.54,20,65,,37.5,,97.5,,200,SBD,
Tina Daneshmand,1,Open,F,Raw,USA,CA,52,51.17,26,105,,60,,157.5,160,322.5,SBD,
Suzanne Davis,1,Open,F,Raw,USA,AZ,56,53.8,42,97.5,,60,,155.5,,313,SBD,
Kelly Bumgarner,2,Open,F,Raw,USA,NV,56,55.61,28,112.5,,60,,127.5,,300,SBD,
Marilia Coutinho,1,Open,F,Raw,Brazil,,60,59.51,50,148.5,,102.5,,160,,411,SBD,
Nicole Gonzalez,2,Open,F,Raw,USA,TX,60,58.42,30,132.5,,75,,155,,362.5,SBD,
Shellie Schoenberg,3,Open,F,Raw,USA,NM,60,58.33,35,102.5,,75,,130,,307.5,SBD,
Larissa Arnold,4,Open,F,Raw,USA,TX,60,59.87,29,80,,55,,132.5,,267.5,SBD,
Nicole Stevens,5,Open,F,Raw,USA,CA,60,58.06,18,87.5,,47.5,,105,,240,SBD,
Myra Balina,1,Open,F,Raw,USA,CA,67.5,67.04,33,117.5,,75,,157.5,,350,SBD,
Melanie Harris,2,Open,F,Raw,USA,CA,67.5,64.68,24,102.5,,82.5,,155,,340,SBD,
Heather Gray,3,Open,F,Raw,USA,CA,67.5,65.41,23,122.5,,62.5,,147.5,,332.5,SBD,
May Rodgers,4,Open,F,Raw,USA,CA,67.5,66.86,50,80,,40,,115,,235,SBD,
Sheri Stiles,1,Open,F,Raw,USA,MN,75,71.3,25,142.5,,80,,172.5,,395,SBD,
Hally Killion,2,Open,F,Raw,USA,WY,75,72.76,35,137.5,,82.5,,175,,395,SBD,
Malinda Barnes,3,Open,F,Raw,USA,AZ,75,74.48,34,142.5,,82.5,,170,,395,SBD,
Tara Maier,4,Open,F,Raw,USA,AZ,75,74.93,19,127.5,,92.5,,173,,393,SBD,
Elizabeth Fuentes,DQ,Open,F,Raw,USA,TX,75,71.4,28,95,,60,,-170,,,SBD,
Lori Dunn,DQ,Open,F,Raw,USA,KS,75,73.12,51,-82.5,,55,,-142.5,,,SBD,
Amy Simmer,1,Open,F,Raw,USA,MN,90,84.46,43,190,,120,,215,,525,SBD,
Brittany Pryor,1,Open,F,Raw,USA,NV,90+,101.42,27,217.5,,132.5,,240,,590,SBD,
Imelda Fowler,1,Masters 50-54,F,Raw,USA,CA,44,40.82,53,70,,50,,142.5,,262.5,SBD,
Melody Schoenfeld,1,Masters 40-44,F,Raw,USA,CA,48,46.45,40,70,,47.5,,112.5,,230,SBD,
Suzanne Davis,1,Masters 40-44,F,Raw,USA,AZ,56,53.8,42,97.5,,60,,155.5,,313,SBD,
Marilia Coutinho,1,Masters 50-54,F,Raw,Brazil,,60,59.51,50,148.5,,102.5,,160,,411,SBD,
May Rodgers,1,Masters 50-54,F,Raw,USA,CA,67.5,66.86,50,80,,40,,115,,235,SBD,
Lori Dunn,DQ,Masters 50-54,F,Raw,USA,KS,75,73.12,51,-82.5,,55,,-142.5,,,SBD,
Amy Simmer,1,Masters 40-44,F,Raw,USA,MN,90,84.46,43,190,,120,,215,,525,SBD,
Wesley Uyeoka,1,Juniors 15-19,M,Raw,USA,CA,60,59.42,17,110,,80,,190,195,380,SBD,
Kyle Ota,1,Juniors 20-23,M,Raw,USA,CA,67.5,67.36,21,182.5,,127.5,,227.5,,537.5,SBD,
Samuel Blanco,2,Juniors 20-23,M,Raw,USA,CA,67.5,66.86,21,165,,107.5,,215,230,487.5,SBD,
Josh Seay,3,Juniors 20-23,M,Raw,USA,TX,67.5,67.2,22,130,,97.5,,187.5,,415,SBD,
Corey Phillips,1,Juniors 20-23,M,Raw,USA,MO,75,73.03,22,170,,132.5,,230,,532.5,SBD,
Jacob Garcia,1,Juniors 20-23,M,Raw,USA,AZ,82.5,75.48,20,190,,125,,210,,525,SBD,
Lucian York,1,Juniors 20-23,M,Raw,USA,CO,90,87.91,21,245,,155,,255,,655,SBD,
Joseph Franzo,2,Juniors 20-23,M,Raw,USA,CA,90,89.81,23,235,,170,176,242.5,,647.5,SBD,
Everett Farr,3,Juniors 20-23,M,Raw,USA,CO,90,88.09,23,210,,150,,262.5,,622.5,SBD,
Kyle Kubasik,4,Juniors 20-23,M,Raw,USA,TX,90,89.9,22,190,,150,,195,,535,SBD,
Corey Bourgeois,1,Juniors 15-19,M,Raw,USA,LA,100,98.43,19,272.5,,185,,272.5,,730,SBD,
Nadeem Hamidy,DQ,Juniors 15-19,M,Raw,USA,CA,100,97.52,18,182.5,,-140,,,,,SBD,
Luigi Fagiani,1,Juniors 20-23,M,Raw,USA,NY,100,98.16,23,257.5,,190.5,,352.5,,800.5,SBD,
Jordan Wong,1,Juniors 20-23,M,Raw,USA,FL,110,109.86,22,320,,205,,302.5,,827.5,SBD,
Greg Mahin,1,Juniors 20-23,M,Raw,USA,CA,140,133.08,22,272.5,,200,,307.5,,780,SBD,
Dylan Bartz,2,Juniors 20-23,M,Raw,USA,CA,140,134.81,23,282.5,,192.5,,272.5,,747.5,SBD,
Steven Maradona,1,Juniors 20-23,M,Raw,USA,CA,140+,152.77,20,295,,200,,247,,742,SBD,
Cadet Bryant,1,Open,M,Raw,USA,TX,60,59.51,40,150,,102.5,,182.5,,435,SBD,
Lucas De Lara Macri,2,Open,M,Raw,Brazil,,60,59.96,25,117.5,,107.5,,180,,405,SBD,
Wesley Uyeoka,3,Open,M,Raw,USA,CA,60,59.42,17,110,,80,,190,195,380,SBD,
Scott Layman,1,Open,M,Raw,USA,CA,67.5,66.04,43,220,,145,,220,,585,SBD,
Kyle Ota,2,Open,M,Raw,USA,CA,67.5,67.45,21,182.5,,127.5,,227.5,,537.5,SBD,
Samuel Blanco,3,Open,M,Raw,USA,CA,67.5,66.86,21,165,,107.5,,215,230,487.5,SBD,
Alex Barajas,4,Open,M,Raw,USA,TX,67.5,66.13,36,165,,97.5,,212.5,,475,SBD,
Josh Seay,5,Open,M,Raw,USA,TX,67.5,67.18,22,130,,97.5,,187.5,,415,SBD,
Michael Russell Jr,1,Open,M,Raw,USA,CA,75,74.93,32,210,,137.5,,252.5,,600,SBD,
Cory Campbell,2,Open,M,Raw,USA,WY,75,74.57,24,185,,137.5,,222.5,,545,SBD,
Corey Phillips,3,Open,M,Raw,USA,MO,75,73.03,22,170,,132.5,,230,,532.5,SBD,
Matthew Chapman,4,Open,M,Raw,USA,HI,75,74.3,45,145,,127.5,,165,,437.5,SBD,
Chris Garcia #1,1,Open,M,Raw,USA,CA,82.5,81.37,26,220,,160,,287.5,,667.5,SBD,
Diego Figueroa,2,Open,M,Raw,Brazil,,82.5,81.56,28,220,,152.5,,247.5,,620,SBD,
Steve Melero,3,Open,M,Raw,USA,CA,82.5,81.19,31,205,,140,,245,,590,SBD,
Jacob Garcia,4,Open,M,Raw,USA,AZ,82.5,75.48,20,190,,125,,210,,525,SBD,
Rich Tsutsui,5,Open,M,Raw,USA,CA,82.5,82.37,67,125,,82.5,,120,,327.5,SBD,
Chris Bartley #1,1,Open,M,Raw,USA,OK,90,89.27,39,250,,155,,272.5,,677.5,SBD,
Lucian York,2,Open,M,Raw,USA,CO,90,87.91,21,245,,155,,255,,655,SBD,
Richard Payne,3,Open,M,Raw,USA,GA,90,89.27,45,215,,177.5,,257.5,,650,SBD,
Jon Vaughn,4,Open,M,Raw,USA,CA,90,83.19,25,245,,152.5,,250,,647.5,SBD,
Joseph Franzo,5,Open,M,Raw,USA,CA,90,89.81,23,235,,170,,242.5,,647.5,SBD,
Shawn Gallagher,6,Open,M,Raw,USA,WY,90,88.54,27,217.5,,147.5,,272.5,,637.5,SBD,
Everett Farr,7,Open,M,Raw,USA,CO,90,88.09,23,210,,150,,262.5,,622.5,SBD,
Kyle Kubasik,8,Open,M,Raw,USA,TX,90,89.9,22,190,,150,,195,,535,SBD,
Mike Koufos,9,Open,M,Raw,USA,CA,90,89.27,53,175,,100,,205,,480,SBD,
Louie Hernandez,10,Open,M,Raw,USA,CA,90,87.45,70,157.5,,87.5,,230,,475,SBD,
David Contreras,11,Open,M,Raw,USA,CA,90,88,52,182.5,,107.5,,185,,475,SBD,
David Andrews #2,12,Open,M,Raw,USA,CA,90,89.9,56,162.5,,95,,205,,462.5,SBD,
Steven Levy,13,Open,M,Raw,USA,FL,90,88,64,150,,102.5,,200,,452.5,SBD,
Donnie Brumley,DQ,Open,M,Raw,USA,TX,90,86.91,38,170,,-135,,215,,,SBD,
Luigi Fagiani,1,Open,M,Raw,USA,NY,100,98.16,23,257.5,,190.5,,352.5,,800.5,SBD,
George Pessell,2,Open,M,Raw,USA,CA,100,97.89,54,260,,175,,300,,735,SBD,
Corey Bourgeois,3,Open,M,Raw,USA,LA,100,98.43,19,272.5,,185,,272.5,,730,SBD,
Bob McCabe,4,Open,M,Raw,USA,NV,100,95.8,25,215,,122.5,,270,,607.5,SBD,
Michael Meinzer,5,Open,M,Raw,USA,CO,100,98.7,32,205,,162.5,,230,,597.5,SBD,
Saul Salazar,6,Open,M,Raw,Colombia,,100,96.8,49,220,,145,,220,,585,SBD,
Al Morentin,7,Open,M,Raw,USA,CA,100,93.35,47,157.5,,130,,210,,497.5,SBD,
Fil Benito Malinao,DQ,Open,M,Raw,USA,NV,100,99.16,25,232.5,,-152.5,,240,,,SBD,
Damon Jones,DQ,Open,M,Raw,USA,TX,100,99.79,36,-225,,160,,232.5,,,SBD,
Nadeem Hamidy,DQ,Open,M,Raw,USA,CA,100,97.52,18,182.5,,-140,,,,,SBD,
Jordan Wong,1,Open,M,Raw,USA,FL,110,109.86,22,320,,205,,302.5,,827.5,SBD,
David Troutt,2,Open,M,Raw,USA,TX,110,105.05,28,272.5,,170,,372.5,,815,SBD,
Dallas Reilly,3,Open,M,Raw,USA,WA,110,108.32,27,300,,182.5,,327.5,,810,SBD,
Mike Cannon,4,Open,M,Raw,USA,UT,110,109.95,39,282.5,,202.5,,265,,750,SBD,
Dave Breker,5,Open,M,Raw,Canada,,110,106.23,32,275,,210,,260,,745,SBD,
Dan McColgin,6,Open,M,Raw,USA,NV,110,109.68,50,267.5,,160,,282.5,,710,SBD,
Gary Panttila,7,Open,M,Raw,USA,AZ,110,104.87,29,247.5,,170,,272.5,,690,SBD,
Joseph Vrona,8,Open,M,Raw,USA,NV,110,106.32,31,227.5,,170,,240,,637.5,SBD,
Michael Wiegers,9,Open,M,Raw,USA,CA,110,107.32,32,217.5,,142.5,,272.5,,632.5,SBD,
Tom Fahy,10,Open,M,Raw,USA,MN,110,108.77,48,220,,147.5,,260,,627.5,SBD,
Gregory Cotterell,11,Open,M,Raw,USA,CA,110,108.5,53,182.5,,147.5,,240,,570,SBD,
Thomas Matlock,12,Open,M,Raw,USA,AZ,110,107.41,62,172.5,,120,,210,,502.5,SBD,
Frederick Martinez,1,Open,M,Raw,USA,CA,125,120.38,48,215,,192.5,,267.5,,675,SBD,
Tom Emelander,2,Open,M,Raw,USA,TX,125,124.19,30,75,,75,,360,,510,SBD,
Mark Hurling,3,Open,M,Raw,USA,CA,125,116.3,63,145,,100,,162.5,,407.5,SBD,
Jeff Campbell,DQ,Open,M,Raw,USA,MN,125,121.65,47,237.5,,-177.5,,,,,SBD,
Edward McKinnis,1,Open,M,Raw,USA,TX,140,126.01,24,282.5,,205,,337.5,,825,SBD,
Greg Mahin,2,Open,M,Raw,USA,CA,140,133.08,22,272.5,,200,,307.5,,780,SBD,
Dylan Bartz,3,Open,M,Raw,USA,CA,140,134.81,23,282.5,,192.5,,272.5,,747.5,SBD,
Michael Carter,1,Open,M,Raw,USA,CA,140+,168.01,32,290,,192.5,,332.5,,815,SBD,
Wesley Bradley,2,Open,M,Raw,USA,NV,140+,166.92,26,267.5,,207.5,,277.5,,752.5,SBD,
Steven Maradona,3,Open,M,Raw,USA,CA,140+,152.77,20,295,,200,,247,,742,SBD,
Joe Rodgers,4,Open,M,Raw,USA,CA,140+,167.92,50,280,,170,,250,,700,SBD,
Cadet Bryant,1,Masters 40-44,M,Raw,USA,TX,60,59.51,40,150,,102.5,,182.5,,435,SBD,
Scott Layman,1,Masters 40-44,M,Raw,USA,CA,67.5,66.04,43,220,,145,,220,,585,SBD,
Matthew Chapman,1,Masters 45-49,M,Raw,USA,HI,75,74.3,45,145,,127.5,,165,,437.5,SBD,
Rich Tsutsui,1,Masters 65-69,M,Raw,USA,CA,82.5,82.42,67,125,,82.5,,120,,327.5,SBD,
Richard Payne,1,Masters 45-49,M,Raw,USA,GA,90,89.27,45,215,,177.5,,257.5,,650,SBD,
Mike Koufos,1,Masters 50-54,M,Raw,USA,CA,90,89.27,53,175,,100,,205,,480,SBD,
David Contreras,2,Masters 50-54,M,Raw,USA,CA,90,88,52,182.5,,107.5,,185,,475,SBD,
David Andrews #2,1,Masters 55-59,M,Raw,USA,CA,90,89.9,56,162.5,,95,,205,,462.5,SBD,
Steven Levy,1,Masters 60+,M,Raw,USA,FL,90,88,64,150,,102.5,,200,,452.5,SBD,
Louie Hernandez,1,Masters 70-74,M,Raw,USA,CA,90,87.45,70,157.5,,87.5,,230,,475,SBD,
Saul Salazar,1,Masters 45-49,M,Raw,Colombia,,100,96.8,49,220,,145,,220,,585,SBD,
Al Morentin,2,Masters 45-49,M,Raw,USA,CA,100,93.35,47,157.5,,130,,210,,497.5,SBD,
George Pessell,1,Masters 50-54,M,Raw,USA,CA,100,97.89,54,260,,175,,300,,735,SBD,
Tom Fahy,1,Masters 45-49,M,Raw,USA,MN,110,108.77,48,220,,147.5,,260,,627.5,SBD,
Dan McColgin,1,Masters 50-54,M,Raw,USA,NV,110,109.68,50,267.5,,160,,282.5,,710,SBD,
Gregory Cotterell,2,Masters 50-54,M,Raw,USA,CA,110,108.5,53,182.5,,147.5,,240,,570,SBD,
Thomas Matlock,1,Masters 60+,M,Raw,USA,AZ,110,107.41,62,172.5,,120,,210,,502.5,SBD,
Frederick Martinez,1,Masters 45-49,M,Raw,USA,CA,125,120.38,48,215,,192.5,,267.5,,675,SBD,
Jeff Campbell,DQ,Masters 45-49,M,Raw,USA,MN,125,121.65,47,237.5,,-177.5,,,,,SBD,
Mark Hurling,1,Masters 60+,M,Raw,USA,CA,125,116.3,63,145,,100,,162.5,,407.5,SBD,
Joe Rodgers,1,Masters 50-54,M,Raw,USA,CA,140+,167.92,50,280,,170,,250,,700,SBD,
Chelsea Blocker,1,Juniors 20-23,F,Wraps,USA,FL,52,51.17,23,117.5,,52.5,,125,,295,SBD,
Sheyenne Tercero,DQ,Juniors 15-19,F,Wraps,USA,TX,75,74.93,18,-140,,-65,,145,,,SBD,
Lisa Rothman,1,Open,F,Wraps,USA,FL,48,47.54,38,107.5,,62.5,,157,,327,SBD,
Tina Payne,2,Open,F,Wraps,USA,GA,48,46.08,46,60,,37.5,,80,,177.5,SBD,
Danielle Columby,1,Open,F,Wraps,USA,AZ,52,49.53,29,115,,62.5,,145.5,,323,SBD,
Chelsea Blocker,2,Open,F,Wraps,USA,FL,52,51.17,23,117.5,,52.5,,125,,295,SBD,
Kerri Nichols,1,Open,F,Wraps,Canada,,56,54.25,35,82.5,,50,,115,,247.5,SBD,
Becky Price,1,Open,F,Wraps,USA,OR,60,58.97,50,125,,82.5,,155,,362.5,SBD,
Carrie Grissinger,1,Open,F,Wraps,USA,MO,67.5,67.2,35,145,,75,,160,,380,SBD,
Bernice Fuss,1,Open,F,Wraps,Canada,,75,69.58,56,128,130,103,107.5,152.5,,383.5,SBD,
Lisa Wheeler,2,Open,F,Wraps,USA,CA,75,71.76,45,112.5,,50,,127.5,,290,SBD,
Sheyenne Tercero,DQ,Open,F,Wraps,USA,TX,75,74.93,18,-140,,-65,,145,,,SBD,
Therese Janc,1,Open,F,Wraps,USA,SC,82.5,78.47,39,172.5,,100,,205,,477.5,SBD,
Sammi Johnson,1,Open,F,Wraps,USA,CA,90,89.63,26,147.5,,85,,192.5,,425,SBD,
Tina Payne,1,Masters 45-49,F,Wraps,USA,GA,48,46.08,46,60,,37.5,,80,,177.5,SBD,
Becky Price,1,Masters 50-54,F,Wraps,USA,OR,60,58.97,50,125,,82.5,,155,,362.5,SBD,
Lisa Wheeler,1,Masters 45-49,F,Wraps,USA,CA,75,71.76,45,112.5,,50,,127.5,,290,SBD,
Bernice Fuss,1,Masters 55-59,F,Wraps,Canada,,75,69.58,56,128,130,103,107.5,152.5,,383.5,SBD,
Bryan Hurt,DQ,Juniors 15-19,M,Wraps,USA,MS,60,58.6,17,-120,,,,,,,SBD,
Isaac Gonzales,1,Juniors 20-23,M,Wraps,USA,TX,67.5,67.36,21,150,,102.5,,192.5,,445,SBD,
Kyle Bright,1,Juniors 15-19,M,Wraps,USA,WY,82.5,81.47,17,162.5,,112.5,,187.5,,462.5,SBD,
Tyler Carpenter,1,Juniors 15-19,M,Wraps,USA,OR,100,99.43,19,217.5,,137.5,,275,,630,SBD,
Cole Townsend,DQ,Juniors 20-23,M,Wraps,USA,AZ,100,93.44,23,-220,,,,,,,SBD,
Hunter Rossman,1,Juniors 15-19,M,Wraps,USA,NV,110,109.86,18,215,,132.5,,250,260,597.5,SBD,
Michael Armendariz,DQ,Juniors 20-23,M,Wraps,USA,TX,110,104.69,22,302.5,,167.5,,-302.5,,,SBD,
Jason Jimenez,DQ,Juniors 20-23,M,Wraps,USA,CA,110,104.96,20,195,,-125,,260,,,SBD,
Anthony Sberna,1,Juniors 15-19,M,Wraps,USA,NV,125,115.48,19,182.5,,150,,232.5,,565,SBD,
Josh Sanderson,1,Juniors 20-23,M,Wraps,USA,AZ,125,115.58,21,295,,197.5,,282.5,,775,SBD,
Vahana Dorcis,1,Open,M,Wraps,USA,AZ,75,74.3,30,192.5,,125,,227.5,,545,SBD,
Alan Levine,2,Open,M,Wraps,USA,OR,75,74.48,64,132.5,,97.5,,185,,415,SBD,
Lazaro Cruzata,1,Open,M,Wraps,USA,TX,82.5,79.74,26,205,,142.5,,250,,597.5,SBD,
John Killin,2,Open,M,Wraps,USA,CA,82.5,82.19,64,187.5,,97.5,,215,,500,SBD,
Kyle Bright,3,Open,M,Wraps,USA,WY,82.5,81.47,17,162.5,,112.5,,187.5,,462.5,SBD,
Roy Taylor,4,Open,M,Wraps,USA,CA,82.5,82.19,73,115,,65,,187.5,,367.5,SBD,
Cesar Navarro,DQ,Open,M,Wraps,USA,AZ,82.5,81.92,29,245,,-175,,247.5,,,SBD,
Matt Gaechter,1,Open,M,Wraps,USA,OR,90,89.18,35,255,,167.5,,275,,697.5,SBD,
Carlos Daniel Llosa,2,Open,M,Wraps,Brazil,,90,88.72,25,265,,150,,245,,660,SBD,
Bobby Rinehart,3,Open,M,Wraps,USA,TX,90,87.72,37,250,,167.5,,227.5,,645,SBD,
Judson Costas,4,Open,M,Wraps,USA,FL,90,89.36,54,182.5,,117.5,,215,,515,SBD,
Andrew Zook,DQ,Open,M,Wraps,USA,WY,90,89.72,34,237.5,,-170,,240,,,SBD,
Matthew Schmidt,1,Open,M,Wraps,USA,TX,100,97.89,28,320,,210,,322.5,,852.5,SBD,
Matt Moore,2,Open,M,Wraps,USA,WA,100,98.25,29,300,,182.5,,350,,832.5,SBD,
Luis Vasquez,3,Open,M,Wraps,USA,TX,100,98.79,34,300,,192.5,,295,,787.5,SBD,
Tommy Kane,4,Open,M,Wraps,USA,IL,100,99.61,25,257.5,,170,,275,,702.5,SBD,
Kaiser Young,5,Open,M,Wraps,USA,TX,100,98.88,42,240,,205,,250,,695,SBD,
Victor Calia,6,Open,M,Wraps,USA,NV,100,93.53,50,227.5,,170,,287.5,,685,SBD,
Tyler Carpenter,7,Open,M,Wraps,USA,OR,100,99.43,19,217.5,,137.5,,275,,630,SBD,
Joseph Vespo,8,Open,M,Wraps,USA,NV,100,94.08,28,220,,110,,260,,590,SBD,
Cole Townsend,DQ,Open,M,Wraps,USA,AZ,100,93.44,23,-220,,,,,,,SBD,
Gary Grissinger,1,Open,M,Wraps,USA,MO,110,105.96,51,260,,175,,310,,745,SBD,
Jesse Griffin,2,Open,M,Wraps,USA,AZ,110,108.59,44,277.5,,185,,265,,727.5,SBD,
Thomas Dove,3,Open,M,Wraps,USA,TX,110,107.23,28,242.5,,197.5,,275,,715,SBD,
Jacob Rothenberg,4,Open,M,Wraps,USA,CA,110,106.68,25,245,,167.5,,275,,687.5,SBD,
Ed Searfoss,5,Open,M,Wraps,USA,CA,110,106.78,34,217.5,,147.5,,275,,640,SBD,
Hunter Rossman,6,Open,M,Wraps,USA,NV,110,109.86,18,215,,132.5,,250,,597.5,SBD,
Karl Davenport,7,Open,M,Wraps,USA,CA,110,106.32,48,205,,137.5,,205,,547.5,SBD,
Jason Jimenez,DQ,Open,M,Wraps,USA,CA,110,104.96,20,195,,-125,,260,,,SBD,
John Majefski,DQ,Open,M,Wraps,USA,TX,110,109.32,31,197.5,,-152.5,,,,,SBD,
Michael Armendariz,DQ,Open,M,Wraps,USA,TX,110,104.69,22,302.5,,167.5,,-302.5,,,SBD,
Brandon Allen #1,1,Open,M,Wraps,USA,NV,125,122.74,25,310,,225,,315,,850,SBD,
Josh Sanderson,2,Open,M,Wraps,USA,AZ,125,115.58,21,295,,197.5,,282.5,,775,SBD,
Anthony Sberna,3,Open,M,Wraps,USA,NV,125,115.48,19,182.5,,150,,232.5,,565,SBD,
David Wolf,4,Open,M,Wraps,USA,WY,125,121.93,59,192.5,,132.5,,220.5,,545.5,SBD,
AJ Hesser,1,Open,M,Wraps,USA,MO,140+,149.5,25,287.5,,210,,325.5,,823,SBD,
Mark Glusica,2,Open,M,Wraps,USA,NV,140+,163.66,27,252.5,,207.5,,322.5,,782.5,SBD,
Jonathan Lester,3,Open,M,Wraps,USA,TX,140+,161.66,25,292.5,,190,,290,,772.5,SBD,
Brian Kline,1,Masters 55-59,M,Wraps,USA,NV,52,49.26,58,135,,90,,70,,295,SBD,
Alan Levine,1,Masters 60+,M,Wraps,USA,OR,75,74.48,64,132.5,,97.5,,185,,415,SBD,
John Killin,1,Masters 60+,M,Wraps,USA,CA,82.5,82.19,64,187.5,,97.5,,215,,500,SBD,
Roy Taylor,1,Masters 70-74,M,Wraps,USA,CA,82.5,82.19,73,115,,65,,187.5,,367.5,SBD,
Judson Costas,1,Masters 50-54,M,Wraps,USA,FL,90,89.36,54,182.5,,117.5,,215,,515,SBD,
Kaiser Young,1,Masters 40-44,M,Wraps,USA,TX,100,98.88,42,240,,205,,250,,695,SBD,
Victor Calia,1,Masters 50-54,M,Wraps,USA,NV,100,93.53,50,227.5,,170,,287.5,,685,SBD,
Jesse Griffin,1,Masters 40-44,M,Wraps,USA,AZ,110,108.59,44,277.5,,185,,265,,727.5,SBD,
Karl Davenport,1,Masters 45-49,M,Wraps,USA,CA,110,106.32,48,205,,137.5,,205,,547.5,SBD,
Gary Grissinger,1,Masters 50-54,M,Wraps,USA,MO,110,105.96,51,260,,175,,310,,745,SBD,
David Wolf,1,Masters 55-59,M,Wraps,USA,WY,125,121.93,59,192.5,,132.5,,220.5,,545.5,SBD,
Robert Speno,1,Masters 40-44,M,Wraps,USA,CA,140,137.26,44,265,,182.5,,265,,712.5,SBD,
Amparo Barajas,DQ,Open,F,Single-ply,USA,TX,52,51.17,31,92.5,,-75,,125,,,SBD,
Stacie Wallace,1,Open,F,Single-ply,USA,TX,60,59.51,30,110,,87.5,,140,,337.5,SBD,
Bonnie Thomas,2,Open,F,Single-ply,USA,TX,60,59.42,29,115,,70,,130,,315,SBD,
Ashley Fitzgerald,1,Open,F,Single-ply,USA,MO,67.5,65.23,25,165,,77.5,,162.5,,405,SBD,
Karen Parnow,2,Open,F,Single-ply,USA,CA,67.5,67.04,55,120.5,,82.5,,143,,346,SBD,
Gia Blackwell,1,Open,F,Single-ply,USA,CA,75,70.67,53,162.5,,87.5,,155,,405,SBD,
Betsy Spann,2,Open,F,Single-ply,USA,CA,75,70.03,56,117.5,,75,,137.5,,330,SBD,
Nicki I'Anson,1,Open,F,Single-ply,USA,CA,82.5,80.1,47,182.5,,137.5,,191,,511,SBD,
Aura Sweeney,1,Open,F,Single-ply,USA,CA,90,87.82,33,192.5,,120,,165,,477.5,SBD,
Karen Parnow,1,Masters 55-59,F,Single-ply,USA,CA,67.5,67.04,55,120.5,,82.5,,143,,346,SBD,
Gia Blackwell,1,Masters 50-54,F,Single-ply,USA,CA,75,70.67,53,162.5,,87.5,,155,,405,SBD,
Betsy Spann,1,Masters 55-59,F,Single-ply,USA,CA,75,70.03,56,117.5,,75,,137.5,,330,SBD,
Nicki I'Anson,1,Masters 45-49,F,Single-ply,USA,CA,82.5,80.1,47,182.5,,137.5,,191,,511,SBD,
Micah Marino,1,Juniors 20-23,M,Single-ply,USA,MO,82.5,81.65,22,320,,242.5,,337.5,,900,SBD,1991
Garrett Gumz,1,Juniors 20-23,M,Single-ply,USA,CA,100,98.34,20,240,,172.5,,278,,690.5,SBD,
Brendan Morr,2,Juniors 20-23,M,Single-ply,USA,TX,100,95.8,21,192.5,,147.5,,210,,550,SBD,
Mike Giunta,1,Juniors 20-23,M,Single-ply,USA,MO,110,107.68,21,367.5,,250,,295,,912.5,SBD,
Nick Pastorello,1,Juniors 15-19,M,Single-ply,USA,NV,125,114.4,16,205,,182.5,,215,,602.5,SBD,
Edward Lone Eagle Jr,1,Open,M,Single-ply,USA,MN,75,74.84,30,240,,157.5,,250,,647.5,SBD,
Tom Miller #1,2,Open,M,Single-ply,USA,CA,75,73.39,72,150,,80,,183,,413,SBD,
Arthur Fu,DQ,Open,M,Single-ply,USA,CA,75,73.57,61,-195,,145,,-230,,,SBD,
Micah Marino,1,Open,M,Single-ply,USA,MO,82.5,81.65,22,320,,242.5,,337.5,,900,SBD,
Bill Carlough,2,Open,M,Single-ply,USA,IL,82.5,80.92,53,250,,200,,240,,690,SBD,
Rudy Garcia,3,Open,M,Single-ply,USA,NV,82.5,81.74,39,227.5,,195,,237.5,,660,SBD,
C. Dan Martin,4,Open,M,Single-ply,USA,NV,82.5,80.92,70,177.5,,125,,207.5,,510,SBD,
Ron Scott,5,Open,M,Single-ply,USA,CA,82.5,75.84,67,177.5,,80,,200.5,,458,SBD,
Keith Kanemoto,1,Open,M,Single-ply,USA,CA,90,86.45,54,262.5,,187.5,,247.5,,697.5,SBD,
David Bertier,2,Open,M,Single-ply,USA,CA,90,83.1,57,175,,125,,237.5,,537.5,SBD,
Ray Birch,3,Open,M,Single-ply,USA,CO,90,89.45,56,175,,117.5,,200,,492.5,SBD,
Roy Eriksen,4,Open,M,Single-ply,USA,NV,90,89.09,70,182.5,,127.5,,127.5,,437.5,SBD,
Jón Gunnarsson,1,Open,M,Single-ply,Iceland,,100,95.89,54,325,,202.5,,307.5,,835,SBD,
Garrett Gumz,2,Open,M,Single-ply,USA,CA,100,98.34,20,240,,172.5,,278,,690.5,SBD,
Darrell Robideau,3,Open,M,Single-ply,USA,CA,100,98.25,48,205,,182.5,,250,,637.5,SBD,
James Bell,4,Open,M,Single-ply,USA,MO,100,98.7,58,225,,125,,227.5,,577.5,SBD,
Brendan Morr,5,Open,M,Single-ply,USA,TX,100,95.8,21,192.5,,147.5,,210,,550,SBD,
Asa Barnes,DQ,Open,M,Single-ply,USA,AZ,100,98.52,49,-320,,,,,,,SBD,
Mike Giunta,1,Open,M,Single-ply,USA,MO,110,107.68,21,367.5,,250,,295,,912.5,SBD,
De'Andre Nunn,2,Open,M,Single-ply,USA,IL,110,109.13,27,330,,207.5,,285,,822.5,SBD,
Mike Tronske,3,Open,M,Single-ply,USA,CA,110,107.77,49,277.5,,220,,322.5,,820,SBD,
Wayne Jandoc,4,Open,M,Single-ply,USA,CA,110,107.95,56,272.5,,215,,255,,742.5,SBD,
Delbert Shay,5,Open,M,Single-ply,USA,OR,110,108.41,51,227.5,,160,,217.5,,605,SBD,
Ron Pagal,6,Open,M,Single-ply,USA,CA,110,103.06,67,200,,160,,200,,560,SBD,
Mark Hambling,DQ,Open,M,Single-ply,Australia,,110,100.33,50,225,,135,,-215,,,SBD,
Mark Slivinski,DQ,Open,M,Single-ply,USA,MO,110,106.78,49,290,,-250,,,,,SBD,
Mark Menslage,1,Open,M,Single-ply,USA,CA,125,113.49,48,272.5,,147.5,,277.5,,697.5,SBD,
Philip DeLa Rosa,2,Open,M,Single-ply,USA,TX,125,117.48,51,260,,165,,237.5,,662.5,SBD,
Nick Pastorello,3,Open,M,Single-ply,USA,NV,125,114.4,16,205,,182.5,,215,,602.5,SBD,
Hal Carlson,DQ,Open,M,Single-ply,USA,TX,125,122.2,37,-282.5,,,,,,,SBD,
Arthur Fu,DQ,Open,M,Single-ply,USA,CA,75,73.57,61,-195,,145,,-230,,,SBD,
Tom Miller #1,1,Masters 70-74,M,Single-ply,USA,CA,75,73.39,72,150,,80,,183,,413,SBD,
Bill Carlough,1,Masters 50-54,M,Single-ply,USA,IL,82.5,80.92,53,250,,200,,240,,690,SBD,
Ron Scott,1,Masters 65-69,M,Single-ply,USA,CA,82.5,75.84,67,177.5,,80,,200.5,205,458,SBD,
C. Dan Martin,1,Masters 70-74,M,Single-ply,USA,NV,82.5,80.92,70,177.5,,125,,207.5,,510,SBD,
Keith Kanemoto,1,Masters 50-54,M,Single-ply,USA,CA,90,86.45,54,262.5,,187.5,,247.5,,697.5,SBD,
David Bertier,1,Masters 55-59,M,Single-ply,USA,CA,90,83.1,57,175,,125,,237.5,,537.5,SBD,
Ray Birch,2,Masters 55-59,M,Single-ply,USA,CO,90,89.45,56,175,,117.5,,200,,492.5,SBD,
Roy Eriksen,1,Masters 70-74,M,Single-ply,USA,NV,90,89.09,70,182.5,,127.5,,127.5,,437.5,SBD,
Darrell Robideau,1,Masters 45-49,M,Single-ply,USA,CA,100,98.25,48,205,,182.5,,250,,637.5,SBD,
Asa Barnes,DQ,Masters 45-49,M,Single-ply,USA,AZ,100,98.52,49,-320,,,,,,,SBD,
Jón Gunnarsson,1,Masters 50-54,M,Single-ply,Iceland,,100,95.89,54,325,,202.5,,307.5,,835,SBD,
James Bell,1,Masters 55-59,M,Single-ply,USA,MO,100,98.7,58,225,,125,,227.5,,577.5,SBD,
Mike Tronske,1,Masters 45-49,M,Single-ply,USA,CA,110,107.77,49,277.5,,220,,322.5,,820,SBD,
Mark Slivinski,DQ,Masters 45-49,M,Single-ply,USA,MO,110,106.78,49,290,,-250,,,,,SBD,
Delbert Shay,1,Masters 50-54,M,Single-ply,USA,OR,110,108.41,51,227.5,,160,,217.5,227.5,605,SBD,
Mark Hambling,DQ,Masters 50-54,M,Single-ply,Australia,,110,100.33,50,225,,135,,-215,,,SBD,
Wayne Jandoc,1,Masters 55-59,M,Single-ply,USA,CA,110,107.95,56,272.5,,215,,255,,742.5,SBD,
Ron Pagal,1,Masters 65-69,M,Single-ply,USA,CA,110,103.06,67,200,,160,,200,,560,SBD,
Mark Menslage,1,Masters 45-49,M,Single-ply,USA,CA,125,113.49,48,272.5,,147.5,,277.5,,697.5,SBD,
Philip DeLa Rosa,1,Masters 50-54,M,Single-ply,USA,TX,125,117.48,51,260,,165,,237.5,,662.5,SBD,
Brian Meek,1,Masters 65-69,M,Single-ply,USA,CA,140,131,67,255,,132.5,,252.5,,640,SBD,
Liz Freel,1,Open,F,Multi-ply,USA,CA,75,72.39,38,255,,165,,250,,670,SBD,
Jacob Elich,1,Juniors 20-23,M,Multi-ply,USA,CO,90,88.9,21,252.5,,212.5,,250,,715,SBD,
John Rendon,1,Juniors 20-23,M,Multi-ply,USA,TX,100,93.44,22,257.5,,175,,230,,662.5,SBD,
Putt Houston,1,Open,M,Multi-ply,USA,MO,90,89.09,41,272.5,,217.5,,250,,740,SBD,
Jacob Elich,2,Open,M,Multi-ply,USA,CO,90,88.9,21,252.5,,212.5,,250,,715,SBD,
Blair Longmire,1,Open,M,Multi-ply,USA,TX,110,105.87,27,320,,245,,290,,855,SBD,
Andreas Gallagher,1,Open,M,Multi-ply,USA,NV,125,119.29,32,420,,102.5,,320,,842.5,SBD,
Mark Rogers,2,Open,M,Multi-ply,USA,TX,125,124.56,33,280,,220,,255,,755,SBD,
Jeremy Schraw,1,Open,M,Multi-ply,USA,TX,140,128.46,25,335,,230,,297.5,,862.5,SBD,
Eric Welch,DQ,Open,M,Multi-ply,USA,NV,140,135.81,51,252.5,,-165,,,,,SBD,
Scott Edmiston,DQ,Open,M,Multi-ply,Canada,,140,139.25,50,-350,,,,,,,SBD,
Putt Houston,1,Masters 40-44,M,Multi-ply,USA,MO,90,89.09,41,272.5,,217.5,,250,,740,SBD,
Eric Welch,DQ,Masters 50-54,M,Multi-ply,USA,NV,140,135.81,51,252.5,,-165,,,,,SBD,
Scott Edmiston,DQ,Masters 50-54,M,Multi-ply,Canada,,140,139.25,50,-350,,,,,,,SBD,
Tara Maier,1,Juniors 15-19,F,Raw,USA,AZ,82.5,80.2,19,,,92.5,,,,92.5,B,
Suzanne Davis,1,Open,F,Raw,USA,AZ,56,52.8,42,,,60,,,,60,B,
Lori Vanyo,2,Open,F,Raw,USA,CA,56,55.7,47,,,57.5,,,,57.5,B,
Kelli Mills,1,Open,F,Raw,USA,AZ,60,59.15,38,,,52.5,,,,52.5,B,
Judy Camsuzou,1,Open,F,Raw,USA,CA,67.5,66.77,46,,,110,112.5,,,110,B,
Tara Maier,1,Open,F,Raw,USA,AZ,82.5,80.2,19,,,92.5,,,,92.5,B,
Mandy Keefer,1,Open,F,Raw,USA,NV,90+,126.1,38,,,110,,,,110,B,
Suzanne Davis,1,Masters 40-44,F,Raw,USA,AZ,56,52.8,42,,,60,,,,60,B,
Lori Vanyo,1,Masters 45-49,F,Raw,USA,CA,56,55.7,47,,,57.5,,,,57.5,B,
Judy Camsuzou,1,Masters 45-49,F,Raw,USA,CA,67.5,66.77,46,,,110,112.5,,,110,B,
Trenton Tanioka,1,Juniors 20-23,M,Raw,USA,CA,60,59.06,20,,,105,,,,105,B,
Grigoriy Pantyukhin,1,Juniors 15-19,M,Raw,Russia,,75,73.98,18,,,132.5,,,,132.5,B,
Alex Pantazonis,2,Juniors 15-19,M,Raw,USA,MD,75,73.8,17,,,130,,,,130,B,
Nadeem Hamidy,1,Juniors 15-19,M,Raw,USA,CA,110,102.51,18,,,135,,,,135,B,
Austin Embrock,DQ,Juniors 15-19,M,Raw,USA,MO,110,106.68,19,,,-202.5,,,,,B,
Nick Summers,DQ,Juniors 20-23,M,Raw,USA,AZ,140,129.18,23,,,-227.5,,,,,B,
Steven Maradona,DQ,Juniors 20-23,M,Raw,USA,CA,140+,153.04,20,,,-200,,,,,B,
Grigoriy Pantyukhin,1,Open,M,Raw,Russia,,75,73.98,18,,,132.5,,,,132.5,B,
Alex Pantazonis,2,Open,M,Raw,USA,MD,75,73.8,17,,,130,,,,130,B,
Rick Gutman,3,Open,M,Raw,USA,CA,75,73.75,59,,,112.5,,,,112.5,B,
Matt Mattison,4,Open,M,Raw,USA,CA,75,74.75,44,,,102.5,,,,102.5,B,
Jim Merlino,5,Open,M,Raw,USA,CA,75,67.86,75,,,80,,,,80,B,
Lee Wilcoxon,1,Open,M,Raw,USA,OH,82.5,80.92,47,,,175,,,,175,B,
Jeremy Davis,2,Open,M,Raw,USA,CA,82.5,80.83,35,,,170,,,,170,B,
Roy Mitchell,3,Open,M,Raw,USA,CA,82.5,81.92,56,,,160,,,,160,B,
Greg Huerta,4,Open,M,Raw,USA,TX,82.5,81.56,42,,,150,,,,150,B,
Steve Morgan,1,Open,M,Raw,USA,CA,90,88.9,41,,,190,,,,190,B,
Jess Santos,2,Open,M,Raw,USA,CA,90,88.63,41,,,187.5,,,,187.5,B,
Louie Mansanas,3,Open,M,Raw,USA,HI,90,89.45,48,,,187.5,,,,187.5,B,
Vladimir Reshetnikov,4,Open,M,Raw,Russia,,90,83.19,53,,,173,,,,173,B,
Tom DeLong,5,Open,M,Raw,USA,CA,90,89.72,56,,,170,,,,170,B,
Doug Clayton,6,Open,M,Raw,USA,WY,90,87.09,56,,,142.5,,,,142.5,B,
Alfred Franke,7,Open,M,Raw,USA,NV,90,86.09,72,,,125,,,,125,B,
Jared Burton,1,Open,M,Raw,USA,CO,100,98.52,42,,,215,,,,215,B,
Ben O'Brien,2,Open,M,Raw,USA,AZ,100,98.25,34,,,207.5,,,,207.5,B,
Stacy Dedrick,3,Open,M,Raw,USA,CA,100,97.79,48,,,200,,,,200,B,
Kaiser Young,4,Open,M,Raw,USA,TX,100,99.16,42,,,200,,,,200,B,
Zack McDole,5,Open,M,Raw,USA,NV,100,99.7,29,,,200,,,,200,B,
Kent Russell,6,Open,M,Raw,USA,CA,100,99.79,38,,,195,,,,195,B,
James Joyce,7,Open,M,Raw,USA,CA,100,91.35,48,,,185,,,,185,B,
Sean Seligman,8,Open,M,Raw,USA,AR,100,98.97,50,,,182.5,,,,182.5,B,
Howie Chaves,9,Open,M,Raw,USA,WA,100,97.07,63,,,155,,,,155,B,
Allen Phillips,10,Open,M,Raw,USA,CA,100,94.17,70,,,122.5,,,,122.5,B,
Bill Starkey,11,Open,M,Raw,USA,CA,110,103.15,71,,,95,,,,95,B,
Lothar Vallot,12,Open,M,Raw,USA,CA,100,93.44,61,,,85,,,,85,B,
Barry Moores,DQ,Open,M,Raw,USA,CA,100,91.53,68,,,-125,,,,,B,
Dave Breker,1,Open,M,Raw,Canada,,110,106.5,32,,,212.5,,,,212.5,B,
Tom Kosanouvong,2,Open,M,Raw,USA,CA,110,107.86,34,,,200,,,,200,B,
Jeff Hunter,3,Open,M,Raw,USA,CA,110,108.5,53,,,200,,,,200,B,
John Melcher,4,Open,M,Raw,USA,GA,110,106.32,51,,,177.5,,,,177.5,B,
Daniel Smith III,5,Open,M,Raw,USA,CA,110,105.32,70,,,165,,,,165,B,
Wayne Jandoc,6,Open,M,Raw,USA,CA,110,107.95,56,,,150,,,,150,B,
Nadeem Hamidy,7,Open,M,Raw,USA,CA,110,102.51,18,,,135,,,,135,B,
Austin Embrock,DQ,Open,M,Raw,USA,MO,110,106.68,19,,,-202.5,,,,,B,
Charles Zbur,DQ,Open,M,Raw,USA,WY,110,109.13,48,,,-207.5,,,,,B,
Iman Richards,DQ,Open,M,Raw,USA,CA,110,109.59,39,,,-215,,,,,B,
Scott Schmeckpeper,DQ,Open,M,Raw,USA,CA,110,109.04,58,,,-125,,,,,B,
Ryan DeWitt,1,Open,M,Raw,USA,CA,125,123.74,38,,,260,,,,260,B,
Marty Killion,2,Open,M,Raw,USA,WY,125,123.47,43,,,220,,,,220,B,
Jeffery Tucker,3,Open,M,Raw,USA,OK,125,120.66,46,,,215,,,,215,B,
Kyle Hardy,4,Open,M,Raw,USA,NM,125,112.04,65,,,152.5,,,,152.5,B,
Jim Jarboe,5,Open,M,Raw,USA,FL,125,121.38,71,,,125,,,,125,B,
Rodney Wrocklage,1,Open,M,Raw,USA,OH,140,132,38,,,195,,,,195,B,
Brian Meek,2,Open,M,Raw,USA,CA,140,131.27,67,,,140,,,,140,B,
Ed Stanley,3,Open,M,Raw,USA,CA,140,131.9,71,,,87.5,,,,87.5,B,
Nick Summers,DQ,Open,M,Raw,USA,AZ,140,129.18,23,,,-227.5,,,,,B,
Charlie Poteete,1,Open,M,Raw,USA,NV,140+,166.65,39,,,212.5,,,,212.5,B,
Steven Maradona,DQ,Open,M,Raw,USA,CA,140+,153.04,20,,,-200,,,,,B,
Kevin Meskew,1,Masters 55-59,M,Raw,USA,CA,67.5,67.04,57,,,85,,,,85,B,
Gordon Santee,1,Masters 65-69,M,Raw,USA,CA,67.5,64.41,67,,,81,,,,81,B,
Matt Mattison,1,Masters 40-44,M,Raw,USA,CA,75,74.75,44,,,102.5,,,,102.5,B,
Rick Gutman,1,Masters 55-59,M,Raw,USA,CA,75,73.75,59,,,112.5,,,,112.5,B,
Jim Merlino,1,Masters 75-79,M,Raw,USA,CA,75,67.86,75,,,80,,,,80,B,
Greg Huerta,1,Masters 40-44,M,Raw,USA,TX,82.5,81.56,42,,,150,,,,150,B,
Lee Wilcoxon,1,Masters 45-49,M,Raw,USA,OH,82.5,80.92,47,,,175,,,,175,B,
Roy Mitchell,1,Masters 55-59,M,Raw,USA,CA,82.5,81.92,56,,,160,,,,160,B,
Steve Morgan,1,Masters 40-44,M,Raw,USA,CA,90,88.9,41,,,190,,,,190,B,
Jess Santos,2,Masters 40-44,M,Raw,USA,CA,90,88.63,41,,,187.5,,,,187.5,B,
Louie Mansanas,1,Masters 45-49,M,Raw,USA,HI,90,89.45,48,,,187.5,,,,187.5,B,
Vladimir Reshetnikov,1,Masters 50-54,M,Raw,Russia,,90,83.19,53,,,173,,,,173,B,
Tom DeLong,1,Masters 55-59,M,Raw,USA,CA,90,89.72,56,,,170,,,,170,B,
Doug Clayton,2,Masters 55-59,M,Raw,USA,WY,90,87.09,56,,,142.5,,,,142.5,B,
Alfred Franke,1,Masters 70-74,M,Raw,USA,NV,90,86.09,72,,,125,,,,125,B,
Jared Burton,1,Masters 40-44,M,Raw,USA,CO,100,98.52,42,,,215,,,,215,B,
Kaiser Young,2,Masters 40-44,M,Raw,USA,TX,100,99.16,42,,,200,,,,200,B,
Stacy Dedrick,1,Masters 45-49,M,Raw,USA,CA,100,97.79,48,,,200,,,,200,B,
James Joyce,2,Masters 45-49,M,Raw,USA,CA,100,91.35,48,,,185,,,,185,B,
Sean Seligman,1,Masters 50-54,M,Raw,USA,AR,100,98.97,50,,,182.5,,,,182.5,B,
Howie Chaves,1,Masters 60+,M,Raw,USA,WA,100,97.07,63,,,155,,,,155,B,
Lothar Vallot,2,Masters 60+,M,Raw,USA,CA,100,93.44,61,,,85,,,,85,B,
Barry Moores,DQ,Masters 65-69,M,Raw,USA,CA,100,91.53,68,,,-125,,,,,B,
Allen Phillips,1,Masters 70-74,M,Raw,USA,CA,100,94.17,70,,,122.5,,,,122.5,B,
Bill Starkey,2,Masters 70-74,M,Raw,USA,CA,110,103.15,71,,,95,,,,95,B,
Charles Zbur,DQ,Masters 45-49,M,Raw,USA,WY,110,109.13,48,,,-207.5,,,,,B,
Jeff Hunter,1,Masters 50-54,M,Raw,USA,CA,110,108.5,53,,,200,,,,200,B,
John Melcher,2,Masters 50-54,M,Raw,USA,GA,110,106.32,51,,,177.5,,,,177.5,B,
Wayne Jandoc,1,Masters 55-59,M,Raw,USA,CA,110,107.95,56,,,150,,,,150,B,
Scott Schmeckpeper,DQ,Masters 55-59,M,Raw,USA,CA,110,109.04,58,,,-125,,,,,B,
Daniel Smith III,1,Masters 70-74,M,Raw,USA,CA,110,105.32,70,,,165,,,,165,B,
Marty Killion,1,Masters 40-44,M,Raw,USA,WY,125,123.47,43,,,220,,,,220,B,
Jeffery Tucker,1,Masters 45-49,M,Raw,USA,OK,125,120.66,46,,,215,,,,215,B,
Kyle Hardy,1,Masters 65-69,M,Raw,USA,NM,125,112.04,65,,,152.5,,,,152.5,B,
Jim Jarboe,1,Masters 70-74,M,Raw,USA,FL,125,121.38,71,,,125,,,,125,B,
Brian Meek,1,Masters 65-69,M,Raw,USA,CA,140,131.27,67,,,140,,,,140,B,
Ed Stanley,1,Masters 70-74,M,Raw,USA,CA,140,131.9,71,,,87.5,92.5,,,87.5,B,
Anna Kelske,1,Open,F,Single-ply,USA,CA,60,58.6,31,,,75,,,,75,B,
Karen Parnow,1,Masters 55-59,F,Single-ply,USA,CA,67.5,66.95,55,,,85,,,,85,B,
Romy Brubaker,1,Masters 75-79,F,Single-ply,USA,CA,67.5,67.04,75,,,40,,,,40,B,
Bernice Fuss,1,Masters 55-59,F,Single-ply,Canada,,75,73.12,56,,,125,,,,125,B,
Betsy Spann,2,Masters 55-59,F,Single-ply,USA,CA,75,72.12,56,,,75,,,,75,B,
Kyle Planeaux,1,Juniors 20-23,M,Single-ply,USA,CA,90,88.09,23,,,125,,,,125,B,
Greg Huerta,1,Open,M,Single-ply,USA,TX,82.5,81.56,42,,,170,,,,170,B,
Jerry Saldana,1,Open,M,Single-ply,USA,TX,90,89.54,33,,,230,,,,230,B,
Dan Dudgeon,2,Open,M,Single-ply,USA,CA,90,88.45,38,,,227.5,,,,227.5,B,
Louie Mansanas,3,Open,M,Single-ply,USA,HI,90,89.45,48,,,222.5,,,,222.5,B,
Kyle Planeaux,4,Open,M,Single-ply,USA,CA,90,88.09,23,,,125,,,,125,B,
Greg Powell,1,Open,M,Single-ply,USA,TX,100,99.79,48,,,305,,,,305,B,
Bryon Brubaker,2,Open,M,Single-ply,USA,CA,100,91.08,50,,,225,,,,225,B,
Stacy Dedrick,3,Open,M,Single-ply,USA,CA,100,97.79,48,,,225,,,,225,B,
Jason Kelske,4,Open,M,Single-ply,USA,CA,100,99.25,32,,,180,,,,180,B,
Randy Cheatheam,5,Open,M,Single-ply,USA,AZ,100,97.25,52,,,175,,,,175,B,
Ronald Allen,1,Open,M,Single-ply,USA,CA,110,109.5,39,,,160,,,,160,B,
Jeff Hunter,DQ,Open,M,Single-ply,USA,CA,110,108.5,53,,,-260,,,,,B,
Daniel Zumer,1,Open,M,Single-ply,USA,CA,125,121.2,52,,,190,,,,190,B,
Steve Denning,2,Open,M,Single-ply,USA,CA,125,117.21,58,,,170,,,,170,B,
Doug Knapp,3,Open,M,Single-ply,USA,CA,125,121.56,66,,,165,,,,165,B,
William Dixon,1,Open,M,Single-ply,USA,OH,140+,158.76,35,,,272.5,,,,272.5,B,
Anthony Cissell,DQ,Open,M,Single-ply,USA,CA,140+,152.59,27,,,-320,,,,,B,
Sean Sette,DQ,Open,M,Single-ply,USA,AZ,140+,158.03,41,,,-205,,,,,B,
Dean Cowan,DQ,Open,M,Single-ply,Australia,,140+,151.41,42,,,-280,,,,,B,
Greg Huerta,1,Masters 40-44,M,Single-ply,USA,TX,82.5,81.56,42,,,170,,,,170,B,
Louie Mansanas,1,Masters 45-49,M,Single-ply,USA,HI,90,89.45,48,,,222.5,,,,222.5,B,
Greg Powell,1,Masters 45-49,M,Single-ply,USA,TX,100,99.79,48,,,305,,,,305,B,
Stacy Dedrick,2,Masters 45-49,M,Single-ply,USA,CA,100,97.79,48,,,225,,,,225,B,
Bryon Brubaker,1,Masters 50-54,M,Single-ply,USA,CA,100,91.08,50,,,225,,,,225,B,
Randy Cheatheam,2,Masters 50-54,M,Single-ply,USA,AZ,100,97.25,52,,,175,,,,175,B,
Jeff Hunter,DQ,Masters 50-54,M,Single-ply,USA,CA,110,108.5,53,,,-260,,,,,B,
Daniel Zumer,1,Masters 50-54,M,Single-ply,USA,CA,125,121.2,52,,,190,,,,190,B,
Steve Denning,1,Masters 55-59,M,Single-ply,USA,CA,125,117.21,58,,,170,,,,170,B,
Doug Knapp,1,Masters 65-69,M,Single-ply,USA,CA,125,121.56,66,,,165,,,,165,B,
Sean Sette,DQ,Masters 40-44,M,Single-ply,USA,AZ,140+,158.03,41,,,-205,,,,,B,
Dean Cowan,DQ,Masters 40-44,M,Single-ply,Australia,,140+,151.41,42,,,-280,,,,,B,
Markus Veirs,1,Open,M,Multi-ply,USA,MO,75,74.3,51,,,195,,,,195,B,
Michael Bingham,1,Open,M,Multi-ply,USA,PA,82.5,80.74,48,,,250,,,,250,B,
Chuck Hudson,1,Open,M,Multi-ply,USA,AZ,140,127.91,35,,,330,,,,330,B,
Anthony Pastorello,2,Open,M,Multi-ply,USA,NV,140,131.27,42,,,312.5,,,,312.5,B,
Michael Bowden,1,Open,M,Multi-ply,USA,AZ,140+,152.86,51,,,320,,,,320,B,
Markus Veirs,1,Masters 50-54,M,Multi-ply,USA,MO,75,74.3,51,,,195,,,,195,B,
Michael Bingham,1,Masters 45-49,M,Multi-ply,USA,PA,82.5,80.74,48,,,250,,,,250,B,
Anthony Pastorello,1,Masters 40-44,M,Multi-ply,USA,NV,140,131.27,42,,,312.5,,,,312.5,B,
Michael Bowden,1,Masters 50-54,M,Multi-ply,USA,AZ,140+,152.86,51,,,320,,,,320,B,
Savannah Sparkes,1,Youth,F,Raw,USA,AZ,44,44,13,,,,,80.5,,80.5,D,
Kate Gondales,1,Juniors 20-23,F,Raw,USA,AZ,44,43.09,21,,,,,97.5,,97.5,D,
Selina Haefke,1,Juniors 15-19,F,Raw,USA,CA,67.5,66.41,17,,,,,150,,150,D,
Heather Gray,1,Juniors 20-23,F,Raw,USA,CA,67.5,66.59,23,,,,,137.5,,137.5,D,
Tara Maier,1,Juniors 15-19,F,Raw,USA,AZ,82.5,80.2,19,,,,,165,,165,D,
Kate Gondales,1,Open,F,Raw,USA,AZ,44,43.09,21,,,,,97.5,,97.5,D,
Savannah Sparkes,2,Open,F,Raw,USA,AZ,44,44,13,,,,,80.5,,80.5,D,
Tajsha Jordan,1,Open,F,Raw,USA,AZ,52,51.53,26,,,,,145,,145,D,
Suzanne Davis,1,Open,F,Raw,USA,AZ,56,52.8,42,,,,,157.5,,157.5,D,
Kerri Nichols,2,Open,F,Raw,Canada,,56,55.52,35,,,,,117.5,,117.5,D,
Debbie Vizina,3,Open,F,Raw,USA,WY,56,55.25,47,,,,,105,,105,D,
Kelli Mills,1,Open,F,Raw,USA,AZ,60,59.15,38,,,,,125,,125,D,
Blanca Rios,2,Open,F,Raw,USA,TX,60,58.33,40,,,,,102.5,,102.5,D,
Selina Haefke,1,Open,F,Raw,USA,CA,67.5,66.41,17,,,,,150,,150,D,
Heather Gray,2,Open,F,Raw,USA,CA,67.5,66.59,23,,,,,137.5,,137.5,D,
Maria Dwyer,3,Open,F,Raw,USA,CA,67.5,66.77,37,,,,,125,,125,D,
Lynne Slivovsky,1,Open,F,Raw,USA,CA,75,74.84,43,,,,,132.5,,132.5,D,
Patsy Wynne,2,Open,F,Raw,USA,CA,75,69.94,66,,,,,80,,80,D,
Sophia Hussary,1,Open,F,Raw,USA,AZ,82.5,79.29,36,,,,,182.5,,182.5,D,
Tara Maier,2,Open,F,Raw,USA,AZ,82.5,80.2,19,,,,,165,,165,D,
Lil Stewart,3,Open,F,Raw,USA,CA,82.5,79.74,70,,,,,104,,104,D,
Jacee Cooper,1,Open,F,Raw,USA,AZ,90,83.64,24,,,,,137.5,,137.5,D,
Linda Schaefer-Hanley,1,Open,F,Raw,USA,CO,90+,108.41,53,,,,,186,,186,D,
Suzanne Davis,1,Masters 40-44,F,Raw,USA,AZ,56,52.8,42,,,,,157.5,,157.5,D,
Debbie Vizina,1,Masters 45-49,F,Raw,USA,WY,56,55.25,47,,,,,105,,105,D,
Blanca Rios,1,Masters 40-44,F,Raw,USA,TX,60,58.33,40,,,,,102.5,,102.5,D,
Lynne Slivovsky,1,Masters 40-44,F,Raw,USA,CA,75,74.84,43,,,,,132.5,,132.5,D,
Patsy Wynne,1,Masters 65-69,F,Raw,USA,CA,75,69.94,66,,,,,80,,80,D,
Lil Stewart,1,Masters 70-74,F,Raw,USA,CA,82.5,79.74,70,,,,,104,,104,D,
Linda Schaefer-Hanley,1,Masters 50-54,F,Raw,USA,CO,90+,108.41,53,,,,,186,,186,D,
Vincent Viglienzone,1,Juniors 15-19,M,Raw,USA,CA,75,71.03,17,,,,,195,,195,D,
Isaac Gonzales,1,Juniors 20-23,M,Raw,USA,TX,75,69.76,21,,,,,202.5,,202.5,D,
Nadeem Hamidy,1,Juniors 15-19,M,Raw,USA,CA,110,102.51,18,,,,,227.5,,227.5,D,
Jason Jimenez,1,Juniors 20-23,M,Raw,USA,CA,110,104.42,20,,,,,260,,260,D,
Luigi Fagiani,DQ,Juniors 20-23,M,Raw,USA,NY,110,100.15,23,,,,,-350,,,D,
Steven Maradona,1,Juniors 20-23,M,Raw,USA,CA,140+,153.04,20,,,,,247.5,,247.5,D,
Kevin Meskew,1,Open,M,Raw,USA,CA,67.5,67.04,57,,,,,185.5,,185.5,D,
Gordon Santee,2,Open,M,Raw,USA,CA,67.5,64.41,67,,,,,175,,175,D,
Isaac Gonzales,1,Open,M,Raw,USA,TX,75,69.76,21,,,,,202.5,,202.5,D,
Vincent Viglienzone,2,Open,M,Raw,USA,CA,75,71.03,17,,,,,195,,195,D,
David Foster,1,Open,M,Raw,USA,CA,90,89.09,44,,,,,255,,255,D,
Steve Melero,2,Open,M,Raw,USA,CA,90,88.27,31,,,,,245,,245,D,
Doug Clayton,3,Open,M,Raw,USA,WY,90,87.09,56,,,,,215,,215,D,
Roy Taylor,4,Open,M,Raw,USA,CA,90,83.73,73,,,,,182.5,,182.5,D,
Jonathan Dean,1,Open,M,Raw,USA,CA,100,99.43,49,,,,,215,,215,D,
Lothar Vallot,2,Open,M,Raw,USA,CA,100,93.44,61,,,,,150,,150,D,
Gary Grissinger,1,Open,M,Raw,USA,MO,110,106.78,51,,,,,320,,320,D,
Chris Colon,2,Open,M,Raw,USA,NV,110,108.95,24,,,,,285,,285,D,
Jason Jimenez,3,Open,M,Raw,USA,CA,110,104.42,20,,,,,260,,260,D,
Nadeem Hamidy,4,Open,M,Raw,USA,CA,110,102.51,18,,,,,227.5,,227.5,D,
John Melcher,DQ,Open,M,Raw,USA,GA,110,106.32,51,,,,,-200,,,D,
Ed Searfoss,DQ,Open,M,Raw,USA,CA,110,107.5,34,,,,,-275,,,D,
Luigi Fagiani,DQ,Open,M,Raw,USA,NY,110,100.15,23,,,,,-350,,,D,
Justin Clifford,1,Open,M,Raw,USA,UT,125,124.65,24,,,,,272.5,,272.5,D,
Joe Dentice,2,Open,M,Raw,USA,NV,125,123.29,55,,,,,265,,265,D,
Jim Jarboe,3,Open,M,Raw,USA,FL,125,121.38,71,,,,,162.5,,162.5,D,
Kevin Meskew,1,Masters 55-59,M,Raw,USA,CA,67.5,67.04,57,,,,,185.5,,185.5,D,
Gordon Santee,1,Masters 65-69,M,Raw,USA,CA,67.5,64.41,67,,,,,175,,175,D,
Stan Miyahira,1,Masters 75-79,M,Raw,USA,NV,82.5,81.56,75,,,,,130,,130,D,
David Foster,1,Masters 40-44,M,Raw,USA,CA,90,89.09,44,,,,,255,,255,D,
Doug Clayton,1,Masters 55-59,M,Raw,USA,WY,90,87.09,56,,,,,215,,215,D,
Roy Taylor,1,Masters 70-74,M,Raw,USA,CA,90,83.73,73,,,,,182.5,,182.5,D,
Jonathan Dean,1,Masters 45-49,M,Raw,USA,CA,100,99.43,49,,,,,215,,215,D,
Lothar Vallot,1,Masters 60+,M,Raw,USA,CA,100,93.44,61,,,,,150,,150,D,
Gary Grissinger,1,Masters 50-54,M,Raw,USA,MO,110,106.78,51,,,,,320,,320,D,
John Melcher,DQ,Masters 50-54,M,Raw,USA,GA,110,106.32,51,,,,,-200,,,D,
Joe Dentice,1,Masters 55-59,M,Raw,USA,NV,125,123.29,55,,,,,265,,265,D,
Jim Jarboe,1,Masters 70-74,M,Raw,USA,FL,125,121.38,71,,,,,162.5,,162.5,D,
Anna Kelske,1,Open,F,Single-ply,USA,CA,60,58.6,31,,,,,150,,150,D,
Natalya Carmichael,2,Open,F,Single-ply,USA,CA,60,57.79,32,,,,,115,,115,D,
Brenda Clayton-Luczak,1,Open,F,Single-ply,USA,WY,67.5,66.77,25,,,,,150,,150,D,
Karen Parnow,2,Open,F,Single-ply,USA,CA,67.5,66.95,55,,,,,138,,138,D,
Bernice Fuss,1,Open,F,Single-ply,Canada,,75,73.12,56,,,,,162.5,,162.5,D,
Martha King,2,Open,F,Single-ply,USA,CA,75,72.3,50,,,,,122.5,,122.5,D,
Karen Parnow,1,Masters 55-59,F,Single-ply,USA,CA,67.5,66.95,55,,,,,138,,138,D,
Martha King,1,Masters 50-54,F,Single-ply,USA,CA,75,72.3,50,,,,,122.5,,122.5,D,
Bernice Fuss,1,Masters 55-59,F,Single-ply,Canada,,75,73.12,56,,,,,162.5,,162.5,D,
Kyle Planeaux,1,Juniors 20-23,M,Single-ply,USA,CA,90,88.09,23,,,,,235,,235,D,
Micah Marino,DQ,Juniors 20-23,M,Single-ply,USA,CA,90,86,22,,,,,-350,,,D,
Michael Scurry,1,Open,M,Single-ply,USA,CA,90,83.01,41,,,,,295,,295,D,
Jerry Saldana,2,Open,M,Single-ply,USA,TX,90,89.54,33,,,,,255,,255,D,
Kyle Planeaux,3,Open,M,Single-ply,USA,CA,90,88.09,23,,,,,235,,235,D,
Ben O'Brien,1,Open,M,Single-ply,USA,AZ,100,98.25,34,,,,,342.5,,342.5,D,
Jason Kelske,2,Open,M,Single-ply,USA,CA,100,99.7,32,,,,,305,,305,D,
Timothy Sparkes,1,Open,M,Single-ply,USA,AZ,110,104.6,46,,,,,307.5,,307.5,D,
Ronald Allen,2,Open,M,Single-ply,USA,CA,110,109.5,39,,,,,237.5,,237.5,D,
Matt Mattison,1,Masters 40-44,M,Single-ply,USA,CA,75,74.75,44,,,,,195,,195,D,
Warren Fahrenfeld,1,Masters 45-49,M,Single-ply,USA,NJ,82.5,81.01,46,,,,,275,,275,D,
Michael Scurry,1,Masters 40-44,M,Single-ply,USA,CA,90,83.01,41,,,,,295,,295,D,
Timothy Sparkes,1,Masters 45-49,M,Single-ply,USA,AZ,110,104.6,46,,,,,307.5,,307.5,D,
Brian Meek,1,Masters 65-69,M,Single-ply,USA,CA,140,131.27,67,,,,,227.5,,227.5,D,
John Heldt,1,Masters 40-44,M,Single-ply,USA,NV,140+,145.97,43,,,,,267.5,,267.5,D,
Dean Cowan,DQ,Masters 40-44,M,Single-ply,Australia,,140+,151.41,42,,,,,-350,,,D,
Betsy Spann,1,Masters 55-59,F,Multi-ply,USA,CA,75,72.12,56,,,,,135,137.5,135,D,
Eric Welch,1,Open,M,Multi-ply,USA,NV,140,134.99,51,,,,,277.5,,277.5,D,
Don Zachary,1,Masters 55-59,M,Multi-ply,USA,TX,100,99.34,58,,,,,222.5,,222.5,D,
Eric Welch,1,Masters 50-54,M,Multi-ply,USA,NV,140,134.99,51,,,,,277.5,,277.5,D,
