Place,Name,BirthYear,BodyweightKg,Bench1Kg,Bench2Kg,Bench3Kg,Best3BenchKg,Bench4Kg,WeightClassKg,Sex,Event,TotalKg,Equipment,Division
1,Gennadiy Musnitsky,1973,55.90,102.5,-105,107.5,107.5,,56,M,B,107.5,Single-ply,Open
2,Maksim Petrovskiy,1982,53.80,95,100,105,105,,56,M,B,105.0,Single-ply,Open
3,Aleksandr Demkin,1985,53.00,92.5,100,102.5,102.5,,56,M,B,102.5,Single-ply,Open
4,Dmitriy Shapel,1991,55.80,100,-110,-110,100,,56,M,B,100.0,Single-ply,Open
5,Valeriy Kuyanichenko,1986,55.80,70,75,-77.5,75,,56,M,B,75.0,Single-ply,Open
6,Albert Losyakov,1994,55.80,50,55,60,60,,56,M,B,60.0,Single-ply,Open
DQ,Aleksandr Nivitskiy,1986,54.50,-90,-90,-90,,,56,M,B,,Single-ply,Open
1,Valeriy Orekhvo,1990,59.90,-163,163,164,164,-167.5,60,M,B,164.0,Single-ply,Open
2,Yakov Kryzhchenko,1991,59.90,125,130,135,135,,60,M,B,135.0,Single-ply,Open
3,Andrey Kiselev,1990,59.20,-125,-125,125,125,,60,M,B,125.0,Single-ply,Open
4,Aleksandr Khonyak,1991,60.00,105,115,-117.5,115,,60,M,B,115.0,Single-ply,Open
5,Pavel Lukyanov,1987,60.00,105,-117.5,,105,,60,M,B,105.0,Single-ply,Open
6,Daniil Skachko,1989,60.00,100,-105,-105,100,,60,M,B,100.0,Single-ply,Open
7,Pavel Trukhanovich,1989,60.00,95,-102.5,-102.5,95,,60,M,B,95.0,Single-ply,Open
8,Vladimir Abrazhevich,1992,59.80,87.5,,-92.5,87.5,,60,M,B,87.5,Single-ply,Open
9,Evgeniy Baturevich,1990,59.00,80,85,-90,85,,60,M,B,85.0,Single-ply,Open
10,Aleksey Mashinets,1990,59.70,75,-80,-80,75,,60,M,B,75.0,Single-ply,Open
DQ,Maksim Yasevich,1992,59.90,-105,-105,-105,,,60,M,B,,Single-ply,Open
1,Pavel Yasonov,1985,67.00,167.5,172.5,182.5,182.5,,67.5,M,B,182.5,Single-ply,Open
2,Dmitriy Rumachik,1982,66.90,145,150,-155,150,,67.5,M,B,150.0,Single-ply,Open
3,Dmitriy Zhukovskiy,1983,67.20,145,-155,-160,145,,67.5,M,B,145.0,Single-ply,Open
4,Vitaliy Savchits,1989,66.00,110,120,-125,120,,67.5,M,B,120.0,Single-ply,Open
5,Sergey Smirnov,1988,66.80,115,-122.5,,115,,67.5,M,B,115.0,Single-ply,Open
6,Vasiliy Yuvchenko,1982,66.70,100,110,-120,110,,67.5,M,B,110.0,Single-ply,Open
7,Aleksandr Borisevich,1990,63.60,82.5,85,-87.5,85,,67.5,M,B,85.0,Single-ply,Open
DQ,Andrey Cherepko,1988,67.40,-160,-160,-160,,,67.5,M,B,,Single-ply,Open
1,Andrei Huk,1979,75.00,192.5,197.5,,197.5,,75,M,B,197.5,Single-ply,Open
2,Vladimir Kovshik,1988,75.00,190,-195,-200,190,,75,M,B,190.0,Single-ply,Open
3,Alexander Romankov,1982,73.00,-170,170,175,175,,75,M,B,175.0,Single-ply,Open
4,Yuriy Lyubimov,1988,73.90,145,155,162.5,162.5,,75,M,B,162.5,Single-ply,Open
5,Anatoliy Pusenkov,1985,75.00,160,-170,-175,160,,75,M,B,160.0,Single-ply,Open
6,Pavel Buben,1990,72.00,-130,130,140,140,,75,M,B,140.0,Single-ply,Open
7,Maksim Smolyak,1982,74.80,130,-140,-150,130,,75,M,B,130.0,Single-ply,Open
8,Dmitriy Bartoshik,1990,74.70,110,120,125,125,,75,M,B,125.0,Single-ply,Open
9,Andrey Kukin,1989,74.10,110,120,-125,120,,75,M,B,120.0,Single-ply,Open
10,Aleksandr Shorets,1982,72.50,105,-115,115,115,,75,M,B,115.0,Single-ply,Open
11,Sergey Dovgolenok,1991,74.20,100,107.5,115,115,,75,M,B,115.0,Single-ply,Open
12,Pavel Dubrovnik,1986,74.50,-110,-110,110,110,,75,M,B,110.0,Single-ply,Open
13,Dmitriy Pleskach,1988,74.90,-110,-110,110,110,,75,M,B,110.0,Single-ply,Open
DQ,Aleksandr Bliznik,1988,74.80,-120,-120,-120,,,75,M,B,,Single-ply,Open
G,Roman Eremashvili,1981,73.50,200,207.5,-215,207.5,,75,M,B,207.5,Single-ply,Open
1,Aleksandr Shelukhin,1984,77.00,-210,210,-225,210,,82.5,M,B,210.0,Single-ply,Open
2,Evgeniy Lukyanov #1,1980,80.00,195,200,-202.5,200,,82.5,M,B,200.0,Single-ply,Open
3,Oleg Kirillov,1971,82.50,180,192.5,200,200,,82.5,M,B,200.0,Single-ply,Open
4,Vitaliy Popov,1977,82.00,-187.5,190,197.5,197.5,,82.5,M,B,197.5,Single-ply,Open
5,Grigoriy Vezhnovets,1982,82.50,195,-200,-200,195,,82.5,M,B,195.0,Single-ply,Open
6,Dmitriy Shashkov,1982,81.50,190,-200,-200,190,,82.5,M,B,190.0,Single-ply,Open
7,Aleksey Balyasnyy,1983,82.00,180,-185,185,185,,82.5,M,B,185.0,Single-ply,Open
8,Pavel Maslovskiy,1989,80.00,170,175,180,180,,82.5,M,B,180.0,Single-ply,Open
9,Ilya Dukorskiy,1987,82.50,150,160,170,170,,82.5,M,B,170.0,Single-ply,Open
10,Oleg Tikhonovskiy,1978,81.90,-160,160,167.5,167.5,,82.5,M,B,167.5,Single-ply,Open
11,Denis Laput',1988,82.00,160,167.5,-170,167.5,,82.5,M,B,167.5,Single-ply,Open
12,Aleksandr Buyan,1990,80.00,-130,130,140,140,,82.5,M,B,140.0,Single-ply,Open
13,Pavel Shumay,1991,81.40,122.5,130,-132.5,130,,82.5,M,B,130.0,Single-ply,Open
14,Dmitiy Tupik,1991,80.50,115,120,125,125,,82.5,M,B,125.0,Single-ply,Open
15,Anton Shumay,1991,82.00,115,117.5,-120,117.5,,82.5,M,B,117.5,Single-ply,Open
DQ,Aleksandr Poukh,1992,78.50,-120,-120,-120,,,82.5,M,B,,Single-ply,Open
DQ,Valentin Malin,1986,81.90,-180,-180,-180,,,82.5,M,B,,Single-ply,Open
1,Maksim Nagelo,1986,89.25,-250,250,-275.5,250,,90,M,B,250.0,Single-ply,Open
2,Aliaksei Stasevich,1986,87.80,207.5,222.5,225,225,,90,M,B,225.0,Single-ply,Open
3,Aleksandr Alekseev,1972,89.20,195,200,202.5,202.5,,90,M,B,202.5,Single-ply,Open
4,Ruslan Mudrogelov,1983,89.30,190,200,-207.5,200,,90,M,B,200.0,Single-ply,Open
5,Egor Rzheutskiy,1989,87.30,185,-195,195,195,,90,M,B,195.0,Single-ply,Open
6,Aleksandr Yanovich,1988,86.00,-190,-190,190,190,,90,M,B,190.0,Single-ply,Open
7,Dmitriy Eyvazov,1983,87.50,182.5,-190,190,190,,90,M,B,190.0,Single-ply,Open
8,Denis Pasuchenko,1984,89.70,182.5,185,-187,185,,90,M,B,185.0,Single-ply,Open
9,Vyacheslav Prokopovich,1977,89.90,165,175,180,180,,90,M,B,180.0,Single-ply,Open
10,Aleksandr Loban,1980,88.10,150,160,165,165,,90,M,B,165.0,Single-ply,Open
11,Evgeniy Shuman,1989,89.90,-150,150,160,160,,90,M,B,160.0,Single-ply,Open
12,Dmitriy Lipay,1990,88.90,145,147.5,-150,147.5,,90,M,B,147.5,Single-ply,Open
13,Andrey Zalevskiy,1989,90.00,147.5,-150,-150,147.5,,90,M,B,147.5,Single-ply,Open
14,Sergey Yanut,1979,89.10,145,-150,-150,145,,90,M,B,145.0,Single-ply,Open
15,Sergey Baganov,1989,88.70,-140,145,-152.5,145,,90,M,B,145.0,Single-ply,Open
16,Vitaliy Anashkevich,1985,89.20,130,140,,140,,90,M,B,140.0,Single-ply,Open
DQ,Aleksey Faley,1980,85.50,,,,,,90,M,B,,Single-ply,Open
DQ,Evgeniy Rachkovskiy,1986,87.60,-170,-170,-170,,,90,M,B,,Single-ply,Open
DQ,Sergey Klavsut,1986,87.40,-165,-165,-165,,,90,M,B,,Single-ply,Open
1,Dmitriy Zharkin,1977,99.30,225,235,242.5,242.5,,100,M,B,242.5,Single-ply,Open
2,Aleksey Sender,1965,96.40,240,-250,-250,240,,100,M,B,240.0,Single-ply,Open
3,Sergey Mokhorev,1982,98.65,220,-230,-230,220,,100,M,B,220.0,Single-ply,Open
4,Andrey Ivanets,1984,99.00,210,217.5,-222.5,217.5,,100,M,B,217.5,Single-ply,Open
5,Maksim Seletskiy,1983,99.90,-210,210,-220,210,,100,M,B,210.0,Single-ply,Open
6,Dmitriy Vinokurov,1989,98.15,190,200,-205,200,,100,M,B,200.0,Single-ply,Open
7,Aleksey Gavrilov,1982,98.90,195,-205,-205,195,,100,M,B,195.0,Single-ply,Open
8,Igor Buynevich,1990,99.00,160,-180,180,180,,100,M,B,180.0,Single-ply,Open
9,Aleksandr Novoseltsev,1979,100.00,165,175,180,180,,100,M,B,180.0,Single-ply,Open
10,Evgeniy Sobolevskiy,1990,99.50,160,170,175,175,,100,M,B,175.0,Single-ply,Open
11,Artem Mikhaylov,1991,97.30,150,157.5,-162.5,157.5,,100,M,B,157.5,Single-ply,Open
12,Andrey Burmeyster,1988,95.30,125,135,145,145,,100,M,B,145.0,Single-ply,Open
13,Mikhail Verbitskiy,1951,94.50,80,95,,95,,100,M,B,95.0,Single-ply,Open
DQ,Konstantin Masliy,1976,99.80,-210,,,,,100,M,B,,Single-ply,Open
DQ,Dmitriy Yurevich,1988,93.70,-180,-180,-180,,,100,M,B,,Single-ply,Open
DQ,Kristel Lokaka,1987,99.50,-170,-170,-170,,,100,M,B,,Single-ply,Open
DQ,Stanislav Zhurich,1987,95.10,-185,-185,-185,,,100,M,B,,Single-ply,Open
1,Aleksandr Balabanovich,1981,104.80,275,-285,,275,,110,M,B,275.0,Single-ply,Open
2,Oleg Vodovozov,1965,104.10,242.5,-252.5,-252.5,242.5,,110,M,B,242.5,Single-ply,Open
3,Andrey Golovach,1984,103.50,-230,-230,230,230,,110,M,B,230.0,Single-ply,Open
4,Artsiom Kasperovich,1989,104.80,210,220,225,225,,110,M,B,225.0,Single-ply,Open
5,Sergey Zelyanin,1987,103.70,202.5,212.5,217.5,217.5,,110,M,B,217.5,Single-ply,Open
6,Viktor Dybal,1986,107.20,210,217.5,-222.5,217.5,,110,M,B,217.5,Single-ply,Open
7,Anton Duyadevich,1986,103.20,200,-210,210,210,,110,M,B,210.0,Single-ply,Open
8,Aleksandr Sobolev,1983,107.90,-185,190,195,195,,110,M,B,195.0,Single-ply,Open
9,Igor Sevizdral,1985,101.50,185,-200,-200,185,,110,M,B,185.0,Single-ply,Open
DQ,Sergey Filimonov,1984,108.60,-150,155,170,170,,110,M,B,,Single-ply,Open
1,Vitaliy Adamovich,1976,122.00,255,265,-270,265,,125,M,B,265.0,Single-ply,Open
2,Aleksandr Makey,1964,110.10,250,-260,-260,250,,125,M,B,250.0,Single-ply,Open
3,Andrey Nekrasov,1977,115.00,-237.5,237.5,-252.5,237.5,,125,M,B,237.5,Single-ply,Open
4,Anatoliy Markovichenko,1973,111.00,235,-242.5,-242.5,235,,125,M,B,235.0,Single-ply,Open
5,Aleksandr Kurak,1987,112.45,210,230,-240,230,,125,M,B,230.0,Single-ply,Open
6,Kirill Kuznetsov,1990,119.60,205,-220,-220,205,,125,M,B,205.0,Single-ply,Open
7,Andrey Bulavskiy,1983,118.00,180,195,,195,,125,M,B,195.0,Single-ply,Open
1,Yaroslav Ivanenko,1970,135.60,-250,-250,250,250,,125+,M,B,250.0,Single-ply,Open
2,Aleksandr Zaytsev,1978,147.00,250,-260,-260,250,,125+,M,B,250.0,Single-ply,Open
3,Oleg Kozel,1977,131.40,237.5,-250,-250,237.5,,125+,M,B,237.5,Single-ply,Open
4,Vadim Goncharenok,1985,136.90,220,227.5,232.5,232.5,,125+,M,B,232.5,Single-ply,Open
5,Sergey Potapenko,1989,130.00,200,-210,-210,200,,125+,M,B,200.0,Single-ply,Open
1,Yana Mager,1990,47.70,45,52.5,55,55,,48,F,B,55.0,Single-ply,Open
2,Ekaterina Ganevich,1990,47.00,47.5,52.5,-55,52.5,,48,F,B,52.5,Single-ply,Open
3,Yuliya Gasyuk,1986,46.80,30,-35,35,35,,48,F,B,35.0,Single-ply,Open
1,Alla Lomako,1980,50.00,77.5,-82.5,82.5,82.5,,52,F,B,82.5,Single-ply,Open
2,Irina Petrenko,1972,52.00,45,50,52.5,52.5,,52,F,B,52.5,Single-ply,Open
3,Olga Baluk,1988,48.50,40,45,50,50,,52,F,B,50.0,Single-ply,Open
4,Olga Kibak,1990,51.50,40,-45,-45,40,,52,F,B,40.0,Single-ply,Open
DQ,Galina Atroshenko,1990,51.80,-50,-50,-50,,,52,F,B,,Single-ply,Open
1,Viktoryia Silkina,1990,55.50,-80,80,-90,80,,56,F,B,80.0,Single-ply,Open
2,Natalya Gubar,1971,54.00,52.5,57.5,60,60,,56,F,B,60.0,Single-ply,Open
3,Tatyana Ovchinnikova,1979,53.50,50,55,57.5,57.5,,56,F,B,57.5,Single-ply,Open
1,Natalia Prymachenka,1987,59.00,125,130,-135,130,,60,F,B,130.0,Single-ply,Open
2,Ekaterina Vishneva,1986,60.00,57.5,62.5,65,65,,60,F,B,65.0,Single-ply,Open
3,Yuliya Ulitskaya,1988,57.50,-52.5,-52.5,52.5,52.5,,60,F,B,52.5,Single-ply,Open
1,Veronika Chepeleva,1992,66.50,60,65,67.5,67.5,,67.5,F,B,67.5,Single-ply,Open
3,Tatyana Sidorik,1989,62.10,47.5,-52.5,52.5,52.5,,67.5,F,B,52.5,Single-ply,Open
2,Ina Butar,1971,60.10,-47.5,-47.5,47.5,47.5,,67.5,F,B,47.5,Single-ply,Open
1,Galina Titova,1984,74.00,-55,-55,55,55,,75,F,B,55.0,Single-ply,Open
2,Veronika Vasiltsova,1991,75.00,45,50,-52.5,50,,75,F,B,50.0,Single-ply,Open
3,Irina Pashko,1991,68.70,-47.5,-47.5,47.5,47.5,,75,F,B,47.5,Single-ply,Open
1,Vera Dudarenok,1987,87.50,-90,90,-100,90,,75+,F,B,90.0,Single-ply,Open
2,Anna Nekhay,1978,82.20,-67.5,-67.5,67.5,67.5,,75+,F,B,67.5,Single-ply,Open
3,Natalya Chubkova,1991,77.90,50,55,60,60,,75+,F,B,60.0,Single-ply,Open
