Tested,Equipment,Place,Name,Division,BirthYear,Country,BodyweightKg,Squat1Kg,Squat2Kg,Squat3Kg,Best3SquatKg,Bench1Kg,Bench2Kg,Bench3Kg,Best3BenchKg,Deadlift1Kg,Deadlift2Kg,Deadlift3Kg,Best3DeadliftKg,TotalKg,WeightClassKg,Sex,CyrillicName,Event,Deadlift4Kg,Squat4Kg,Bench4Kg
No,Wraps,1,Dmitriy Kochiev,Pro Juniors 20-23,1992,Russia,51.1,92.5,100,112.5,112.5,60,65,-67.5,65,130,140,-147.5,140,317.5,52,M,Дмитрий Кочиев,SBD,,,
No,Wraps,DQ,Vitaliy Zhuravlev,Pro Juniors 20-23,1992,Russia,57.7,-115,,,,,,,,,,,,,60,M,Виталий Журавлев,SBD,,,
No,Wraps,1,Vladimir Sergeev,Pro Open,1985,Russia,57.7,90,95,105,105,65,-70,-70,65,150,160,175,175,345,60,M,Владимир Сергеев,SBD,,,
No,Wraps,1,Maksim Klimov,Pro Teen 16-17,1996,Russia,67.1,100,115,125,125,70,80,-90,80,140,150,160,160,365,67.5,M,Максим Климов,SBD,,,
No,Multi-ply,2,Nikolay Borodinov,Pro Teen 16-17,1997,Russia,64.5,100,110,115,115,-62.5,62.5,-67.5,62.5,125,135,140,140,317.5,67.5,M,Николай Бородинов,SBD,,,
No,Multi-ply,1,Evgeniy Kvashnin,Pro Teen 16-17,1997,Russia,72.2,100,110,125,125,70,80,-85,80,150,160,175,175,380,75,M,Евгений Квашнин,SBD,,,
No,Multi-ply,1,Ivan Pulin,Pro Juniors 20-23,1992,Russia,70.95,120,130,-140,130,50,60,-65,60,140,145,152.5,152.5,342.5,75,M,Иван Пулин,SBD,,,
No,Multi-ply,1,Dmitriy Ivanov #3,Pro Open,1989,Russia,72.25,115,125,135,135,90,92.5,95,95,182.5,195,-200,195,425,75,M,Дмитрий Иванов,SBD,,,
No,Multi-ply,2,Aleksey Knyazkin,Pro Open,1987,Russia,69.7,117.5,125,135,135,95,100,-102.5,100,135,145,-157.5,145,380,75,M,Алексей Князькин,SBD,,,
No,Multi-ply,3,Aleksey Uymin,Pro Open,1990,Russia,73.4,-100,100,105,105,80,85,-87.5,85,135,145,152.5,152.5,342.5,75,M,Алексей Уймин,SBD,,,
No,Multi-ply,1,Petr Borodinov,Pro Teen 18-19,1994,Russia,81.7,150,160,165,165,115,-120,-120,115,200,210,215,215,495,82.5,M,Петр Бородинов,SBD,,,
No,Multi-ply,1,Pavel Zubov,Pro Open,1990,Russia,80.7,175,182.5,187.5,187.5,100,105,107.5,107.5,200,210,215,215,510,82.5,M,Павел Зубов,SBD,,,
No,Multi-ply,1,Kirill Isaev,Pro Open,1987,Russia,83.7,120,135,-150,135,95,-100,100,100,150,165,185,185,420,90,M,Кирилл Исаев,SBD,,,
No,Multi-ply,1,Andrey Ladeyschikov,Pro Open,1984,Russia,96.5,200,210,215,215,-125,125,130,130,222.5,230,237.5,237.5,582.5,100,M,Андрей Ладейщиков,SBD,,,
No,Multi-ply,1,Sergey Mikushin,Pro Open,1984,Russia,104.8,140,152.5,160,160,117.5,122.5,125,125,170,180,185,185,470,110,M,Сергей Микушин,SBD,,,
No,Multi-ply,1,Liliya Kondratyeva,Pro Open,1986,Russia,52,75,-80,80,80,45,50,55,55,75,85,95,95,230,52,F,Лилия Кондратьева,SBD,,,
No,Multi-ply,1,Olesya Braslavets,Pro Open,1981,Russia,59.5,130,145,150,150,60,65,,65,-132.5,132.5,,132.5,347.5,60,F,Олеся Браславец,SBD,,,
No,Multi-ply,1,Alena Baturina,Pro Teen 18-19,1994,Russia,66,-180,180,-195,180,-105,105,115,115,155,167.5,-176,167.5,462.5,67.5,F,Алена Батурина,SBD,,,
No,Multi-ply,2,Darya Vandysheva,Pro Teen 18-19,1994,Russia,67.5,125,135,-142.5,135,60,-67.5,67.5,67.5,125,135,142.5,142.5,345,67.5,F,Дарья Вандышева,SBD,,,
No,Multi-ply,1,Tatyana Ermakova,Pro Open,1987,Russia,108,190,-212.5,212.5,212.5,110,117.5,122.5,122.5,165,172.5,,172.5,507.5,90+,F,Татьяна Ермакова,SBD,,,
No,Multi-ply,1,Denis Prokhorov,Pro Teen 16-17,1997,Russia,67.4,-200,210,217.5,217.5,95,102.5,105,105,165,180,185,185,507.5,67.5,M,Денис Прохоров,SBD,,,
No,Multi-ply,1,Pavel Davydov,Pro Open,1978,Russia,65,140,150,160,160,75,85,-95,85,130,140,150,150,395,67.5,M,Павел Давыдов,SBD,,,
No,Multi-ply,1,Anton Polugrudov,Pro Teen 16-17,1996,Russia,74.5,175,185,187.5,187.5,105,112.5,115,115,-175,185,-190,185,487.5,75,M,Антон Полугрудов,SBD,,,
No,Multi-ply,1,Konstantin Utarbekov,Pro Teen 18-19,1996,Russia,72.45,220,230,-235,230,140,150,-160,150,-220,222.5,230,230,610,75,M,Константин Утарбеков,SBD,,,
No,Multi-ply,1,Evgeniy Melentyev,Pro Juniors 20-23,1991,Russia,72,210,220,-230,220,110,120,-127.5,120,200,-210,215,215,555,75,M,Евгений Мелентьев,SBD,,,
No,Multi-ply,2,Kirill Vetrov,Pro Juniors 20-23,1993,Russia,74.5,-220,220,-230,220,120,-140,-140,120,200,215,-225,215,555,75,M,Кирилл Ветров,SBD,,,
No,Multi-ply,1,Evgeniy Baranov,Pro Masters 40-44,1972,Russia,75,-260,260,280,280,180,-190,-190,180,230,240,-250,240,700,75,M,Евгений Баранов,SBD,,,
No,Multi-ply,1,Sergey Chistov,Pro Teen 16-17,1996,Russia,79.5,175,185,190,190,100,107.5,112.5,112.5,175,-185,187.5,187.5,490,82.5,M,Сергей Чистов,SBD,,,
No,Multi-ply,1,Alexei Safonov,Pro Open,1976,Russia,85.55,310,330,345,345,155,165,172.5,172.5,225,245,-260,245,762.5,90,M,Алексей Сафонов,SBD,,,
No,Multi-ply,1,Sergey Glazkov,Pro Juniors 20-23,1992,Russia,109.9,340,-355,-365,340,210,225,230,230,250,270,282.5,282.5,852.5,110,M,Сергей Глазков,SBD,,,
No,Multi-ply,1,Valeriy Ignatyev,Pro Masters 40-44,1969,Russia,103.6,295,315,-330,315,195,-205,,195,260,275,,275,785,110,M,Валерий Игнатьев,SBD,,,
No,Multi-ply,1,Andrei Zapylikhin,Pro Masters 50-54,1960,Russia,112.35,270,300,,300,-210,210,-217.5,210,240,260,270,270,780,125,M,Андрей Запылихин,SBD,,,
No,Multi-ply,1,Anatoliy Glazunov,Pro Open,1972,Russia,74.2,270,300,-340,300,170,180,-190,180,230,240,250,250,730,75,M,Анатолий Глазунов,SBD,,,
No,Multi-ply,1,Anatoliy Glazunov,Pro Masters 40-44,1972,Russia,74.2,270,300,-340,300,170,180,-190,180,230,240,250,250,730,75,M,Анатолий Глазунов,SBD,,,
No,Multi-ply,1,Aleksandr Evdokimov,Pro Open,1978,Russia,99.4,-325,330,-345,330,220,230,237.5,237.5,300,310,,310,877.5,100,M,Александр Евдокимов,SBD,,,
No,Multi-ply,2,Artem Reshetnikov,Pro Open,1989,Russia,98.7,260,-285,-290,260,190,205,-210,205,250,260,-267.5,260,725,100,M,Артем Решетников,SBD,,,
No,Multi-ply,DQ,Aleksandr Dorokhov,Pro Open,1983,Russia,95.4,-310,-310,,,-180,,,,,,,,,100,M,Александр Дорохов,SBD,,,
No,Multi-ply,1,Ruslan Minibaev,Pro Open,1985,Russia,103.45,310,-325,-330,310,210,217.5,222.5,222.5,310,320,330,330,862.5,110,M,Руслан Минибаев,SBD,,,
No,Multi-ply,1,Vladimir Potapov,Pro Masters 55-59,1954,Russia,100.25,205,215,,215,150,160,-170,160,185,195,200,200,575,110,M,Владимир Потапов,SBD,,,
No,Multi-ply,1,Mikhail Glazunov,Pro Open,1974,Russia,124.9,380,420,442.5,442.5,240,260,280,280,340,360,377.5,377.5,1100,125,M,Михаил Глазунов,SBD,,,
No,Multi-ply,2,Aleksey Fedorov,Pro Open,1978,Russia,113.65,300,-315,,300,200,,,200,200,,,200,700,125,M,Алексей Федоров,SBD,,,
No,Multi-ply,1,Mikhail Glazunov,Pro Masters 40-44,1974,Russia,124.9,380,420,442.5,442.5,240,260,280,280,340,360,377.5,377.5,1100,125,M,Михаил Глазунов,SBD,,,
Yes,Wraps,1,Elza Savina,Amateur Teen 18-19,1994,Russia,42.5,60,70,-80,70,-35,35,42.5,42.5,70,80,-87.5,80,192.5,44,F,Эльза Савина,SBD,,,
Yes,Wraps,1,Irina Shtukoturova,Amateur Open,1983,Russia,51.85,70,75,80,80,37.5,-42.5,-42.5,37.5,90,100,110,110,227.5,52,F,Ирина Штукотурова,SBD,,,
Yes,Wraps,1,Veronika Liberman,Amateur Open,1986,Russia,55.4,80,-85,-90,80,-47.5,50,-52.5,50,90,95,100,100,230,56,F,Вероника Либерман,SBD,,,
Yes,Wraps,1,Alena Makarova,Amateur Teen 16-17,1996,Russia,59.5,-85,-90,90,90,40,45,-47.5,45,90,100,,100,235,60,F,Алена Макарова,SBD,,,
Yes,Wraps,1,Natalya Kolobova,Amateur Open,1982,Russia,60,85,90,-92.5,90,45,-50,50,50,100,105,110,110,250,60,F,Наталья Колобова,SBD,,,
Yes,Wraps,1,Valeriya Polevschikova,Amateur Teen 14-15,1998,Russia,65.7,105,115,120,120,60,65,-70,65,95,105,107.5,107.5,292.5,67.5,F,Валерия Полевщикова,SBD,,,
Yes,Wraps,1,Tatiana Ukhlina,Amateur Open,1971,Russia,61.35,110,117.5,120,120,57.5,60,-62.5,60,110,120,-125,120,300,67.5,F,Татьяна Ухлина,SBD,,,
Yes,Wraps,1,Tatiana Ukhlina,Amateur Masters 40-44,1971,Russia,61.35,110,117.5,120,120,57.5,60,-62.5,60,110,120,-125,120,300,67.5,F,Татьяна Ухлина,SBD,,,
Yes,Wraps,1,Ekaterina Osipova,Amateur Teen 16-17,1997,Russia,75,65,75,,75,55,60,65,65,70,85,95,95,235,75,F,Екатерина Осипова,SBD,,,
Yes,Wraps,1,Alevtina Panova,Amateur Masters 40-44,1972,Russia,80,70,-80,90,90,45,50,-62.5,50,80,90,100,100,240,82.5,F,Алевтина Панова,SBD,,,
Yes,Wraps,1,Pavel Nekrasov,Amateur Teen 13,2001,Russia,43.5,60,70,72.5,72.5,50,-55,55,55,80,90,-102.5,90,217.5,44,M,Павел Некрасов,SBD,,,
Yes,Wraps,1,Ilya Pochganov,Amateur Teen 16-17,1997,Russia,59.9,135,-145,-150,135,85,90,95,95,-165,170,,170,400,60,M,Илья Почганов,SBD,,,
Yes,Wraps,1,Andrey Sharapov,Amateur Teen 14-15,1999,Russia,65,150,-160,-160,150,85,90,,90,150,165,175,175,415,67.5,M,Андрей Шарапов,SBD,,,
Yes,Wraps,1,Artem Martin,Amateur Teen 16-17,1997,Russia,66.3,140,150,155,155,105,110,-115,110,175,185,187.5,187.5,452.5,67.5,M,Артем Мартин,SBD,,,
Yes,Wraps,1,Semen Panov,Amateur Teen 16-17,1997,Russia,66.3,130,140,-147.5,140,75,80,85,85,170,-175,,170,395,67.5,M,Семен Панов,SBD,,,
Yes,Wraps,2,Vladimir Aleshkevich,Amateur Teen 16-17,1997,Russia,61.2,110,115,120,120,70,-75,-75,70,110,120,130,130,320,67.5,M,Владимир Алешкевич,SBD,,,
Yes,Wraps,1,Stepan Kocheshkov,Amateur Teen 18-19,1994,Russia,66.15,130,140,150,150,85,90,95,95,200,210,-215,210,455,67.5,M,Степан Кочешков,SBD,,,
Yes,Wraps,1,Aleksey Rusinov,Amateur Juniors 20-23,1992,Russia,66.9,160,-170,-170,160,105,110,115,115,180,-190,190,190,465,67.5,M,Алексей Русинов,SBD,,,
Yes,Wraps,1,Arsen Kuyguldinov,Amateur Teen 14-15,2000,Russia,73.1,105,-115,125,125,95,-102.5,-102.5,95,110,120,-125,120,340,75,M,Арсен Куйгульдинов,SBD,,,
Yes,Wraps,1,Aleksey Vikhrov,Amateur Open,1988,Russia,74.65,175,185,192.5,192.5,120,125,,125,235,245,-250,245,562.5,75,M,Алексей Вихров,SBD,,,
Yes,Wraps,1,Andrey Kotlovanov,Amateur Open,1984,Russia,72.95,120,135,145,145,110,115,-120,115,140,155,165,165,425,75,M,Андрей Котлованов,SBD,,,
Yes,Wraps,2,Roman Babaytsev,Amateur Open,1984,Russia,73.75,165,175,-180,175,127.5,-132.5,-132.5,127.5,195,205,-210,205,507.5,75,M,Роман Бабайцев,SBD,,,
Yes,Wraps,3,Maksim Ladyshkin,Amateur Open,1990,Russia,75,150,160,-170,160,110,115,-117.5,115,160,-170,180,180,455,75,M,Максим Ладышкин,SBD,,,
Yes,Wraps,5,Dmitriy Korshunov,Amateur Open,1986,Russia,72.8,130,140,145,145,95,100,105,105,145,155,160,160,410,75,M,Дмитрий Коршунов,SBD,,,
Yes,Wraps,1,Dmitriy Vasilvitskiy,Amateur Masters 45-49,1966,Russia,73,150,160,170,170,140,145,150,150,190,200,205,205,525,75,M,Дмитрий Васильвицкий,SBD,,,
Yes,Wraps,1,Vadim Tokarev,Amateur Teen 16-17,1996,Russia,82.1,160,170,-175,170,115,-120,-120,115,210,220,-230,220,505,82.5,M,Вадим Токарев,SBD,,,
Yes,Wraps,1,Nikita Ilyukhin,Amateur Teen 16-17,1996,Russia,78,210,225,-235,225,-135,140,145,145,-210,210,220,220,590,82.5,M,Никита Ильюхин,SBD,,,
Yes,Wraps,2,Dmitriy Buldakov,Amateur Teen 16-17,1997,Russia,78.85,180,-190,-190,180,100,-110,-110,100,200,-210,-210,200,480,82.5,M,Дмитрий Булдаков,SBD,,,
Yes,Wraps,1,Ilya Nemyatovskikh,Amateur Teen 18-19,1995,Russia,78.8,142.5,-155,155,155,80,85,90,90,170,-185,185,185,430,82.5,M,Илья Немятовских,SBD,,,
Yes,Wraps,2,Artem Zelinskiy,Amateur Teen 18-19,1995,Russia,81.15,140,150,-155,150,90,100,-107.5,100,150,160,-170,160,410,82.5,M,Артем Зелинский,SBD,,,
Yes,Wraps,1,Sergey Prokofyev,Amateur Open,1972,Russia,79.3,180,-190,-190,180,130,135,-137.5,135,180,185,190,190,505,82.5,M,Сергей Прокофьев,SBD,,,
Yes,Wraps,1,Sergey Prokofyev,Amateur Masters 40-44,1972,Russia,79.3,180,-190,-190,180,130,135,-137.5,135,180,185,190,190,505,82.5,M,Сергей Прокофьев,SBD,,,
Yes,Wraps,1,Stanislav Melnikov,Amateur Teen 14-15,1998,Russia,86.55,120,130,140,140,-85,85,-90,85,135,145,160,160,385,90,M,Станислав Мельников,SBD,,,
Yes,Wraps,1,Temur Lagvilava,Amateur Teen 18-19,1994,Russia,87.3,140,155,-160,155,115,122.5,-125,122.5,160,180,200,200,477.5,90,M,Темур Лагвилава,SBD,,,
Yes,Wraps,1,Vladimir Karpinskiy,Amateur Juniors 20-23,1990,Russia,88,180,190,200,200,115,120,127.5,127.5,190,205,220,220,547.5,90,M,Владимир Карпинский,SBD,,,
Yes,Wraps,DQ,Amridim Nurov,Amateur Open,1982,Tajikistan,85.35,-200,-200,-200,,,,,,,,,,,90,M,Амридин Нуров,SBD,,,
Yes,Wraps,1,Vyacheslav Myasnikov,Amateur Masters 40-44,1970,Russia,90,200,212.5,220,220,130,137.5,145,145,210,217.5,222.5,222.5,587.5,90,M,Вячеслав Мясников,SBD,,,
Yes,Wraps,1,Aleksandr Terezov,Amateur Masters 45-49,1967,Russia,86.35,140,150,160,160,110,117.5,120,120,172.5,182.5,190,190,470,90,M,Александр Терезов,SBD,,,
Yes,Wraps,1,Viktor Tyrtyk,Amateur Masters 55-59,1959,Russia,89.6,160,170,-175,170,110,115,117.5,117.5,170,180,190,190,477.5,90,M,Виктор Тыртык,SBD,,,
Yes,Wraps,1,Aleksandr Zmitrevich,Amateur Teen 18-19,1995,Russia,98.9,190,-215,-215,190,115,130,-137.5,130,200,220,230,230,550,100,M,Александр Змитревич,SBD,,,
Yes,Wraps,1,Pavel Popandopulo,Amateur Open,1985,Russia,93.65,175,185,195,195,127.5,135,-140,135,240,-260,270,270,600,100,M,Павел Попандопуло,SBD,,,
Yes,Wraps,2,Roman Ivshin,Amateur Open,1978,Russia,91.7,150,160,175,175,140,145,-147.5,145,180,-195,-200,180,500,100,M,Роман Ившин,SBD,,,
Yes,Wraps,3,Vyacheslav Guryev,Amateur Open,1977,Russia,90.4,130,140,150,150,120,-127.5,-127.5,120,170,190,200,200,470,100,M,Вячеслав Гурьев,SBD,,,
Yes,Wraps,1,Vadim Prokin,Amateur Teen 16-17,1998,Russia,108.15,130,140,-155,140,90,95,-100,95,130,140,-155,140,375,110,M,Вадим Прокин,SBD,,,
Yes,Wraps,1,Sergey Kudryavtsev,Amateur Open,1974,Russia,107.7,200,210,215,215,150,160,165,165,200,-220,,200,580,110,M,Сергей Кудрявцев,SBD,,,
Yes,Wraps,1,Dmitriy Osintsev,Amateur Masters 40-44,1969,Russia,107.5,180,200,215,215,140,150,-155,150,170,190,,190,555,110,M,Дмитрий Осинцев,SBD,,,
Yes,Wraps,1,Oleg Pisachenko,Amateur Masters 45-49,1965,Russia,103.7,200,215,230,230,160,170,,170,200,220,240,240,640,110,M,Олег Писаченко,SBD,,,
Yes,Wraps,1,Arkadiy Chernavskikh,Amateur Masters 60-64,1953,Russia,105.7,180,195,200,200,125,132.5,135,135,200,-212.5,212.5,212.5,547.5,110,M,Аркадий Чернавских,SBD,,,
Yes,Wraps,1,Konstantin Kokovin,Amateur Teen 16-17,1997,Russia,122.7,140,150,160,160,70,75,-80,75,130,140,150,150,385,125,M,Константин Коковин,SBD,,,
Yes,Wraps,1,Gleb Artamonov,Amateur Teen 18-19,1995,Russia,118,145,160,170,170,125,135,,135,170,182.5,217.5,217.5,522.5,125,M,Глеб Артамонов,SBD,,,
Yes,Wraps,1,Vitaliy Bakharev,Amateur Open,1975,Russia,116.8,-240,-240,240,240,190,-200,-200,190,250,260,270,270,700,125,M,Виталий Бахарев,SBD,,,
Yes,Wraps,1,Anatoliy Pimurzin,Amateur Open,1983,Russia,124.9,230,240,250,250,135,145,155,155,230,250,265,265,670,125,M,Анатолий Пимурзин,SBD,,,
Yes,Wraps,1,Elina Ponamareva,Amateur Teen 14-15,1998,Kazakhstan,58.75,90,100,,100,45,50,,50,-125,125,,125,275,60,F,,SBD,,,
Yes,Wraps,1,Vyacheslav Sirotin,Amateur Open,1987,Russia,65.65,170,180,-190,180,130,137.5,142.5,142.5,200,210,,210,532.5,67.5,M,Вячеслав Сиротин,SBD,,,
Yes,Wraps,1,Vitaliy Petrov,Amateur Open,1989,Russia,73.3,200,225,240,240,150,-160,-160,150,225,250,-265,250,640,75,M,Виталий Петров,SBD,,,
Yes,Wraps,1,Oreon Kim,Amateur Masters 60-64,1954,Kazakhstan,74.6,40,45,50,50,60,70,80,80,50,60,65,65,195,75,M,,SBD,,,
Yes,Wraps,1,Rustem Gafarov,Amateur Juniors 20-23,1992,Russia,88.85,-170,170,-190,170,120,130,-140,130,150,165,-180,165,465,90,M,Рустем Гафаров,SBD,,,
Yes,Wraps,1,Vladimir Pshenitsyn,Amateur Open,1982,Russia,88.5,-225,230,240,240,135,145,-150,145,235,250,260,260,645,90,M,Владимир Пшеницын,SBD,,,
Yes,Wraps,2,Aleksey Proskuryakov,Amateur Open,1984,Russia,88.5,-160,160,175,175,110,115,-120,115,160,170,180,180,470,90,M,Алексей Проскуряков,SBD,,,
Yes,Wraps,1,Evgeniy Blinkov,Amateur Open,1987,Russia,97.35,245,262.5,275,275,170,180,-190,180,277.5,300,-315,300,755,100,M,Евгений Блинков,SBD,,,
Yes,Wraps,2,Yuriy Suslov,Amateur Open,1986,Russia,97.95,195,207.5,-220,207.5,150,157.5,-162.5,157.5,260,275,-285,275,640,100,M,Юрий Суслов,SBD,,,
Yes,Wraps,1,Evgeniy Nemashkalo,Amateur Masters 45-49,1966,Russia,99.6,170,200,230,230,100,,,100,170,,,170,500,100,M,Евгений Немашкало,SBD,,,
Yes,Wraps,1,Nikita Bondarenko,Amateur Teen 18-19,1994,Russia,108.4,220,-240,-240,220,130,150,-155,150,240,260,270,270,640,110,M,Никита Бондаренко,SBD,,,
Yes,Wraps,1,Daniil Mikitas,Amateur Juniors 20-23,1991,Russia,107.75,-260,-260,260,260,160,-175,-175,160,200,240,-280,240,660,110,M,Даниил Микитас,SBD,,,
Yes,Wraps,1,Vladimir Potapov,Amateur Open,1954,Russia,100.25,180,195,-205,195,100,110,120,120,185,195,200,200,515,110,M,Владимир Потапов,SBD,,,
Yes,Wraps,1,Oleg Kutepov,Amateur Masters 40-44,1970,Russia,106.6,200,-220,-220,200,155,-165,-165,155,190,200,210,210,565,110,M,Олег Кутепов,SBD,,,
Yes,Wraps,1,Konstantin Kurashov,Amateur Masters 50-54,1962,Kazakhstan,106.55,170,-190,-210,170,130,137.5,145,145,170,175,180,180,495,110,M,,SBD,,,
Yes,Wraps,1,Vladimir Potapov,Amateur Masters 55-59,1954,Russia,100.25,180,195,-205,195,100,110,120,120,185,195,200,200,515,110,M,Владимир Потапов,SBD,,,
Yes,Wraps,1,Almaz Gabdullin,Amateur Juniors 20-23,1992,Russia,122.7,230,250,-260,250,160,165,172.5,172.5,220,242.5,257.5,257.5,680,125,M,Алмаз Габдуллин,SBD,,,
Yes,Wraps,1,Vyacheslav Bursin,Amateur Masters 50-54,1961,Russia,121.7,160,,,160,110,,,110,180,,,180,450,125,M,Вячеслав Бурсин,SBD,,,
Yes,Multi-ply,1,Nikita Abzaev,Amateur Teen 16-17,1998,Russia,65,,,,,,,,,145,155,165,165,165,67.5,M,Никита Абзаев,D,,,
No,Multi-ply,1,Aleksandr Evdokimov,Pro Open,1978,Russia,99.4,-325,330,-345,330,,,,,,,,,330,100,M,Александр Евдокимов,S,,,
No,Multi-ply,1,Vladimir Potapov,Pro Open,1954,Russia,100.25,205,215,,215,,,,,,,,,215,110,M,Владимир Потапов,S,,,
No,Multi-ply,1,Vladimir Potapov,Pro Masters 55-59,1954,Russia,100.25,205,215,,215,,,,,,,,,215,110,M,Владимир Потапов,S,,,
No,Multi-ply,1,Nikita Tymchenko,Pro Teen 13,2001,Kazakhstan,60,,,,,,,,,70,80,85,85,85,60,M,,D,,,
No,Multi-ply,1,Aleksandr Evdokimov,Pro Open,1978,Russia,99.4,,,,,,,,,300,310,,310,310,100,M,Александр Евдокимов,D,,,
No,Multi-ply,2,Artem Reshetnikov,Pro Open,1989,Russia,98.7,,,,,,,,,250,260,-267.5,260,260,100,M,Артем Решетников,D,,,
No,Multi-ply,1,Ruslan Minibaev,Pro Open,1985,Russia,103.45,,,,,,,,,310,320,330,330,330,110,M,Руслан Минибаев,D,,,
No,Multi-ply,2,Vladimir Potapov,Pro Open,1954,Russia,100.25,,,,,,,,,185,195,200,200,200,110,M,Владимир Потапов,D,,,
No,Multi-ply,1,Vladimir Potapov,Pro Masters 55-59,1954,Russia,100.25,,,,,,,,,185,195,200,200,200,110,M,Владимир Потапов,D,,,
No,Multi-ply,1,Sergei Tymchenko,Pro Open,1970,Kazakhstan,133.75,,,,,,,,,250,270,275,275,275,140,M,,D,,,
No,Multi-ply,1,Sergei Tymchenko,Pro Masters 40-44,1970,Kazakhstan,133.75,,,,,,,,,250,270,275,275,275,140,M,,D,,,
No,Multi-ply,1,Ivan Tsigelnik,Pro Juniors 20-23,1990,Russia,149.1,,,,,,,,,340,-357.5,-357.5,340,340,140+,M,Иван Цигельник,D,,,
No,Wraps,1,Dmitriy Kochiev,Pro Juniors 20-23,1992,Russia,51.1,92.5,100,112.5,112.5,,,,,,,,,112.5,52,M,Дмитрий Кочиев,S,,,
No,Wraps,DQ,Vitaliy Zhuravlev,Pro Juniors 20-23,1992,Russia,57.7,-115,,,,,,,,,,,,,60,M,Виталий Журавлев,S,,,
No,Wraps,1,Vladimir Sergeev,Pro Open,1985,Russia,57.7,90,95,105,105,,,,,,,,,105,60,M,Владимир Сергеев,S,,,
No,Wraps,1,Maksim Klimov,Pro Teen 16-17,1996,Russia,67.1,100,115,125,125,,,,,,,,,125,67.5,M,Максим Климов,S,,,
No,Multi-ply,2,Nikolay Borodinov,Pro Teen 16-17,1997,Russia,64.5,100,110,115,115,,,,,,,,,115,67.5,M,Николай Бородинов,S,,,
No,Multi-ply,1,Evgeniy Kvashnin,Pro Teen 16-17,1997,Russia,72.2,100,110,125,125,,,,,,,,,125,75,M,Евгений Квашнин,S,,,
No,Multi-ply,1,Ivan Pulin,Pro Juniors 20-23,1992,Russia,70.95,120,130,-140,130,,,,,,,,,130,75,M,Иван Пулин,S,,,
No,Multi-ply,1,Aleksey Knyazkin,Pro Open,1987,Russia,69.7,117.5,125,135,135,,,,,,,,,135,75,M,Алексей Князькин,S,,,
No,Multi-ply,2,Dmitriy Ivanov #3,Pro Open,1989,Russia,72.25,115,125,135,135,,,,,,,,,135,75,M,Дмитрий Иванов,S,,-140,
No,Multi-ply,3,Aleksey Uymin,Pro Open,1990,Russia,73.4,-100,100,105,105,,,,,,,,,105,75,M,Алексей Уймин,S,,,
No,Multi-ply,1,Petr Borodinov,Pro Teen 18-19,1994,Russia,81.7,150,160,165,165,,,,,,,,,165,82.5,M,Петр Бородинов,S,,170,
No,Multi-ply,1,Pavel Zubov,Pro Open,1990,Russia,80.7,175,182.5,187.5,187.5,,,,,,,,,187.5,82.5,M,Павел Зубов,S,,190,
No,Multi-ply,1,Kirill Isaev,Pro Open,1987,Russia,83.7,120,135,-150,135,,,,,,,,,135,90,M,Кирилл Исаев,S,,,
No,Multi-ply,1,Andrey Ladeyschikov,Pro Open,1984,Russia,96.5,200,210,215,215,,,,,,,,,215,100,M,Андрей Ладейщиков,S,,,
No,Multi-ply,1,Sergey Mikushin,Pro Open,1984,Russia,104.8,140,152.5,160,160,,,,,,,,,160,110,M,Сергей Микушин,S,,,
No,Raw,1,Dmitriy Kochiev,Pro Juniors 20-23,1992,Russia,51.1,,,,,,,,,130,140,-147.5,140,140,52,M,Дмитрий Кочиев,D,,,
No,Raw,DQ,Vitaliy Zhuravlev,Pro Juniors 20-23,1992,Russia,57.7,,,,,,,,,-155,,,,,60,M,Виталий Журавлев,D,,,
No,Raw,1,Vladimir Sergeev,Pro Open,1985,Russia,57.7,,,,,,,,,150,160,175,175,175,60,M,Владимир Сергеев,D,-181.5,,
No,Raw,1,Maksim Klimov,Pro Teen 16-17,1996,Russia,67.1,,,,,,,,,140,150,160,160,160,67.5,M,Максим Климов,D,,,
No,Multi-ply,2,Nikolay Borodinov,Pro Teen 16-17,1997,Russia,64.5,,,,,,,,,125,135,140,140,140,67.5,M,Николай Бородинов,D,,,
No,Multi-ply,1,Evgeniy Kvashnin,Pro Teen 16-17,1997,Russia,72.2,,,,,,,,,150,160,175,175,175,75,M,Евгений Квашнин,D,,,
No,Multi-ply,1,Ivan Pulin,Pro Juniors 20-23,1992,Russia,70.95,,,,,,,,,140,145,152.5,152.5,152.5,75,M,Иван Пулин,D,,,
No,Multi-ply,1,Dmitriy Ivanov #3,Pro Open,1989,Russia,72.25,,,,,,,,,182.5,195,-200,195,195,75,M,Дмитрий Иванов,D,,,
No,Multi-ply,2,Aleksey Uymin,Pro Open,1990,Russia,73.4,,,,,,,,,135,145,152.5,152.5,152.5,75,M,Алексей Уймин,D,,,
No,Multi-ply,3,Aleksey Knyazkin,Pro Open,1987,Russia,69.7,,,,,,,,,135,145,-157.5,145,145,75,M,Алексей Князькин,D,,,
No,Multi-ply,1,Petr Borodinov,Pro Teen 18-19,1994,Russia,81.7,,,,,,,,,200,210,215,215,215,82.5,M,Петр Бородинов,D,-217.5,,
No,Multi-ply,1,Pavel Zubov,Pro Open,1990,Russia,80.7,,,,,,,,,200,210,215,215,215,82.5,M,Павел Зубов,D,-217.5,,
No,Multi-ply,1,Kirill Isaev,Pro Open,1987,Russia,83.7,,,,,,,,,150,165,185,185,185,90,M,Кирилл Исаев,D,,,
No,Multi-ply,1,Andrey Ladeyschikov,Pro Open,1984,Russia,96.5,,,,,,,,,222.5,230,237.5,237.5,237.5,100,M,Андрей Ладейщиков,D,,,
No,Multi-ply,1,Sergey Mikushin,Pro Open,1984,Russia,104.8,,,,,,,,,170,180,185,185,185,110,M,Сергей Микушин,D,,,
Yes,Wraps,1,Elza Savina,Amateur Teen 18-19,1994,Russia,42.5,60,70,-80,70,,,,,,,,,70,44,F,Эльза Савина,S,,,
Yes,Wraps,1,Olesya Svezhinskaya,Amateur Teen 18-19,1996,Russia,54.7,65,70,77.5,77.5,,,,,,,,,77.5,56,F,Олеся Свежинская,S,,,
Yes,Wraps,1,Tatiana Ukhlina,Amateur Open,1971,Russia,61.35,110,117.5,120,120,,,,,,,,,120,67.5,F,Татьяна Ухлина,S,,,
Yes,Wraps,1,Tatiana Ukhlina,Amateur Masters 40-44,1971,Russia,61.35,110,117.5,120,120,,,,,,,,,120,67.5,F,Татьяна Ухлина,S,,,
Yes,Wraps,1,Ekaterina Osipova,Amateur Teen 16-17,1997,Russia,75,65,75,,75,,,,,,,,,75,75,F,Екатерина Осипова,S,,,
Yes,Wraps,1,Alevtina Panova,Amateur Masters 40-44,1972,Russia,80,70,-80,90,90,,,,,,,,,90,82.5,F,Алевтина Панова,S,,,
Yes,Wraps,1,Andrey Sharapov,Amateur Teen 14-15,1999,Russia,65,150,-160,-160,150,,,,,,,,,150,67.5,M,Андрей Шарапов,S,,,
Yes,Wraps,1,Semen Panov,Amateur Teen 16-17,1997,Russia,66.3,130,140,-147.5,140,,,,,,,,,140,67.5,M,Семен Панов,S,,,
Yes,Wraps,1,Stanislav Melnikov,Amateur Teen 14-15,1998,Russia,86.55,120,130,140,140,,,,,,,,,140,90,M,Станислав Мельников,S,,,
Yes,Wraps,1,Vitaliy Aksenov,Amateur Open,1981,Russia,86.5,160,170,180,180,,,,,,,,,180,90,M,Виталий Аксенов,S,,,
Yes,Wraps,1,Aleksandr Terezov,Amateur Masters 45-49,1967,Russia,86.35,140,150,160,160,,,,,,,,,160,90,M,Александр Терезов,S,,,
Yes,Wraps,1,Viktor Tyrtyk,Amateur Masters 55-59,1959,Russia,89.6,160,170,-175,170,,,,,,,,,170,90,M,Виктор Тыртык,S,,,
Yes,Wraps,1,Vadim Prokin,Amateur Teen 16-17,1998,Russia,108.15,130,140,-155,140,,,,,,,,,140,110,M,Вадим Прокин,S,,155,
Yes,Wraps,1,Dmitriy Osintsev,Amateur Masters 40-44,1969,Russia,107.5,180,200,215,215,,,,,,,,,215,110,M,Дмитрий Осинцев,S,,,
Yes,Wraps,1,Konstantin Kokovin,Amateur Teen 16-17,1997,Russia,122.7,140,150,160,160,,,,,,,,,160,125,M,Константин Коковин,S,,,
Yes,Raw,1,Elza Savina,Amateur Teen 18-19,1994,Russia,42.5,,,,,,,,,70,80,-87.5,80,80,44,F,Эльза Савина,D,,,
Yes,Raw,1,Irina Buksina,Amateur Juniors 20-23,1991,Russia,44.95,,,,,,,,,102.5,-107.5,-107.5,102.5,102.5,48,F,Ирина Буксина,D,,,
Yes,Raw,1,Tatiana Ukhlina,Amateur Open,1971,Russia,61.35,,,,,,,,,110,120,-125,120,120,67.5,F,Татьяна Ухлина,D,,,
Yes,Raw,1,Tatiana Ukhlina,Amateur Masters 40-44,1971,Russia,61.35,,,,,,,,,110,120,-125,120,120,67.5,F,Татьяна Ухлина,D,,,
Yes,Raw,1,Ekaterina Osipova,Amateur Teen 16-17,1997,Russia,75,,,,,,,,,70,85,95,95,95,75,F,Екатерина Осипова,D,,,
Yes,Raw,1,Alevtina Panova,Amateur Masters 40-44,1972,Russia,80,,,,,,,,,80,90,100,100,100,82.5,F,Алевтина Панова,D,,,
Yes,Raw,1,Andrey Sharapov,Amateur Teen 14-15,1999,Russia,65,,,,,,,,,-165,165,175,175,175,67.5,M,Андрей Шарапов,D,,,
Yes,Raw,1,Semen Panov,Amateur Teen 16-17,1997,Russia,66.3,,,,,,,,,170,-175,,170,170,67.5,M,Семен Панов,D,,,
Yes,Raw,1,Anton Barnashov,Amateur Teen 16-17,1996,Russia,74.2,,,,,,,,,150,-160,,150,150,75,M,Антон Барнашов,D,,,
Yes,Raw,1,Aleksey Vikhrov,Amateur Open,1988,Russia,74.65,,,,,,,,,235,245,-250,245,245,75,M,Алексей Вихров,D,,,
Yes,Raw,2,Roman Babaytsev,Amateur Open,1984,Russia,73.75,,,,,,,,,195,205,-210,205,205,75,M,Роман Бабайцев,D,,,
Yes,Raw,3,Vyacheslav Rusinov,Amateur Open,1984,Russia,74.5,,,,,,,,,185,195,200,200,200,75,M,Вячеслав Русинов,D,,,
Yes,Raw,1,Andrey Kusochkin,Amateur Juniors 20-23,1993,Russia,79.45,,,,,,,,,170,185,195,195,195,82.5,M,Андрей Кусочкин,D,,,
Yes,Raw,1,Georgiy Bobov,Amateur Open,1988,Russia,82.15,,,,,,,,,205,-217.5,,205,205,82.5,M,Георгий Бобов,D,,,
Yes,Raw,1,Konstantin Bazhin,Amateur Masters 45-49,1967,Russia,81.8,,,,,,,,,195,217.5,-225,217.5,217.5,82.5,M,Константин Бажин,D,,,
Yes,Raw,1,Stanislav Melnikov,Amateur Teen 14-15,1998,Russia,86.55,,,,,,,,,135,145,160,160,160,90,M,Станислав Мельников,D,,,
Yes,Raw,1,Vyacheslav Kolobov,Amateur Juniors 20-23,1991,Russia,85.9,,,,,,,,,202.5,212.5,222.5,222.5,222.5,90,M,Вячеслав Колобов,D,,,
Yes,Raw,1,Ashot Arzumanyan,Amateur Open,1985,Russia,86.65,,,,,,,,,250,257.5,265,265,265,90,M,Ашот Арзуманян,D,,,
Yes,Raw,2,Amridim Nurov,Amateur Open,1982,Tajikistan,85.35,,,,,,,,,-190,197.5,212.5,212.5,212.5,90,M,Амридин Нуров,D,,,
Yes,Raw,3,Aleksandr Korotaev,Amateur Open,1986,Russia,86.75,,,,,,,,,-180,190,197.5,197.5,197.5,90,M,Александр Коротаев,D,,,
Yes,Raw,4,Dmitriy Nikkel,Amateur Open,1989,Russia,86.95,,,,,,,,,185,197.5,-210,197.5,197.5,90,M,Дмитрий Никкель,D,,,
Yes,Raw,1,Aleksandr Terezov,Amateur Masters 45-49,1967,Russia,86.35,,,,,,,,,172.5,182.5,190,190,190,90,M,Александр Терезов,D,,,
Yes,Raw,1,Viktor Tyrtyk,Amateur Masters 55-59,1959,Russia,89.6,,,,,,,,,170,180,190,190,190,90,M,Виктор Тыртык,D,,,
Yes,Raw,1,Dmitriy Devyatkin,Amateur Juniors 20-23,1991,Russia,99.5,,,,,,,,,325,-345,-350,325,325,100,M,Дмитрий Девяткин,D,,,
Yes,Raw,1,Dmitriy Devyatkin,Amateur Open,1991,Russia,99.5,,,,,,,,,325,-345,-350,325,325,100,M,Дмитрий Девяткин,D,,,
Yes,Raw,2,Sergey Kharin,Amateur Open,1981,Russia,96.35,,,,,,,,,200,210,-215,210,210,100,M,Сергей Харин,D,,,
Yes,Raw,3,Aleksandr Kobets,Amateur Open,1980,Russia,91.85,,,,,,,,,180,-205,205,205,205,100,M,Александр Кобец,D,,,
Yes,Raw,1,Vadim Prokin,Amateur Teen 16-17,1998,Russia,108.15,,,,,,,,,130,140,-155,140,140,110,M,Вадим Прокин,D,,,
Yes,Raw,1,Stanislav Mingaleev,Amateur Open,1975,Russia,107.6,,,,,,,,,190,210,220,220,220,110,M,Станислав Мингалеев,D,,,
Yes,Raw,1,Dmitriy Osintsev,Amateur Masters 40-44,1969,Russia,107.5,,,,,,,,,170,190,,190,190,110,M,Дмитрий Осинцев,D,,,
Yes,Raw,1,Evgeniy Kochnev,Amateur Masters 45-49,1965,Russia,109,,,,,,,,,220,232.5,-242.5,232.5,232.5,110,M,Евгений Кочнев,D,,,
Yes,Raw,1,Konstantin Kokovin,Amateur Teen 16-17,1997,Russia,122.7,,,,,,,,,130,140,150,150,150,125,M,Константин Коковин,D,,,
No,Wraps,1,Evgeniy Blinkov,Pro Open,1987,Russia,97.35,245,262.5,275,275,,,,,,,,,275,100,M,Евгений Блинков,S,,,
No,Wraps,1,Evgeniy Nemashkalo,Pro Masters 45-49,1966,Russia,99.6,170,200,230,230,,,,,,,,,230,100,M,Евгений Немашкало,S,,,
No,Wraps,1,Sergey Aldoshkin,Pro Open,1988,Russia,105.35,210,222.5,237.5,237.5,,,,,,,,,237.5,110,M,Сергей Алдошкин,S,,,
No,Wraps,1,Vladimir Potapov,Pro Masters 55-59,1954,Russia,100.25,180,195,-205,195,,,,,,,,,195,110,M,Владимир Потапов,S,,,
No,Wraps,1,Vyacheslav Bursin,Pro Masters 50-54,1961,Russia,121.7,160,,,160,,,,,,,,,160,125,M,Вячеслав Бурсин,S,,,
No,Raw,1,Nikita Tymchenko,Pro Teen 13,2001,Kazakhstan,60,,,,,,,,,70,82.5,87.5,87.5,87.5,60,M,,D,,,
No,Raw,1,Vladimir Pshenitsyn,Pro Open,1982,Russia,88.5,,,,,,,,,235,250,260,260,260,90,M,Владимир Пшеницын,D,,,
No,Raw,1,Evgeniy Blinkov,Pro Open,1987,Russia,97.35,,,,,,,,,277.5,300,-315,300,300,100,M,Евгений Блинков,D,,,
No,Raw,2,Yuriy Suslov,Pro Open,1986,Russia,97.95,,,,,,,,,260,275,-285,275,275,100,M,Юрий Суслов,D,,,
No,Raw,1,Evgeniy Nemashkalo,Pro Masters 45-49,1966,Russia,99.6,,,,,,,,,170,,,170,170,100,M,Евгений Немашкало,D,,,
No,Raw,1,Vladimir Potapov,Pro Masters 55-59,1954,Russia,100.25,,,,,,,,,185,195,200,200,200,110,M,Владимир Потапов,D,,,
No,Raw,1,Vyacheslav Bursin,Pro Masters 50-54,1961,Russia,121.7,,,,,,,,,180,,,180,180,125,M,Вячеслав Бурсин,D,,,
No,Raw,1,Stanislav Alekseykin,Pro Open,1982,Russia,136.2,,,,,,,,,355,362.5,,362.5,362.5,140,M,Станислав Алексейкин,D,,,
Yes,Raw,1,Olga Polygalova,Amateur Open,1988,Russia,43.9,,,,,52.5,55,-57.5,55,,,,,55,44,F,Ольга Полыгалова,B,,,
Yes,Raw,1,Ekaterina Bener,Amateur Teen 16-17,1997,Russia,51.3,,,,,55,60,-62.5,60,,,,,60,52,F,Екатерина Бенер,B,,,
Yes,Raw,1,Svetlana Kumuts,Amateur Teen 18-19,1995,Russia,51.3,,,,,80,-85,-85,80,,,,,80,52,F,Светлана Кумуц,B,,,
Yes,Raw,DQ,Mariya Golovach,Amateur Open,1990,Russia,50.95,,,,,-45,-45,-50,,,,,,,52,F,Мария Головач,B,,,
Yes,Raw,1,Tatyana Tatarinova,Amateur Juniors 20-23,1990,Russia,55.65,,,,,40,-45,45,45,,,,,45,56,F,Татьяна Татаринова,B,,,
Yes,Raw,1,Natalya Volodina,Amateur Open,1978,Russia,56,,,,,67.5,72.5,-75,72.5,,,,,72.5,56,F,Наталья Володина,B,,,
Yes,Raw,1,Olga Terentyeva,Amateur Teen 16-17,1997,Russia,59.9,,,,,30,35,40,40,,,,,40,60,F,Ольга Терентьева,B,,,
Yes,Raw,1,Natalya Gordeeva,Amateur Teen 18-19,1995,Russia,58.75,,,,,35,45,-47.5,45,,,,,45,60,F,Наталья Гордеева,B,,,
Yes,Raw,1,Valeriya Polevschikova,Amateur Teen 14-15,1998,Russia,65.7,,,,,65,67.5,-70,67.5,,,,,67.5,67.5,F,Валерия Полевщикова,B,,,
Yes,Raw,2,Kristina Ivanova,Amateur Teen 14-15,1999,Russia,61.2,,,,,30,40,-42.5,40,,,,,40,67.5,F,Кристина Иванова,B,,,
Yes,Raw,1,Alena Lutkova,Amateur Teen 18-19,1994,Russia,63.1,,,,,-35,35,40,40,,,,,40,67.5,F,Алена Луткова,B,,,
Yes,Raw,1,Anastasiya Tarasova,Amateur Juniors 20-23,1991,Russia,66.35,,,,,45,47.5,-50,47.5,,,,,47.5,67.5,F,Анастасия Тарасова,B,,,
Yes,Raw,1,Ekaterina Zaytseva,Amateur Open,1987,Russia,65,,,,,60,-65,-65,60,,,,,60,67.5,F,Екатерина Зайцева,B,,,
Yes,Raw,1,Elena Artamonova,Amateur Masters 40-44,1971,Russia,65.4,,,,,47.5,52.5,57.5,57.5,,,,,57.5,67.5,F,Елена Артамонова,B,,,
Yes,Raw,2,Marina Bulatova,Amateur Masters 40-44,1972,Russia,67.1,,,,,47.5,52.5,-55,52.5,,,,,52.5,67.5,F,Марина Булатова,B,,,
Yes,Raw,1,Elena Vadyunina,Amateur Masters 45-49,1968,Russia,65.3,,,,,65,-72.5,-72.5,65,,,,,65,67.5,F,Елена Вадюнина,B,,,
Yes,Raw,1,Anna Slobodchikova,Amateur Open,1981,Russia,74.75,,,,,80,85,87.5,87.5,,,,,87.5,75,F,Анна Слободчикова,B,,,
Yes,Raw,1,Anna Grigoryeva,Amateur Open,1984,Russia,77.1,,,,,75,-80,-80,75,,,,,75,82.5,F,Анна Григорьева,B,,,
Yes,Raw,1,Lala Akopyan,Amateur Masters 50-54,1963,Russia,80.5,,,,,-80,85,95,95,,,,,95,82.5,F,Лала Акопян,B,,,
Yes,Raw,1,Pavel Zybalov,Amateur Teen 14-15,2000,Russia,54.4,,,,,52.5,57.5,-62.5,57.5,,,,,57.5,56,M,Павел Зыбалов,B,,,
Yes,Raw,1,Ivan Mikheev,Amateur Teen 18-19,1994,Russia,54.1,,,,,100,105,107.5,107.5,,,,,107.5,56,M,Иван Михеев,B,,,
Yes,Raw,1,Evgeniy Koval,Amateur Teen 14-15,2000,Russia,57.95,,,,,-70,-70,70,70,,,,,70,60,M,Евгений Коваль,B,,,
Yes,Raw,DQ,Georgiy Panchikhin,Amateur Teen 16-17,1996,Russia,57.2,,,,,-92.5,-92.5,-92.5,,,,,,,60,M,Георгий Панчихин,B,,,
Yes,Raw,1,Timofey Likhanov,Amateur Teen 14-15,1998,Russia,66.35,,,,,70,75,80,80,,,,,80,67.5,M,Тимофей Лиханов,B,,,
Yes,Raw,1,Ivan Bykov,Amateur Teen 16-17,1997,Russia,66.7,,,,,-105,105,112.5,112.5,,,,,112.5,67.5,M,Иван Быков,B,,,
Yes,Raw,2,Elisey Bloshenko,Amateur Teen 16-17,1997,Russia,66.5,,,,,-110,110,,110,,,,,110,67.5,M,Елисей Блошенко,B,,,
Yes,Raw,3,Andrey Buravtsov,Amateur Teen 16-17,1997,Russia,66.8,,,,,105,-110,110,110,,,,,110,67.5,M,Андрей Буравцов,B,,,
Yes,Raw,4,Nikita Abzaev,Amateur Teen 16-17,1998,Russia,65.35,,,,,92.5,-97.5,-100,92.5,,,,,92.5,67.5,M,Никита Абзаев,B,,,
Yes,Raw,1,Aleksey Maklakov,Amateur Juniors 20-23,1992,Russia,65.5,,,,,150,-160,-160,150,,,,,150,67.5,M,Алексей Маклаков,B,,,
Yes,Raw,2,Roman Grigoryev,Amateur Juniors 20-23,1990,Russia,66.75,,,,,120,125,127.5,127.5,,,,,127.5,67.5,M,Роман Григорьев,B,,,
Yes,Raw,3,Flit Tamayan,Amateur Juniors 20-23,1993,Russia,66.45,,,,,110,115,-120,115,,,,,115,67.5,M,Флит Тамаян,B,,,
Yes,Raw,4,Denis Kitasov,Amateur Juniors 20-23,1993,Russia,65.5,,,,,100,-110,-110,100,,,,,100,67.5,M,Денис Китасов,B,,,
Yes,Raw,1,Yanis Kalaychev,Amateur Open,1985,Russia,60.5,,,,,150,160,165,165,,,,,165,67.5,M,Янис Калайчев,B,,,
Yes,Raw,2,Kirill Speranskiy,Amateur Open,1989,Russia,64,,,,,135,-145,-145,135,,,,,135,67.5,M,Кирилл Сперанский,B,,,
Yes,Raw,3,Konstantin Okulov,Amateur Open,1987,Russia,67.3,,,,,117.5,127.5,-130,127.5,,,,,127.5,67.5,M,Константин Окулов,B,,,
Yes,Raw,1,Aleksandr Zadorin,Amateur Masters 60-64,1949,Russia,66.7,,,,,85,-95,100,100,,,,,100,67.5,M,Александр Задорин,B,,,
Yes,Raw,1,Garifulla Giniyatullin,Amateur Masters 80+,1932,Russia,65.25,,,,,52.5,57.5,60,60,,,,,60,67.5,M,Гарифулла Гиниятуллин,B,,,
Yes,Raw,1,Arsen Kuyguldinov,Amateur Teen 14-15,2000,Russia,73.4,,,,,-97.5,100,-105,100,,,,,100,75,M,Арсен Куйгульдинов,B,,,
Yes,Raw,2,Vladislav Kudryavtsev,Amateur Teen 13,2001,Russia,71.6,,,,,70,-80,-90,70,,,,,70,75,M,Владислав Кудрявцев,B,,,
Yes,Raw,1,Artem Muchkin,Amateur Teen 16-17,1997,Russia,72,,,,,110,-115,-115,110,,,,,110,75,M,Артем Мучкин,B,,,
Yes,Raw,2,Aleksandr Lisitsa,Amateur Teen 16-17,1997,Russia,75,,,,,-105,105,-112.5,105,,,,,105,75,M,Александр Лисица,B,,,
Yes,Raw,1,Roman Shevelev,Amateur Juniors 20-23,1990,Russia,72.95,,,,,140,-145,-145,140,,,,,140,75,M,Роман Шевелев,B,,,
Yes,Raw,2,Kirill Nezavitin,Amateur Juniors 20-23,1993,Russia,74.7,,,,,-127.5,127.5,-130,127.5,,,,,127.5,75,M,Кирилл Незавитин,B,,,
Yes,Raw,3,Ivan Morozov,Amateur Juniors 20-23,1993,Russia,70.55,,,,,110,120,-122.5,120,,,,,120,75,M,Иван Морозов,B,,,
Yes,Raw,4,Dmitriy Kuzin,Amateur Juniors 20-23,1990,Russia,72,,,,,115,120,-125,120,,,,,120,75,M,Дмитрий Кузин,B,,,
Yes,Raw,1,Vasiliy Perepelkin,Amateur Open,1976,Russia,72.8,,,,,150,157.5,-160,157.5,,,,,157.5,75,M,Василий Перепелкин,B,,,
Yes,Raw,2,Armen Gulanyan,Amateur Open,1983,Russia,73.45,,,,,137,142.5,145,145,,,,,145,75,M,Армен Гуланян,B,,,
Yes,Raw,3,Aleksey Turlanov,Amateur Open,1979,Russia,70,,,,,-130,137.5,142.5,142.5,,,,,142.5,75,M,Алексей Турланов,B,,,
Yes,Raw,4,Radik Chuganaev,Amateur Open,1988,Russia,72.3,,,,,130,137.5,140,140,,,,,140,75,M,Радик Чуганаев,B,,,
Yes,Raw,5,Aleksandr Avilkin,Amateur Open,1982,Russia,73.9,,,,,-125,-125,125,125,,,,,125,75,M,Александр Авилкин,B,,,
Yes,Raw,6,Andrey Smirnov,Amateur Open,1982,Russia,74.5,,,,,125,-132.5,-137.5,125,,,,,125,75,M,Андрей Смирнов,B,,,
Yes,Raw,7,Anton Shilin,Amateur Open,1989,Russia,75.25,,,,,100,110,120,120,,,,,120,82.5,M,Антон Шилин,B,,,
Yes,Raw,8,Andrey Kotlovanov,Amateur Open,1984,Russia,73,,,,,115,-120,-120,115,,,,,115,75,M,Андрей Котлованов,B,,,
Yes,Raw,1,Valentin Makarov,Amateur Masters 50-54,1963,Russia,72.35,,,,,115,117.5,-122.5,117.5,,,,,117.5,75,M,Валентин Макаров,B,,,
Yes,Raw,2,Aleksey Sokolov,Amateur Masters 50-54,1963,Russia,72.7,,,,,107.5,-112.5,-112.5,107.5,,,,,107.5,75,M,Алексей Соколов,B,,,
Yes,Raw,1,Aleksandr Baluev,Amateur Masters 55-59,1955,Russia,74.95,,,,,125,130,-137.5,130,,,,,130,75,M,Александр Балуев,B,,,
Yes,Raw,1,Oreon Kim,Amateur Masters 60-64,1954,Kazakhstan,74.3,,,,,70,80,-87.5,80,,,,,80,75,M,,B,,,
Yes,Raw,1,Ivan Zyablikov,Amateur Masters 65-69,1948,Russia,74.75,,,,,110,115,120,120,,,,,120,75,M,Иван Зябликов,B,,,
Yes,Raw,1,Leonid Dvorkin,Amateur Masters 70-74,1941,Russia,74.4,,,,,100,105,-110,105,,,,,105,75,M,Леонид Дворкин,B,,,
Yes,Raw,1,Ilya Petrov,Amateur Teen 14-15,1999,Russia,78.5,,,,,102.5,-107.5,-107.5,102.5,,,,,102.5,82.5,M,Илья Петров,B,,,
Yes,Raw,1,Nikita Ilyukhin,Amateur Teen 16-17,1996,Russia,78,,,,,140,-147.5,-147.5,140,,,,,140,82.5,M,Никита Ильюхин,B,,,
Yes,Raw,2,Dmitriy Beloglazov,Amateur Teen 16-17,1996,Russia,80,,,,,120,-130,-130,120,,,,,120,82.5,M,Дмитрий Белоглазов,B,,,
Yes,Raw,3,Ivan Tsvetkov,Amateur Teen 16-17,1996,Russia,77.95,,,,,100,-110,-110,100,,,,,100,82.5,M,Иван Цветков,B,,,
Yes,Raw,4,Sergey Shershnev,Amateur Teen 16-17,1997,Russia,82.5,,,,,90,-95,-95,90,,,,,90,82.5,M,Сергей Шершнев,B,,,
Yes,Raw,1,Pavel Kazantsev,Amateur Teen 18-19,1994,Russia,80.7,,,,,125,130,-135,130,,,,,130,82.5,M,Павел Казанцев,B,,,
Yes,Raw,1,Ernst Kurbanov,Amateur Juniors 20-23,1990,Russia,81,,,,,140,147.5,-152.5,147.5,,,,,147.5,82.5,M,Эрнст Курбанов,B,,,
Yes,Raw,2,Aleksandr Rudakov,Amateur Juniors 20-23,1990,Russia,81.95,,,,,140,147.5,-150,147.5,,,,,147.5,82.5,M,Александр Рудаков,B,,,
Yes,Raw,1,Aleksandr Khudyakov,Amateur Open,1974,Russia,80.85,,,,,167.5,175,177.5,177.5,,,,,177.5,82.5,M,Александр Худяков,B,,,
Yes,Raw,2,Aleksey Martyanov,Amateur Open,1985,Russia,80,,,,,160,170,175,175,,,,,175,82.5,M,Алексей Мартьянов,B,,,
Yes,Raw,3,Aleksey Nagovitsin,Amateur Open,1982,Russia,80.85,,,,,147.5,152.5,-155,152.5,,,,,152.5,82.5,M,Алексей Наговицин,B,,,
Yes,Raw,4,Igor Panchenko,Amateur Open,1984,Russia,81.9,,,,,130,140,147.5,147.5,,,,,147.5,82.5,M,Игорь Панченко,B,,,
Yes,Raw,5,Aleksandr Gutsevich,Amateur Open,1966,Russia,82.5,,,,,135,142.5,-147.5,142.5,,,,,142.5,82.5,M,Александр Гуцевич,B,,,
Yes,Raw,6,Aleksandr Gerasimenko,Amateur Open,1981,Russia,81.5,,,,,137.5,-145,-147.5,137.5,,,,,137.5,82.5,M,Александр Герасименко,B,,,
Yes,Raw,7,Igor Volodin,Amateur Open,1950,Russia,82.5,,,,,135,-142.5,-147.5,135,,,,,135,82.5,M,Игорь Володин,B,,,
Yes,Raw,8,Roman Ustinov,Amateur Open,1981,Russia,79.25,,,,,125,-130,130,130,,,,,130,82.5,M,Роман Устинов,B,,,
Yes,Raw,9,Evgeniy Nesterov,Amateur Open,1981,Russia,82,,,,,120,125,130,130,,,,,130,82.5,M,Евгений Нестеров,B,,,
Yes,Raw,DQ,Andrey Sidorov,Amateur Open,1988,Russia,77.5,,,,,-130,,,,,,,,,82.5,M,Андрей Сидоров,B,,,
Yes,Raw,DQ,Sergey Lashkin,Amateur Open,1982,Russia,82.2,,,,,-147.5,-147.5,,,,,,,,82.5,M,Сергей Лашкин,B,,,
Yes,Raw,1,Mikhail Pronichev,Amateur Masters 40-44,1969,Russia,81.7,,,,,140,147.5,152.5,152.5,,,,,152.5,82.5,M,Михаил Проничев,B,,,
Yes,Raw,1,Aleksandr Gutsevich,Amateur Masters 45-49,1966,Russia,82.5,,,,,135,142.5,-147.5,142.5,,,,,142.5,82.5,M,Александр Гуцевич,B,,,
Yes,Raw,2,Igor Kozlov #1,Amateur Masters 45-49,1964,Russia,81.7,,,,,130,135,-140,135,,,,,135,82.5,M,Игорь Козлов,B,,,
Yes,Raw,3,Vasiliy Mishurinskiy,Amateur Masters 45-49,1968,Russia,80.8,,,,,127.5,132.5,-137.5,132.5,,,,,132.5,82.5,M,Василий Мишуринский,B,,,
Yes,Raw,4,Sergey Ovchinnikov,Amateur Masters 45-49,1964,Russia,81.6,,,,,105,-115,115,115,,,,,115,82.5,M,Сергей Овчинников,B,,,
Yes,Raw,5,Oleg Davydov,Amateur Masters 45-49,1967,Russia,82.3,,,,,102.2,107.5,110,110,,,,,110,82.5,M,Олег Давыдов,B,,,
Yes,Raw,1,Igor Volodin,Amateur Masters 50-54,1962,Russia,82.5,,,,,135,-142.5,-147.5,135,,,,,135,82.5,M,Игорь Володин,B,,,
Yes,Raw,1,Valeriy Lisitsa,Amateur Masters 55-59,1956,Russia,82.2,,,,,105,110,-112.5,110,,,,,110,82.5,M,Валерий Лисица,B,,,
Yes,Raw,1,Eldar Tsoriev,Amateur Masters 65-69,1946,Russia,82,,,,,120,125,,125,,,,,125,82.5,M,Эльдар Цориев,B,,,
Yes,Raw,1,Valentin Panchenko,Amateur Masters 75-79,1938,Russia,80.3,,,,,-75,75,85,85,,,,,85,82.5,M,Валентин Панченко,B,,,
Yes,Raw,1,Svyatoslav Koryakin,Amateur Teen 14-15,2000,Russia,90,,,,,115,-120,-120,115,,,,,115,90,M,Святослав Корякин,B,,,
Yes,Raw,1,Aleksandr Kopytov,Amateur Teen 16-17,1996,Russia,89,,,,,125,135,137.5,137.5,,,,,137.5,90,M,Александр Копытов,B,,,
Yes,Raw,DQ,Vladimir Kataev,Amateur Teen 16-17,1996,Russia,89.8,,,,,-150,-150,-150,,,,,,,90,M,Владимир Катаев,B,,,
Yes,Raw,1,Nikita Kuzmitskiy,Amateur Teen 18-19,1994,Russia,86.1,,,,,125,-130,-130,125,,,,,125,90,M,Никита Кузьмицкий,B,,,
Yes,Raw,2,Temur Lagvilava,Amateur Teen 18-19,1994,Russia,87.5,,,,,-115,115,-130,115,,,,,115,90,M,Темур Лагвилава,B,,,
Yes,Raw,1,Evgeniy Rybalov,Amateur Juniors 20-23,1993,Russia,89.8,,,,,155,-162.5,162.5,162.5,,,,,162.5,90,M,Евгений Рыбалов,B,,,
Yes,Raw,2,Dmitriy Oboskalov,Amateur Juniors 20-23,1991,Russia,90,,,,,-140,140,145,145,,,,,145,90,M,Дмитрий Обоскалов,B,,,
Yes,Raw,3,Daniil Mananchikov,Amateur Juniors 20-23,1994,Russia,86.7,,,,,125,135,-142.5,135,,,,,135,90,M,Даниил Мананчиков,B,,,
Yes,Raw,1,Andrei Galaida,Amateur Open,1972,Russia,88.5,,,,,180,190,,190,,,,,190,90,M,Андрей Галайда,B,,,
Yes,Raw,2,Aleksandr Valeev,Amateur Open,1983,Russia,88.8,,,,,180,190,-192.5,190,,,,,190,90,M,Александр Валеев,B,,,
Yes,Raw,3,Ivan Belyaev #1,Amateur Open,1977,Russia,88.8,,,,,180,-185,-185,180,,,,,180,90,M,Иван Беляев,B,,,
Yes,Raw,4,Nikita Dementyev,Amateur Open,1985,Russia,88.3,,,,,170,-177.5,-177.5,170,,,,,170,90,M,Никита Дементьев,B,,,
Yes,Raw,5,Aleksandr Kozhevin,Amateur Open,1979,Russia,89.85,,,,,162.5,170,-177.5,170,,,,,170,90,M,Александр Кожевин,B,,,
Yes,Raw,6,Ilya Polyanskiy,Amateur Open,1989,Russia,90,,,,,142.5,155,-157.5,155,,,,,155,90,M,Илья Полянский,B,,,
Yes,Raw,7,Vitaliy Aksenov,Amateur Open,1981,Russia,87.25,,,,,150,-155,,150,,,,,150,90,M,Виталий Аксенов,B,,,
Yes,Raw,8,Vladimir Kozlikhin,Amateur Open,1981,Russia,87.85,,,,,135,140,-142.5,140,,,,,140,90,M,Владимир Козлихин,B,,,
Yes,Raw,9,Stanislav Kuzmin,Amateur Open,1979,Russia,88.6,,,,,130,135,140,140,,,,,140,90,M,Станислав Кузьмин,B,,,
Yes,Raw,10,Artem Savin,Amateur Open,1986,Russia,87.7,,,,,135,-145,-145,135,,,,,135,90,M,Артем Савин,B,,,
Yes,Raw,11,Aleksandr Lebedev,Amateur Open,1983,Russia,87.5,,,,,130,-135,-135,130,,,,,130,90,M,Александр Лебедев,B,,,
Yes,Raw,DQ,Aleksey Zhukov,Amateur Open,1983,Russia,87.35,,,,,-145,-145,-145,,,,,,,90,M,Алексей Жуков,B,,,
Yes,Raw,DQ,Dmitriy Nikolaev,Amateur Open,1982,Russia,88,,,,,-142.5,-142.5,-152.5,,,,,,,90,M,Дмитрий Николаев,B,,,
Yes,Raw,DQ,Vladimir Kovalev,Amateur Open,1985,Russia,89.1,,,,,-145,-152.5,-152.5,,,,,,,90,M,Владимир Ковалев,B,,,
Yes,Raw,DQ,Vladimir Mamaev,Amateur Open,1988,Russia,90,,,,,-150,-155,-155,,,,,,,90,M,Владимир Мамаев,B,,,
Yes,Raw,1,Andrei Galaida,Amateur Masters 40-44,1972,Russia,88.5,,,,,180,190,,190,,,,,190,90,M,Андрей Галайда,B,,,
Yes,Raw,2,Mikhail Raspopov,Amateur Masters 40-44,1970,Russia,87.65,,,,,155,-165,165,165,,,,,165,90,M,Михаил Распопов,B,,,
Yes,Raw,3,Denis Tomilov,Amateur Masters 40-44,1972,Russia,87.5,,,,,140,150,-155,150,,,,,150,90,M,Денис Томилов,B,,,
Yes,Raw,4,Vyacheslav Myasnikov,Amateur Masters 40-44,1970,Russia,90,,,,,130,135.5,142.5,142.5,,,,,142.5,90,M,Вячеслав Мясников,B,,,
Yes,Raw,5,Aleksandr Redikultsev,Amateur Masters 40-44,1973,Russia,87,,,,,125,-130,130,130,,,,,130,90,M,Александр Редикульцев,B,,,
Yes,Raw,DQ,Konstantin Nikitin,Amateur Masters 40-44,1974,Russia,88.85,,,,,-145,-145,-145,,,,,,,90,M,Константин Никитин,B,,,
Yes,Raw,1,Andrey Noritsyn,Amateur Masters 50-54,1963,Russia,90,,,,,155,160,-162.5,160,,,,,160,90,M,Андрей Норицын,B,,,
Yes,Raw,2,Andrey Mochalov,Amateur Masters 50-54,1960,Russia,89.1,,,,,120,125,130,130,,,,,130,90,M,Андрей Мочалов,B,,,
Yes,Raw,3,Aleksandr Yarin,Amateur Masters 50-54,1960,Russia,88.2,,,,,117.5,122.5,-127.5,122.5,,,,,122.5,90,M,Александр Ярин,B,,,
Yes,Raw,DQ,Mikhail Khudyakov,Amateur Masters 55-59,1955,Russia,89.1,,,,,-140,-140,-140,,,,,,,90,M,Михаил Худяков,B,,,
Yes,Raw,1,Yuriy Kotov,Amateur Masters 60-64,1951,Russia,87.6,,,,,120,125,-130,125,,,,,125,90,M,Юрий Котов,B,,,
Yes,Raw,1,Ilya Galkin,Amateur Teen 18-19,1995,Russia,94,,,,,-162.5,162.5,-165,162.5,,,,,162.5,100,M,Илья Галкин,B,,,
Yes,Raw,1,Nikita Karamalak,Amateur Juniors 20-23,1994,Russia,92.15,,,,,135,142.5,150,150,,,,,150,100,M,Никита Карамалак,B,,,
Yes,Raw,1,Yuriy Gorbunov,Amateur Open,1986,Russia,98.1,,,,,172.5,180,-187.5,180,,,,,180,100,M,Юрий Горбунов,B,,,
Yes,Raw,2,Vladimir Nikonov,Amateur Open,1966,Russia,96.7,,,,,170,-175,175,175,,,,,175,100,M,Владимир Никонов,B,,,
Yes,Raw,3,Arseniy Klevakin,Amateur Open,1979,Russia,97.15,,,,,162.5,167.5,175,175,,,,,175,100,M,Арсений Клевакин,B,,,
Yes,Raw,4,Sergey Yavorskiy,Amateur Open,1977,Russia,92.5,,,,,167.5,172.5,-175,172.5,,,,,172.5,100,M,Сергей Яворский,B,,,
Yes,Raw,5,Vyacheslav Dembitskiy,Amateur Open,1982,Russia,99.1,,,,,155,162.5,165,165,,,,,165,100,M,Вячеслав Дембицкий,B,,,
Yes,Raw,6,Andrey Novitskiy,Amateur Open,1975,Russia,99.45,,,,,152.5,157,162.5,162.5,,,,,162.5,100,M,Андрей Новицкий,B,,,
Yes,Raw,7,Aleksey Paraskunov,Amateur Open,1976,Russia,97.7,,,,,145,150,-162.5,150,,,,,150,100,M,Алексей Параскунов,B,,,-162.5
Yes,Raw,8,Anton Antakov,Amateur Open,1985,Russia,93.6,,,,,132.5,-142.5,-142.5,132.5,,,,,132.5,100,M,Антон Антаков,B,,,
Yes,Raw,9,Vladimir Melnik,Amateur Open,1987,Russia,97.9,,,,,125,-135,-135,125,,,,,125,100,M,Владимир Мельник,B,,,
Yes,Raw,1,Stanislav Mikhalenko,Amateur Masters 40-44,1971,Russia,99.85,,,,,165,-170,-170,165,,,,,165,100,M,Станислав Михаленко,B,,,
Yes,Raw,2,Sergey Kulpin,Amateur Masters 40-44,1973,Russia,100,,,,,155,162.5,-165,162.5,,,,,162.5,100,M,Сергей Кульпин,B,,,
Yes,Raw,1,Vladimir Nikonov,Amateur Masters 45-49,1966,Russia,96.7,,,,,170,-175,175,175,,,,,175,100,M,Владимир Никонов,B,,,
Yes,Raw,2,Anatoliy Butakov,Amateur Masters 45-49,1966,Russia,99,,,,,115,120,125,125,,,,,125,100,M,Анатолий Бутаков,B,,,
Yes,Raw,1,Valeriy Kazhaev,Amateur Masters 50-54,1963,Russia,97.6,,,,,167.5,-172.5,172.5,172.5,,,,,172.5,100,M,Валерий Кажаев,B,,,
Yes,Raw,2,Boris Dobrin,Amateur Masters 50-54,1959,Russia,95.15,,,,,165,-170,170,170,,,,,170,100,M,Борис Добрин,B,,,
Yes,Raw,3,Vladimir Shibaev,Amateur Masters 50-54,1960,Russia,98.95,,,,,-165,165,170,170,,,,,170,100,M,Владимир Шибаев,B,,,
Yes,Raw,4,Anatoliy Gorelov,Amateur Masters 50-54,1962,Russia,96.1,,,,,140,-145,-145,140,,,,,140,100,M,Анатолий Горелов,B,,,
Yes,Raw,1,Petr Komarov,Amateur Masters 55-59,1958,Russia,95.35,,,,,150,-160,160,160,,,,,160,100,M,Петр Комаров,B,,,
Yes,Raw,1,Artem Avdyukov,Amateur Teen 18-19,1994,Russia,106.25,,,,,142.5,147.5,,147.5,,,,,147.5,110,M,Артем Авдюков,B,,,
Yes,Raw,1,Andrey Pinyazhin,Amateur Open,1974,Russia,104.7,,,,,175,-195,195,195,,,,,195,110,M,Андрей Пиняжин,B,,,
Yes,Raw,2,Vitaliy Tikhonov,Amateur Open,1988,Russia,109.5,,,,,180,-190,-190,180,,,,,180,110,M,Виталий Тихонов,B,,,
Yes,Raw,3,Pavel Galayda,Amateur Open,1968,Russia,103.2,,,,,165,175,-182.5,175,,,,,175,110,M,Павел Галайда,B,,,
Yes,Raw,4,Pavel Markin,Amateur Open,1982,Russia,108.6,,,,,175,-185,-185,175,,,,,175,110,M,Павел Маркин,B,,,
Yes,Raw,5,Aleksandr Ustinov,Amateur Open,1988,Russia,102.45,,,,,140,147.5,160,160,,,,,160,110,M,Александр Устинов,B,,,
Yes,Raw,6,Sergey Kudryavtsev,Amateur Open,1974,Russia,108,,,,,160,-167.5,-167.5,160,,,,,160,110,M,Сергей Кудрявцев,B,,,
Yes,Raw,7,Evgeniy Nazimov,Amateur Open,1977,Russia,110,,,,,160,-170,-170,160,,,,,160,110,M,Евгений Назимов,B,,,
Yes,Raw,1,Yuriy Stenin,Amateur Masters 40-44,1972,Russia,110,,,,,-150,155,-160,155,,,,,155,110,M,Юрий Стенин,B,,,
Yes,Raw,1,Dmitriy Kalkov,Amateur Masters 45-49,1964,Russia,106.7,,,,,170,180,,180,,,,,180,110,M,Дмитрий Кальков,B,,,
Yes,Raw,2,Pavel Galayda,Amateur Masters 45-49,1968,Russia,103.2,,,,,165,175,-182.5,175,,,,,175,110,M,Павел Галайда,B,,,
Yes,Raw,3,Ivan Kazantsev,Amateur Masters 45-49,1967,Russia,100.1,,,,,162.5,167.5,170,170,,,,,170,110,M,Иван Казанцев,B,,,
Yes,Raw,1,Sergey Tovstukha,Amateur Masters 50-54,1963,Russia,105.45,,,,,175,195,-200,195,,,,,195,110,M,Сергей Товстуха,B,,,
Yes,Raw,2,Viktor Kachusov,Amateur Masters 50-54,1960,Russia,102.1,,,,,157.5,162.5,-165,162.5,,,,,162.5,110,M,Виктор Качусов,B,,,
Yes,Raw,1,Aleksandr Chernyshev,Amateur Masters 55-59,1957,Russia,108.5,,,,,130,140,-145,140,,,,,140,110,M,Александр Чернышев,B,,,
Yes,Raw,1,Sergey Lomakin,Amateur Open,1982,Russia,123.8,,,,,200,-212.5,215,215,,,,,215,125,M,Сергей Ломакин,B,,,
Yes,Raw,2,Andrey Sharov,Amateur Open,1974,Russia,120.5,,,,,200,210,212.5,212.5,,,,,212.5,125,M,Андрей Шаров,B,,,
Yes,Raw,3,Pavel Karamalak,Amateur Open,1973,Russia,124.7,,,,,-190,-190,190,190,,,,,190,125,M,Павел Карамалак,B,,,
Yes,Raw,4,Aleksey Chermyaninov,Amateur Open,1976,Russia,120.75,,,,,170,175,177.5,177.5,,,,,177.5,125,M,Алексей Чермянинов,B,,,
Yes,Raw,5,Sergey Kiselev,Amateur Open,1980,Russia,124.95,,,,,170,175,177.5,177.5,,,,,177.5,125,M,Сергей Киселев,B,,,
Yes,Raw,1,Andrey Sharov,Amateur Masters 40-44,1974,Russia,120.5,,,,,200,210,212.5,212.5,,,,,212.5,125,M,Андрей Шаров,B,,,
Yes,Raw,2,Pavel Karamalak,Amateur Masters 40-44,1973,Russia,124.7,,,,,-190,-190,190,190,,,,,190,125,M,Павел Карамалак,B,,,
Yes,Raw,3,Aleksandr Tupitsyn,Amateur Masters 40-44,1973,Russia,120.5,,,,,145,-155,-155,145,,,,,145,125,M,Александр Тупицын,B,,,
Yes,Raw,1,Konstantin Mozyrev,Amateur Masters 45-49,1968,Russia,123.5,,,,,170,-175,-175,170,,,,,170,125,M,Константин Мозырев,B,,,
Yes,Raw,1,Denis Karnaukhov,Amateur Open,1978,Russia,137.35,,,,,240,-250,-250,240,,,,,240,140,M,Денис Карнаухов,B,,,
Yes,Raw,2,Sergey Khudyakov,Amateur Open,1975,Russia,134.9,,,,,220,230,-240,230,,,,,230,140,M,Сергей Худяков,B,,,
Yes,Raw,3,Andrey Larin,Amateur Open,1986,Russia,138.65,,,,,200,210,-215,210,,,,,210,140,M,Андрей Ларин,B,,,
Yes,Raw,1,Vyacheslav Tyazhelnikov,Amateur Masters 60-64,1950,Russia,129.45,,,,,115,125,130,130,,,,,130,140,M,Вячеслав Тяжельников,B,,,
Yes,Raw,1,Sergey Lazarev,Amateur Masters 50-54,1960,Russia,146.4,,,,,120,125,130,130,,,,,130,140+,M,Сергей Лазарев,B,,,
No,Raw,1,Yuliya Tatyanina,Pro Open,1989,Russia,55.6,,,,,80,90,-100,90,,,,,90,56,F,Юлия Татьянина,B,,,
No,Raw,1,Ekaterina Arestova,Pro Open,1986,Russia,77.6,,,,,110,115,-120,115,,,,,115,82.5,F,Екатерина Арестова,B,,,
No,Raw,1,Marat Zanakhov,Pro Open,1989,Russia,57.8,,,,,110,-115,-115,110,,,,,110,60,M,Марат Занахов,B,,,
No,Raw,1,Andrey Noskov,Pro Teen 18-19,1995,Russia,66.1,,,,,-72.5,75,80,80,,,,,80,67.5,M,Андрей Носков,B,,,
No,Raw,1,Ramal Mamedov,Pro Open,1989,Russia,67.5,,,,,120,-130,130,130,,,,,130,67.5,M,Рамаль Мамедов,B,,,
No,Raw,2,Aleksandr Taushkhanov,Pro Open,1990,Russia,66.05,,,,,-100,100,105,105,,,,,105,67.5,M,Александр Таушханов,B,,,
No,Raw,DQ,Aleksandr Taushkhanov,Pro Open,1990,Russia,66.05,,,,,-100,,,,,,,,,67.5,M,Александр Таушханов,B,,,
No,Raw,DQ,Ramal Mamedov,Pro Open,1989,Russia,67.5,,,,,-120,,,,,,,,,67.5,M,Рамаль Мамедов,B,,,
No,Raw,1,Yuriy Lebedev,Pro Masters 75-79,1938,Russia,64,,,,,80,85,-87.5,85,,,,,85,67.5,M,Юрий Лебедев,B,,,
No,Raw,1,Eduard Sedinin,Pro Teen 16-17,1996,Russia,74.5,,,,,92.5,97.5,102.5,102.5,,,,,102.5,75,M,Эдуард Сединин,B,,,
No,Raw,1,Viktor Putintsev,Pro Juniors 20-23,1991,Russia,69.35,,,,,145,147.5,-150,147.5,,,,,147.5,75,M,Виктор Путинцев,B,,,
No,Raw,1,Yaroslav Nekrasov,Pro Open,1987,Russia,73.1,,,,,150,157.5,-162.5,157.5,,,,,157.5,75,M,Ярослав Некрасов,B,,,
No,Raw,2,Sergey Korkin,Pro Open,1979,Russia,74.45,,,,,115,-125,125,125,,,,,125,75,M,Сергей Коркин,B,,,
No,Raw,1,Sergey Kozhokin,Pro Masters 40-44,1969,Russia,73.25,,,,,-135,135,-137.5,135,,,,,135,75,M,Сергей Кожокин,B,,,
No,Raw,1,Gennadiy Pereladov,Pro Masters 75-79,1939,Russia,74.5,,,,,-80,80,85,85,,,,,85,75,M,Геннадий Переладов,B,,,
No,Raw,1,Maksim Petrov,Pro Teen 16-17,1997,Russia,81.85,,,,,95,105,-115,105,,,,,105,82.5,M,Максим Петров,B,,,
No,Raw,DQ,Sergey Vilisov,Pro Open,1989,Russia,80.7,,,,,-130,-130,-130,,,,,,,82.5,M,Сергей Вилисов,B,,,
No,Raw,1,Maksim Petrov,Pro Open,1997,Russia,81.85,,,,,95,105,-115,105,,,,,105,82.5,M,Максим Петров,B,,,
No,Raw,1,Stanislav Pigilev,Pro Masters 40-44,1970,Russia,82.1,,,,,120,125,130,130,,,,,130,82.5,M,Станислав Пигилев,B,,,
No,Raw,1,Konstantin Dremenkov,Pro Masters 45-49,1966,Belarus,82.5,,,,,150,165,-167.5,165,,,,,165,82.5,M,,B,,,
No,Raw,1,Vladimir Lomatskiy,Pro Masters 55-59,1955,Russia,82,,,,,110,-120,,110,,,,,110,82.5,M,Владимир Ломацкий,B,,,
No,Raw,1,Aleksandr Biserov,Pro Masters 70-74,1943,Russia,76.4,,,,,70,75,,75,,,,,75,82.5,M,Александр Бисеров,B,,,
No,Raw,1,Egor Tambovtsev,Pro Teen 16-17,1997,Russia,83.15,,,,,100,107.5,-110,107.5,,,,,107.5,90,M,Егор Тамбовцев,B,,,
No,Raw,1,Aleksey Permyakov,Pro Open,1978,Russia,88.6,,,,,200,207.5,-212.5,207.5,,,,,207.5,90,M,Алексей Пермяков,B,,,
No,Raw,2,Sergey Kislyakov,Pro Open,1987,Russia,88.7,,,,,180,-195,-200,180,,,,,180,90,M,Сергей Кисляков,B,,,
No,Raw,1,Eduard Pershin,Pro Masters 40-44,1970,Russia,89.75,,,,,200,210,-212.5,210,,,,,210,90,M,Эдуард Першин,B,,,
No,Raw,1,Sergey Vinnikov,Pro Masters 50-54,1962,Russia,89.1,,,,,120,125,130,130,,,,,130,90,M,Сергей Винников,B,,,
No,Raw,1,Evgeniy Basov,Pro Masters 55-59,1955,Russia,89.8,,,,,135,147.5,,147.5,,,,,147.5,90,M,Евгений Басов,B,,,
No,Raw,1,Fedor Chesnokov,Pro Masters 65-69,1947,Russia,89.35,,,,,132.5,140,142.5,142.5,,,,,142.5,90,M,Федор Чесноков,B,,,
No,Raw,1,Kirill Abaturov,Pro Juniors 20-23,1993,Russia,97.8,,,,,165,170,,170,,,,,170,100,M,Кирилл Абатуров,B,,,
No,Raw,1,Ruslan Greev,Pro Open,1986,Kazakhstan,97.8,,,,,-220,220,-235,220,,,,,220,100,M,,B,,,
No,Raw,2,Aleksandr Novinskiy,Pro Open,1983,Russia,90.6,,,,,200,207.5,-210,207.5,,,,,207.5,100,M,Александр Новинский,B,,,
No,Raw,3,Dmitriy Tambovtsev,Pro Open,1969,Russia,99.8,,,,,-195,195,-200,195,,,,,195,100,M,Дмитрий Тамбовцев,B,,,
No,Raw,4,Vladimir Petrov,Pro Open,1968,Russia,100,,,,,180,190,-195,190,,,,,190,100,M,Владимир Петров,B,,,
No,Raw,5,Ivan Kurpishev,Pro Open,1969,Russia,96.65,,,,,170,180,-182.5,180,,,,,180,100,M,Иван Курпишев,B,,,
No,Raw,6,Stanislav Alikin,Pro Open,1985,Russia,99.3,,,,,180,-185,-185,180,,,,,180,100,M,Станислав Аликин,B,,,
No,Raw,1,Dmitriy Tambovtsev,Pro Masters 40-44,1969,Russia,99.8,,,,,-195,195,-200,195,,,,,195,100,M,Дмитрий Тамбовцев,B,,,
No,Raw,1,Vladimir Petrov,Pro Masters 45-49,1968,Russia,100,,,,,180,190,-195,190,,,,,190,100,M,Владимир Петров,B,,,
No,Raw,2,Ivan Kurpishev,Pro Masters 45-49,1969,Russia,96.65,,,,,170,180,-182.5,180,,,,,180,100,M,Иван Курпишев,B,,,
No,Raw,3,Valeriy Nefedov,Pro Masters 45-49,1967,Russia,98.7,,,,,170,-180,-180,170,,,,,170,100,M,Валерий Нефедов,B,,,
No,Raw,4,Sergey Konovalov #4,Pro Masters 45-49,1969,Russia,94.3,,,,,150,162.5,-170,162.5,,,,,162.5,100,M,Сергей Коновалов,B,,,
No,Raw,1,Igor Anfalov,Pro Masters 50-54,1964,Russia,99.85,,,,,160,-170,-170,160,,,,,160,100,M,Игорь Анфалов,B,,,
No,Raw,1,Gleb Tutynin,Pro Juniors 20-23,1992,Russia,108.3,,,,,170,175,-177.5,175,,,,,175,110,M,Глеб Тутынин,B,,,
No,Raw,1,Konstantin Bayandin,Pro Open,1976,Russia,103.15,,,,,180,190,-200,190,,,,,190,110,M,Константин Баяндин,B,,,
No,Raw,1,Aleksandr Tretyakov,Pro Masters 45-49,1967,Russia,109.35,,,,,215,225,-235,225,,,,,225,110,M,Александр Третьяков,B,,,
No,Raw,1,Andrey Martemyanov,Pro Masters 50-54,1961,Russia,109,,,,,160,165,170,170,,,,,170,110,M,Андрей Мартемьянов,B,,,
No,Raw,2,Konstantin Kurashov,Pro Masters 50-54,1962,Kazakhstan,106.8,,,,,135,145,155,155,,,,,155,110,M,,B,,,
No,Raw,1,Yuriy Obukhov,Pro Masters 55-59,1958,Russia,106.7,,,,,155,-160,-160,155,,,,,155,110,M,Юрий Обухов,B,,,
No,Raw,2,Vladimir Potapov,Pro Masters 55-59,1954,Russia,100.25,,,,,100,110,120,120,,,,,120,110,M,Владимир Потапов,B,,,
No,Raw,1,Stepan Kochkin,Pro Open,1986,Russia,112.3,,,,,210,225,235,235,,,,,235,125,M,Степан Кочкин,B,,,
No,Raw,2,Vladislav Novikov,Pro Open,1974,Russia,119.05,,,,,200,205,-210,205,,,,,205,125,M,Владислав Новиков,B,,,
No,Raw,3,Sergey Laskavyy,Pro Open,1974,Russia,125,,,,,190,200,-210,200,,,,,200,125,M,Сергей Ласкавый,B,,,
No,Raw,4,Igor Babushkin,Pro Open,1963,Russia,114.9,,,,,170,180,185,185,,,,,185,125,M,Игорь Бабушкин,B,,,
No,Raw,1,Aleksey Chernysh,Pro Masters 45-49,1967,Russia,111.8,,,,,175,-180,-182.5,175,,,,,175,125,M,Алексей Черныш,B,,,
No,Raw,1,Igor Babushkin,Pro Masters 50-54,1963,Russia,114.9,,,,,170,180,185,185,,,,,185,125,M,Игорь Бабушкин,B,,,
No,Raw,1,Sergey Trepakov,Pro Open,1962,Russia,125.45,,,,,160,165,170,170,,,,,170,140,M,Сергей Трепаков,B,,,
No,Raw,1,Sergey Trepakov,Pro Masters 50-54,1962,Russia,125.45,,,,,160,165,170,170,,,,,170,140,M,Сергей Трепаков,B,,,
No,Raw,1,Valentin Taran,Pro Open,1976,Russia,142.3,,,,,210,220,230.5,230.5,,,,,230.5,140+,M,Валентин Таран,B,,,
No,Raw,1,Mariya Klevakina,Pro Open,1984,Russia,48,,,,,50,52.5,-55,52.5,,,,,52.5,48,F,Мария Клевакина,B,,,
No,Raw,1,Mikhail Kozlov,Pro Teen 18-19,1994,Russia,40.3,,,,,60,-65,65,65,,,,,65,52,M,Михаил Козлов,B,,,
No,Raw,1,Dmitriy Kochiev,Pro Juniors 20-23,1992,Russia,51.1,,,,,60,65,-67.5,65,,,,,65,52,M,Дмитрий Кочиев,B,,,
No,Raw,2,Arsentiy Belnitskiy,Pro Juniors 20-23,1991,Russia,43.4,,,,,52.5,57.5,-62.5,57.5,,,,,57.5,52,M,Арсентий Бельницкий,B,,,
No,Raw,1,Dmitriy Finogenov,Pro Juniors 20-23,1993,Russia,55.7,,,,,-50,50,55,55,,,,,55,56,M,Дмитрий Финогенов,B,,,
No,Raw,1,Nikita Smyshlyaev,Pro Teen 18-19,1995,Russia,57.5,,,,,82.5,85,-87.5,85,,,,,85,60,M,Никита Смышляев,B,,,
No,Raw,DQ,Vitaliy Zhuravlev,Pro Juniors 20-23,1992,Russia,57.7,,,,,-80,,,,,,,,,60,M,Виталий Журавлев,B,,,
No,Raw,1,Vladimir Sergeev,Pro Open,1985,Russia,57.7,,,,,65,-70,-70,65,,,,,65,60,M,Владимир Сергеев,B,,,
No,Raw,2,Aleksandr Zdravomyslov,Pro Open,1980,Russia,57.5,,,,,55,-57.5,-60,55,,,,,55,60,M,Александр Здравомыслов,B,,,
No,Raw,1,Maksim Klimov,Pro Teen 16-17,1996,Russia,67.1,,,,,70,80,-90,80,,,,,80,67.5,M,Максим Климов,B,,,
No,Raw,2,Nikolay Borodinov,Pro Teen 16-17,1997,Russia,64.5,,,,,-62.5,62.5,-67.5,62.5,,,,,62.5,67.5,M,Николай Бородинов,B,,,
No,Raw,1,Aleksey Beznutrov,Pro Teen 18-19,1994,Russia,66.15,,,,,70,75,-77.5,75,,,,,75,67.5,M,Алексей Безнутров,B,,,
No,Raw,1,Igor Simanov,Pro Open,1980,Russia,61.8,,,,,97.5,-105,-105,97.5,,,,,97.5,67.5,M,Игорь Симанов,B,,,
No,Raw,2,Vitaliy Schipachev,Pro Open,1990,Russia,67.5,,,,,87.5,95,97.5,97.5,,,,,97.5,67.5,M,Виталий Щипачев,B,,,
No,Raw,3,Denis Churkin,Pro Open,1979,Russia,65.5,,,,,75,77.5,80,80,,,,,80,67.5,M,Денис Чуркин,B,,,
No,Raw,4,Stanislav Sharkunov,Pro Open,1987,Russia,64.45,,,,,62.5,67.5,-72.5,67.5,,,,,67.5,67.5,M,Станислав Шаркунов,B,,,
No,Raw,5,Sergey Tiunov,Pro Open,1989,Russia,63.6,,,,,57.5,62.5,-67.5,62.5,,,,,62.5,67.5,M,Сергей Тиунов,B,,,
No,Raw,1,Eduard Aleksanov,Pro Masters 40-44,1973,Russia,61.5,,,,,50,55,60,60,,,,,60,67.5,M,Эдуард Алексанов,B,,,
No,Raw,1,Evgeniy Kvashnin,Pro Teen 16-17,1997,Russia,72.2,,,,,70,80,-85,80,,,,,80,75,M,Евгений Квашнин,B,,,
No,Raw,1,Aleksey Murzin,Pro Juniors 20-23,1993,Russia,69.2,,,,,60,-65,65,65,,,,,65,75,M,Алексей Мурзин,B,,,
No,Raw,2,Ivan Pulin,Pro Juniors 20-23,1992,Russia,70.95,,,,,50,60,-65,60,,,,,60,75,M,Иван Пулин,B,,,
No,Raw,1,Dmitriy Emelyanov,Pro Open,1980,Russia,70.3,,,,,120,135,145,145,,,,,145,75,M,Дмитрий Емельянов,B,,,
No,Raw,2,Aleksey Knyazkin,Pro Open,1987,Russia,69.7,,,,,95,100,-102.5,100,,,,,100,75,M,Алексей Князькин,B,,,
No,Raw,3,Vladimir Stroganov,Pro Open,1974,Russia,71.4,,,,,95,100,-105,100,,,,,100,75,M,Владимир Строганов,B,,,
No,Raw,4,Dmitriy Ivanov #3,Pro Open,1989,Russia,72.25,,,,,90,92.5,95,95,,,,,95,75,M,Дмитрий Иванов,B,,,
No,Raw,5,Aleksey Uymin,Pro Open,1990,Russia,73.4,,,,,80,85,-87.5,85,,,,,85,75,M,Алексей Уймин,B,,,
No,Raw,1,Georgiy Koval,Pro Masters 60-64,1953,Russia,68,,,,,77.5,82.5,85,85,,,,,85,75,M,Георгий Коваль,B,,,
No,Raw,1,Petr Borodinov,Pro Teen 18-19,1994,Russia,81.7,,,,,115,-120,-120,115,,,,,115,82.5,M,Петр Бородинов,B,,,
No,Raw,1,Nikita Simonov,Pro Open,1989,Russia,78.55,,,,,110,-115,-115,110,,,,,110,82.5,M,Никита Симонов,B,,,
No,Raw,2,Pavel Zubov,Pro Open,1990,Russia,80.7,,,,,100,105,-107.5,105,,,,,105,82.5,M,Павел Зубов,B,,,
No,Raw,1,Timur Sordiya,Pro Teen 16-17,1996,Russia,88.1,,,,,35,37.5,40,40,,,,,40,90,M,Тимур Сордия,B,,,
No,Raw,1,Aleksandr Shilovskiy,Pro Open,1971,Russia,88.5,,,,,127.5,135,140,140,,,,,140,90,M,Александр Шиловский,B,,,
No,Raw,2,Kirill Isaev,Pro Open,1987,Russia,83.7,,,,,95,-100,100,100,,,,,100,90,M,Кирилл Исаев,B,,,
No,Raw,1,Aleksandr Shilovskiy,Pro Masters 40-44,1971,Russia,88.5,,,,,127.5,135,140,140,,,,,140,90,M,Александр Шиловский,B,,,
No,Raw,1,Evgeniy Pastukhov,Pro Open,1985,Russia,99.8,,,,,127.5,-132.5,132.5,132.5,,,,,132.5,100,M,Евгений Пастухов,B,,,
No,Raw,2,Andrey Ladeyschikov,Pro Open,1984,Russia,96.5,,,,,-125,125,130,130,,,,,130,100,M,Андрей Ладейщиков,B,,,
No,Raw,1,Sergey Mikushin,Pro Open,1984,Russia,104.8,,,,,117.5,122.5,125,125,,,,,125,110,M,Сергей Микушин,B,,,
No,Raw,DQ,Valentin Teterkin,Pro Open,1989,Russia,101.7,,,,,-115,,,,,,,,,110,M,Валентин Тетеркин,B,,,
No,Raw,1,Evgeniy Byzov,Pro Masters 40-44,1970,Russia,102.9,,,,,105,115,-132.5,115,,,,,115,110,M,Евгений Бызов,B,,,
Yes,Multi-ply,1,Ekaterina Romanova,Amateur Juniors 20-23,1990,Russia,43.6,,,,,75,77.5,-85,77.5,,,,,77.5,44,F,Екатерина Романова,B,,,
Yes,Multi-ply,DQ,Dmitriy Zyazin,Amateur Teen 16-17,1996,Russia,56,,,,,-110,-112.5,-115,,,,,,,56,M,Дмитрий Зязин,B,,,
Yes,Multi-ply,1,Boris Anferov,Amateur Open,1983,Russia,54.8,,,,,135,-145,-145,135,,,,,135,56,M,Борис Анферов,B,,,
Yes,Multi-ply,1,Vladislav Trubin,Amateur Juniors 20-23,1993,Russia,64.9,,,,,100,110,-120,110,,,,,110,67.5,M,Владислав Трубин,B,,,
Yes,Multi-ply,1,Oleg Mironov,Amateur Open,1970,Russia,63.2,,,,,-160,160,170,170,,,,,170,67.5,M,Олег Миронов,B,,,-175
Yes,Multi-ply,DQ,Andrey Kudryavtsev,Amateur Open,1983,Russia,67.1,,,,,-160,-160,-165,,,,,,,67.5,M,Андрей Кудрявцев,B,,,
Yes,Multi-ply,1,Oleg Mironov,Amateur Masters 40-44,1970,Russia,63.2,,,,,-160,160,170,170,,,,,170,67.5,M,Олег Миронов,B,,,-175
Yes,Multi-ply,1,Vyacheslav Kusochkin,Amateur Teen 16-17,1997,Russia,72,,,,,130,140,-150,140,,,,,140,75,M,Вячеслав Кусочкин,B,,,
Yes,Multi-ply,1,Denis Rudakov,Amateur Open,1981,Russia,74.4,,,,,-190,-195,195,195,,,,,195,75,M,Денис Рудаков,B,,,
Yes,Multi-ply,2,Aynur Gallyamov,Amateur Open,1976,Russia,73.3,,,,,180,-192.5,-195,180,,,,,180,75,M,Айнур Галлямов,B,,,
Yes,Multi-ply,3,Aleksey Turlanov,Amateur Open,1979,Russia,69.85,,,,,160,-170,,160,,,,,160,75,M,Алексей Турланов,B,,,
Yes,Multi-ply,DQ,Ilya Obolenskiy,Amateur Open,1982,Russia,74.5,,,,,-170,-170,-180,,,,,,,75,M,Илья Оболенский,B,,,
Yes,Multi-ply,1,Fanis Matyushev,Amateur Open,1985,Russia,80.95,,,,,160,170,-175,170,,,,,170,82.5,M,Фанис Матюшев,B,,,
Yes,Multi-ply,1,Valery Trubin,Amateur Masters 45-49,1968,Russia,82,,,,,150,-180,-180,150,,,,,150,82.5,M,Валерий Трубин,B,,,-180
Yes,Multi-ply,1,Vitaliy Aksenov,Amateur Open,1981,Russia,87.45,,,,,175,180,-190,180,,,,,180,90,M,Виталий Аксенов,B,,,
Yes,Multi-ply,DQ,Vyacheslav Myasnikov,Amateur Masters 40-44,1970,Russia,90,,,,,-130,,,,,,,,,90,M,Вячеслав Мясников,B,,,
Yes,Multi-ply,DQ,Nikita Khizev,Amateur Juniors 20-23,1994,Russia,95.3,,,,,-205,-205,-205,,,,,,,100,M,Никита Хизев,B,,,
Yes,Multi-ply,1,Maksim Takhtay,Amateur Open,1980,Russia,94.5,,,,,210,-220,220,220,,,,,220,100,M,Максим Тахтай,B,,,
Yes,Multi-ply,2,Valeriy Kazhaev,Amateur Open,1963,Russia,96.6,,,,,180,190,195,195,,,,,195,100,M,Валерий Кажаев,B,,,
Yes,Multi-ply,1,Valeriy Kazhaev,Amateur Masters 50-54,1963,Russia,96.6,,,,,180,190,195,195,,,,,195,100,M,Валерий Кажаев,B,,,
Yes,Multi-ply,1,Evgeniy Chernozilunnikov,Amateur Masters 55-59,1956,Russia,97.65,,,,,-150,150,-170,150,,,,,150,100,M,Евгений Чернозилунников,B,,,
Yes,Multi-ply,DQ,Aleksey Dyachenko,Amateur Open,1986,Russia,108.55,,,,,-190,-190,-202.5,,,,,,,110,M,Алексей Дьяченко,B,,,
Yes,Multi-ply,1,Vasiliy Kandaurov,Amateur Masters 45-49,1966,Russia,108.5,,,,,202.5,215,-225,215,,,,,215,110,M,Василий Кандауров,B,,,
Yes,Multi-ply,DQ,Evgeniy Formin,Amateur Masters 45-49,1967,Russia,110,,,,,-210,-210,-210,,,,,,,110,M,Евгений Формин,B,,,
Yes,Multi-ply,1,Salman Shamkhalov,Amateur Masters 60-64,1952,Russia,110,,,,,180,-195,195,195,,,,,195,110,M,Салман Шамхалов,B,,,
Yes,Multi-ply,DQ,Dmitriy Khanykov,Amateur Open,1983,Russia,119.9,,,,,-260,-260,-260,,,,,,,125,M,Дмитрий Ханыков,B,,,
Yes,Multi-ply,1,Andrey Kutlyaev,Amateur Open,1984,Russia,139.5,,,,,307.5,315,-326,315,,,,,315,140,M,Андрей Кутляев,B,,,
Yes,Multi-ply,2,Mikhail Nekrasov,Amateur Open,1969,Russia,138.8,,,,,-230,230,240,240,,,,,240,140,M,Михаил Некрасов,B,,,
No,Multi-ply,1,Stanislav Lukin,Pro Open,1989,Russia,74.7,,,,,155,165,-170,165,,,,,165,75,M,Станислав Лукин,B,,,
No,Multi-ply,1,Sergey Dergousov,Pro Open,1988,Russia,82.15,,,,,200,210,212.5,212.5,,,,,212.5,82.5,M,Сергей Дергоусов,B,,,
No,Multi-ply,2,Maksim Popov #4,Pro Open,1979,Russia,76.2,,,,,-210,210,-230,210,,,,,210,82.5,M,Максим Попов,B,,,
No,Multi-ply,3,Konstantin Dremenkov,Pro Open,1966,Belarus,82.5,,,,,195,205,-210,205,,,,,205,82.5,M,,B,,,
No,Multi-ply,1,Konstantin Dremenkov,Pro Masters 45-49,1966,Belarus,82.5,,,,,195,205,-210,205,,,,,205,82.5,M,,B,,,
No,Multi-ply,1,Vitaliy Bogorodtsev,Pro Masters 40-44,1974,Russia,89.4,,,,,200,210,-215,210,,,,,210,90,M,Виталий Богородцев,B,,,
No,Multi-ply,1,Boris Zhernovnikov,Pro Masters 45-49,1965,Russia,88.75,,,,,210,-245,-245,210,,,,,210,90,M,Борис Жерновников,B,,,
No,Multi-ply,1,Evgeniy Basov,Pro Masters 55-59,1955,Russia,88.9,,,,,160,170,-180.5,170,,,,,170,90,M,Евгений Басов,B,,,
No,Multi-ply,1,Egor Koykov,Pro Open,1985,Russia,99.8,,,,,-290,300,-315,300,,,,,300,100,M,Егор Койков,B,,,
No,Multi-ply,2,Igor Sergeev,Pro Open,1966,Russia,96.8,,,,,-290,-290,290,290,,,,,290,100,M,Игорь Сергеев,B,,,
No,Multi-ply,3,Aleksandr Evdokimov,Pro Open,1978,Russia,97.15,,,,,220,230,237.5,237.5,,,,,237.5,100,M,Александр Евдокимов,B,,,
No,Multi-ply,4,Konstantin Plakhuta,Pro Open,1986,Russia,99.1,,,,,200,-225,-225,200,,,,,200,100,M,Константин Плахута,B,,,
No,Multi-ply,1,Sergey Sapozhnikov,Pro Masters 40-44,1969,Russia,94.55,,,,,-220,220,235,235,,,,,235,100,M,Сергей Сапожников,B,,,
No,Multi-ply,1,Igor Sergeev,Pro Masters 45-49,1966,Russia,96.8,,,,,-290,-290,290,290,,,,,290,100,M,Игорь Сергеев,B,,,
No,Multi-ply,2,Sergey Konovalov #4,Pro Masters 45-49,1969,Russia,93.3,,,,,185,-192.5,192.5,192.5,,,,,192.5,100,M,Сергей Коновалов,B,,,
No,Multi-ply,1,Aleksandr Tretyakov,Pro Open,1967,Russia,109.8,,,,,-302.5,302.5,-310,302.5,,,,,302.5,110,M,Александр Третьяков,B,,,
No,Multi-ply,DQ,Ilya Pakhomov,Pro Open,1988,Russia,103.5,,,,,-300,-300,-302.5,,,,,,,110,M,Илья Пахомов,B,,,
No,Multi-ply,1,Dmitriy Sorokin,Pro Masters 40-44,1971,Russia,107.6,,,,,-255,255,-282.5,255,,,,,255,110,M,Дмитрий Сорокин,B,,,
No,Multi-ply,1,Vladimir Potapov,Pro Masters 55-59,1954,Russia,100.25,,,,,150,160,165,165,,,,,165,110,M,Владимир Потапов,B,,,
No,Multi-ply,DQ,Grigoriy Dvoretskikh,Pro Open,1976,Russia,122.6,,,,,-275,-275,-275,,,,,,,125,M,Григорий Дворецких,B,,,
No,Multi-ply,DQ,Aleksey Chernysh,Pro Masters 45-49,1967,Russia,111.8,,,,,-175,,,,,,,,,125,M,Алексей Черныш,B,,,
No,Multi-ply,1,Pavel Yagovkin,Pro Masters 50-54,1959,Russia,120.6,,,,,250,-260,-260,250,,,,,250,125,M,Павел Яговкин,B,,,
No,Multi-ply,1,Nikolay Pyshmintsev,Pro Open,1981,Russia,126,,,,,320,330,345,345,,,,,345,140,M,Николай Пышминцев,B,,,
No,Multi-ply,2,Kirill Efimov,Pro Open,1985,Russia,126,,,,,170,185,200,200,,,,,200,140,M,Кирилл Ефимов,B,,,
No,Multi-ply,DQ,Sergey Frolkov,Pro Masters 40-44,1969,Russia,128.75,,,,,-265,-265,-265,,,,,,,140,M,Сергей Фролков,B,,,
No,Multi-ply,1,Sergey Trepakov,Pro Masters 50-54,1962,Russia,125.45,,,,,200,205,210,210,,,,,210,140,M,Сергей Трепаков,B,,,
