Place,Name,CyrillicName,Country,BodyweightKg,Squat1Kg,Squat2Kg,Squat3Kg,Squat4Kg,Bench1Kg,Bench2Kg,Bench3Kg,Bench4Kg,Deadlift1Kg,Deadlift2Kg,Deadlift3Kg,Deadlift4Kg,TotalKg,WeightClassKg,Division,Sex,Event,Equipment,Best3SquatKg,Best3BenchKg,Best3DeadliftKg,BirthYear
1,Dmitro Zaets,Дмитро Заєць,Ukraine,54.7,115,122.5,127.5,,57.5,65,-67.5,,130,-142.5,-142.5,,322.5,56,Amateur Teen 13-15,M,SBD,Wraps,127.5,65,130,2002
1,Mikita Bublik,Микита Бублик,Ukraine,57.2,100,117.5,125,,70,75,80,,120,-135,135,,340,60,Amateur Teen 16-17,M,SBD,Wraps,125,80,135,1999
1,Mikhaylo Yurchenko,Михайло Юрченко,Ukraine,74,190,-205.5,205.5,,120.5,127.5,-132.5,,240,255,-260,,588,75,Amateur Teen 16-17,M,SBD,Wraps,205.5,127.5,255,1999
1,Aydin Gulamov,Айдин Гуламов,Ukraine,87.6,175,185,-190,,130,140,-145,,175,185,195,,520,90,Amateur Teen 16-17,M,SBD,Wraps,185,140,195,2000
1,Vladislav Berdishev,Владислав Бердишев,Ukraine,70,160,170,180,,80,90,-95,,150,170,-180,,440,75,Amateur Teen 18-19,M,SBD,Wraps,180,90,170,1998
1,Viktor Bordichev,Віктор Бордичев,Ukraine,79.8,160,170,185,,115,125,-132.5,,202.5,210,215,,525,82.5,Amateur Teen 18-19,M,SBD,Wraps,185,125,215,1997
2,Vladislav Sklyarov,Владислав Скляров,Ukraine,75.7,150,165,180,,100,112.5,117.5,,185,200,-205,,497.5,82.5,Amateur Teen 18-19,M,SBD,Wraps,180,117.5,200,1998
1,Yaroslav Kalugin,Ярослав Калугін,Ukraine,73.4,175,180,-185,,95,100,105,,215,225,-230,,510,75,Amateur Juniors 20-23,M,SBD,Wraps,180,105,225,1994
2,Vladislav Skopa,Владислав Скопа,Ukraine,70.8,-160,160,-170,,110,115,-120,,180,195,-200,,470,75,Amateur Juniors 20-23,M,SBD,Wraps,160,115,195,1994
3,Dmitro Dudnik,Дмитро Дудник,Ukraine,71.1,110,120,122.5,,80,90,92.5,,130,140,-145,,355,75,Amateur Juniors 20-23,M,SBD,Wraps,122.5,92.5,140,1994
1,Sergiy Chaliy,Сергій Чалий,Ukraine,80.6,180,190,-195,,105,112.5,115,,190,202.5,,,507.5,82.5,Amateur Juniors 20-23,M,SBD,Wraps,190,115,202.5,1993
1,Vitaliy Goncharov,Віталій Гончаров,Ukraine,87.6,-180,180,-200,,130,137.5,140,,220,235,242.5,,562.5,90,Amateur Juniors 20-23,M,SBD,Wraps,180,140,242.5,1994
2,Evgeniy Golub,Євгеній Голуб,Ukraine,87.5,195,210,220,,100,115,120,,190,210,220,,560,90,Amateur Juniors 20-23,M,SBD,Wraps,220,120,220,1996
3,Mikola Udovenko,Микола Удовенко,Ukraine,88.5,190,210,-220,,120,-125,125,,195,210,222.5,,557.5,90,Amateur Juniors 20-23,M,SBD,Wraps,210,125,222.5,1993
1,Dmitro Dranovskiy,Дмитро Драновський,Ukraine,96.1,200,215,230,,140,-150,-150,,205,215,222.5,,592.5,100,Amateur Juniors 20-23,M,SBD,Wraps,230,140,222.5,1995
2,Oleksiy Matlay,Олексій Матлай,Ukraine,93.3,200,-210,-210,,130,-142.5,142.5,,220,-240,-250,,562.5,100,Amateur Juniors 20-23,M,SBD,Wraps,200,142.5,220,1994
1,Sergiy Gaydrikh,Сергій Гайдрих,Ukraine,106.4,260,270,-280,,160,165,-170,,265,280,-300,,715,110,Amateur Juniors 20-23,M,SBD,Wraps,270,165,280,1993
2,Artem Cheberyak,Артем Чеберяк,Ukraine,104.2,150,160,170,,-110,110,115,,170,180,190,,475,110,Amateur Juniors 20-23,M,SBD,Wraps,170,115,190,1995
1,Dmitro Zaets,Дмитро Заєць,Ukraine,54.7,115,122.5,127.5,,57.5,65,-67.5,,130,-142.5,-142.5,,322.5,56,Amateur Open,M,SBD,Wraps,127.5,65,130,2002
1,Mikhaylo Yurchenko,Михайло Юрченко,Ukraine,74,190,-205.5,205.5,,120.5,127.5,-132.5,,240,255,-260,,588,75,Amateur Open,M,SBD,Wraps,205.5,127.5,255,1999
2,Vyacheslav Mironenko,Вячеслав Мироненко,Ukraine,73.7,-180,190,-202.5,,115,120,125,,230,245,-250,,560,75,Amateur Open,M,SBD,Wraps,190,125,245,1990
3,Vladislav Berdishev,Владислав Бердишев,Ukraine,70,160,170,180,,80,90,-95,,150,170,-180,,440,75,Amateur Open,M,SBD,Wraps,180,90,170,1998
4,Dmitro Dudnik,Дмитро Дудник,Ukraine,71.1,110,120,122.5,,80,90,92.5,,130,140,-145,,355,75,Amateur Open,M,SBD,Wraps,122.5,92.5,140,1994
1,Sergiy Bogaychuk,Сергій Богайчук,Ukraine,80,190,205,215,,130,137.5,-142.5,,220,-232.5,-232.5,,572.5,82.5,Amateur Open,M,SBD,Wraps,215,137.5,220,1985
2,Evgen Kitaygorodskiy,Євген Китайгородський,Ukraine,80.2,170,180,185,,130,-135,135,,210,220,222.5,,542.5,82.5,Amateur Open,M,SBD,Wraps,185,135,222.5,1989
3,Stanislav Sapon,Станіслав Сапон,Ukraine,80.7,160,-170,-180,,145,150,155,,190,202.5,-210,,517.5,82.5,Amateur Open,M,SBD,Wraps,160,155,202.5,1990
4,Volodimir Bushtruk,Володимир Буштрук,Ukraine,79,-200,-200,200,,125,130,-135,,170,180,-185,,510,82.5,Amateur Open,M,SBD,Wraps,200,130,180,1976
1,Leonid Andrievskiy,Леонід Андрієвський,Ukraine,88.8,200,210,-215,,167.5,175,180,-183,240,-257.5,257.5,,647.5,90,Amateur Open,M,SBD,Wraps,210,180,257.5,1989
2,Oleg Pustoviy,Олег Пустовий,Ukraine,89.1,230,240,-245,,145,152.5,157.5,,200,212.5,222.5,,620,90,Amateur Open,M,SBD,Wraps,240,157.5,222.5,1987
3,Sergiy Mazur,Сергій Мазур,Ukraine,85.2,180,190,200,,130,140,-145,,220,230,-240,,570,90,Amateur Open,M,SBD,Wraps,200,140,230,1981
4,Vitaliy Goncharov,Віталій Гончаров,Ukraine,87.6,-180,180,-200,,130,137.5,140,,220,235,242.5,,562.5,90,Amateur Open,M,SBD,Wraps,180,140,242.5,1994
5,Dmitro Bogomaz,Дмитро Богомаз,Ukraine,85.9,190,200,205,,120,130,135,,210,-220,-230,,550,90,Amateur Open,M,SBD,Wraps,205,135,210,1990
6,Sergiy Shevchenko,Сергій Шевченко,Ukraine,87.4,130,140,150,,95,102.5,-107.5,,160,-167.5,-167.5,,412.5,90,Amateur Open,M,SBD,Wraps,150,102.5,160,1973
1,Denis Petrov,Денис Петров,Ukraine,99.7,200,-220,230,,-145,145,155,,210,222.5,235,,620,100,Amateur Open,M,SBD,Wraps,230,155,235,1984
2,Sergiy Danilov,Сергій Данілов,Ukraine,99.9,190,-205,205,,155,160,165,,230,240,247.5,,617.5,100,Amateur Open,M,SBD,Wraps,205,165,247.5,1987
3,Maksim Zhuravel,Максим Журавель,Ukraine,96.9,195,205,210,,135,142.5,147.5,,210,220,-225,,577.5,100,Amateur Open,M,SBD,Wraps,210,147.5,220,1987
4,Viktor Telyatnik,Віктор Телятник,Ukraine,95.9,-180,-180,180,,122.5,-127.5,127.5,,210,217.5,-222.5,,525,100,Amateur Open,M,SBD,Wraps,180,127.5,217.5,1988
1,Sergiy Bessel,Сергій Бессель,Ukraine,107.3,230,-250,-260,,175,185,190,,240,-255,255,,675,110,Amateur Open,M,SBD,Wraps,230,190,255,1984
2,Anton Fedichev,Антон Федічев,Ukraine,105.3,160,165,170,,125,130,-140,,-170,170,185,,485,110,Amateur Open,M,SBD,Wraps,170,130,185,1982
1,Oleksandr Kalkutin,Олександр Калкутін,Ukraine,122.9,190,220,230,,140,-150,-150,,180,210,-230,,580,125,Amateur Open,M,SBD,Wraps,230,140,210,1965
2,Danilo Udovik,Данило Удовик,Ukraine,110.6,180,195,-202.5,,120,130,135,,190,205,215,,545,125,Amateur Open,M,SBD,Wraps,195,135,215,1992
1,Evgen Gavrilin,Євген Гаврилін,Ukraine,148.5,230,240,250,,180,190,-200,,250,-265,,,690,140+,Amateur Open,M,SBD,Wraps,250,190,250,1982
2,Oleg Brazhnik,Олег Бражник,Ukraine,157.4,150,170,190,,110,120,-125,,170,190,200,,510,140+,Amateur Open,M,SBD,Wraps,190,120,200,1970
1,Sergiy Mazur,Сергій Мазур,Ukraine,85.2,180,190,200,,130,140,-145,,220,230,-240,,570,90,Amateur Submasters 33-39,M,SBD,Wraps,200,140,230,1981
1,Volodimir Bushtruk,Володимир Буштрук,Ukraine,79,-200,-200,200,,125,130,-135,,170,180,-185,,510,82.5,Amateur Masters 40-44,M,SBD,Wraps,200,130,180,1976
1,Vitaliy Poryadkov,Віталій Порядков,Ukraine,86.5,130,140,-160,,125,132.5,137.5,,180,195,-210,,472.5,90,Amateur Masters 40-44,M,SBD,Wraps,140,137.5,195,1972
2,Sergiy Shevchenko,Сергій Шевченко,Ukraine,87.4,130,140,150,,95,102.5,-107.5,,160,-167.5,-167.5,,412.5,90,Amateur Masters 40-44,M,SBD,Wraps,150,102.5,160,1973
1,Dmitro Strelnikov,Дмитро Стрельніков,Ukraine,98.6,140,-150,150,,120,125,-127.5,,170,180,195,,470,100,Amateur Masters 40-44,M,SBD,Wraps,150,125,195,1975
1,Sergiy Bran,Сергій Бран,Ukraine,86,120,130,140,,105,115,117.5,,120,140,-150,,397.5,90,Amateur Masters 45-49,M,SBD,Wraps,140,117.5,140,1970
1,Valentin Lepskiy,Валентин Лепський,Ukraine,101.6,140,155,165,,110,-120,-120,,160,175,190,,465,110,Amateur Masters 45-49,M,SBD,Wraps,165,110,190,1969
1,Oleg Brazhnik,Олег Бражник,Ukraine,157.4,150,170,190,,110,120,-125,,170,190,200,,510,140+,Amateur Masters 45-49,M,SBD,Wraps,190,120,200,1970
1,Oleksandr Kalkutin,Олександр Калкутін,Ukraine,122.9,190,220,230,,140,-150,-150,,180,210,-230,,580,125,Amateur Masters 50-54,M,SBD,Wraps,230,140,210,1965
1,Volodimir Mushchinin,Володимир Мущінін,Ukraine,93.7,120,140,,,70,-80,-80,,130,160,,,370,100,Amateur Masters 55-59,M,SBD,Wraps,140,70,160,1961
1,Stanislav Sapon,Станіслав Сапон,Ukraine,80.7,160,-170,-180,,145,150,155,,190,202.5,-210,,517.5,82.5,Amateur Military/Fire/Police,M,SBD,Wraps,160,155,202.5,1990
1,Maksim Zhuravel,Максим Журавель,Ukraine,96.9,195,205,210,,135,142.5,147.5,,210,220,-225,,577.5,100,Amateur Military/Fire/Police,M,SBD,Wraps,210,147.5,220,1987
1,Svitlana Bilokon,Світлана Білоконь,Ukraine,51.6,-90,90,100,,37.5,40,-42.5,,95,105,-115,,245,52,Amateur Juniors 20-23,F,SBD,Wraps,100,40,105,1993
1,Valeriya Malcheva,Валерія Мальчева,Ukraine,56,75,80,-85,,-40,40,-45,,75,82.5,87.5,,207.5,56,Amateur Juniors 20-23,F,SBD,Wraps,80,40,87.5,1993
1,Oksana Prikhodko,Оксана Приходько,Ukraine,52,-120,130,145,,85,-90,,,150,160,-165,,390,52,Amateur Open,F,SBD,Wraps,145,85,160,1991
2,Olga Rumyantseva,Ольга Румянцева,Ukraine,49.9,-115,120,127.5,,57.5,-62.5,62.5,,97.5,102.5,107.5,,297.5,52,Amateur Open,F,SBD,Wraps,127.5,62.5,107.5,1985
3,Yuliya Bogdan,Юлія Богдан,Ukraine,51,90,-100,100,,-45,-45,45,,95,107.5,-110,,252.5,52,Amateur Open,F,SBD,Wraps,100,45,107.5,1987
4,Svitlana Bilokon,Світлана Білоконь,Ukraine,51.6,-90,90,100,,37.5,40,-42.5,,95,105,-115,,245,52,Amateur Open,F,SBD,Wraps,100,40,105,1993
1,Darina Kovalova,Дарина Ковальова,Ukraine,55.9,115,125,135,,60,-62.5,62.5,,150,160,162.5,,360,56,Amateur Open,F,SBD,Wraps,135,62.5,162.5,1990
2,Valeriya Sukonkina,Валерія Суконкіна,Ukraine,54.3,100,105,110,,40,-45,45,,110,-115,115,,270,56,Amateur Open,F,SBD,Wraps,110,45,115,1983
3,Viktoriya Riznik,Вікторія Різник,Ukraine,53.7,85,-95,97.5,,40,-47.5,-47.5,,115,-125,-125,,252.5,56,Amateur Open,F,SBD,Wraps,97.5,40,115,1998
4,Lyana Yakimenko,Ляна Якименко,Ukraine,53.5,65,70,-75,,45,47.5,-50,,72.5,-77.5,77.5,,195,56,Amateur Open,F,SBD,Wraps,70,47.5,77.5,1992
DQ,Olga Skorokhodova,Ольга Скороходова,Ukraine,55.5,-132.5,-132.5,-132.5,,-60,-65,-65,,-110,-120,-127.5,,,56,Amateur Open,F,SBD,Wraps,,,,1980
1,Kapitalina Gushchina,Капітоліна Гущина,Ukraine,57.3,85,-92.5,-92.5,,45,50,-52.5,,85,-100,-100,,220,60,Amateur Open,F,SBD,Wraps,85,50,85,1982
2,Yuliya Chumaeva,Юлія Чумаєва,Ukraine,58.4,60,67.5,72.5,,35,40,-42.5,,85,-95,95,,207.5,60,Amateur Open,F,SBD,Wraps,72.5,40,95,1973
3,Dina Eremeeva,Діна Єремеєва,Ukraine,59.1,40,45,50,,-25,25,-27.5,,40,50,60,,135,60,Amateur Open,F,SBD,Wraps,50,25,60,1985
1,Valeriya Razumenko,Валерія Разуменко,Ukraine,64.1,110,117.5,125,,57.5,-60,-60,,122.5,127.5,135,,317.5,67.5,Amateur Open,F,SBD,Wraps,125,57.5,135,1992
2,Evgeniya Moskalenko,Євгенія Москаленко,Ukraine,64.6,110,120,-125,,57.5,60,62.5,,117.5,125,-132.5,,307.5,67.5,Amateur Open,F,SBD,Wraps,120,62.5,125,1982
3,Oksana Muzika,Оксана Музика,Ukraine,66.5,90,-100,100,,60,65,-67.5,,115,-120,-120,,280,67.5,Amateur Open,F,SBD,Wraps,100,65,115,1969
4,Kristina Matveeva,Крістіна Матвєєва,Ukraine,66.9,70,77.5,82.5,,40,-42.5,-42.5,,65,70,75,,197.5,67.5,Amateur Open,F,SBD,Wraps,82.5,40,75,1988
1,Katerina Vnukova,Катерина Внукова,Ukraine,50,57.5,62.5,-67.5,,30,32.5,35,,60,65,-67.5,,162.5,52,Amateur Submasters 33-39,F,SBD,Wraps,62.5,35,65,1982
DQ,Olga Skorokhodova,Ольга Скороходова,Ukraine,55.5,-132.5,-132.5,-132.5,,-60,-65,-65,,-110,-120,-127.5,,,56,Amateur Submasters 33-39,F,SBD,Wraps,,,,1980
1,Kapitalina Gushchina,Капітоліна Гущина,Ukraine,57.3,85,-92.5,-92.5,,45,50,-52.5,,85,-100,-100,,220,60,Amateur Submasters 33-39,F,SBD,Wraps,85,50,85,1982
1,Evgeniya Moskalenko,Євгенія Москаленко,Ukraine,64.6,110,120,-125,,57.5,60,62.5,,117.5,125,-132.5,,307.5,67.5,Amateur Submasters 33-39,F,SBD,Wraps,120,62.5,125,1982
1,Olena Levada,Олена Левада,Ukraine,54,-90,90,100,,55,57.5,60,,100,110,,,270,56,Amateur Masters 40-44,F,SBD,Wraps,100,60,110,1975
1,Yuliya Chumaeva,Юлія Чумаєва,Ukraine,58.4,60,67.5,72.5,,35,40,-42.5,,85,-95,95,,207.5,60,Amateur Masters 40-44,F,SBD,Wraps,72.5,40,95,1973
1,Oksana Muzika,Оксана Музика,Ukraine,66.5,90,-100,100,,60,65,-67.5,,115,-120,-120,,280,67.5,Amateur Masters 45-49,F,SBD,Wraps,100,65,115,1969
1,Olga Pisareva,Ольга Писарєва,Ukraine,63.9,50,55,60,,47.5,-52.5,-52.5,,70,75,82.5,,190,67.5,Amateur Masters 60-64,F,SBD,Wraps,60,47.5,82.5,1956
DQ,Anastasiya Martim'Yanova,Анастасія Мартим'Янова,Ukraine,78.8,-122.5,-125,-125,,-55,,,,-125,,,,,82.5,Amateur Teen 18-19,F,SBD,Multi-ply,,,,1997
1,Yan Alpenizde,Ян Альпенізде,Ukraine,65.5,-150,150,-165,,80,90,-100,,150,165,177.5,,417.5,67.5,Pro Teen 18-19,M,SBD,Wraps,150,90,177.5,1997
1,Maksim Samoylenko,Максим Самойленко,Ukraine,96.2,-250,-250,265,-270,160,170,175,-180,290,-305,305,,745,100,Pro Teen 18-19,M,SBD,Wraps,265,175,305,1998
2,Sergiy Simanovich,Сергій Сіманович,Ukraine,98.7,-240,245,-250,,140,150,157.5,,240,250,260,,662.5,100,Pro Teen 18-19,M,SBD,Wraps,245,157.5,260,1997
1,Oleksandr Golovatskiy,Олександр Головацький,Ukraine,80,190,200,210,,135,142.5,147.5,,210,-220,220,,577.5,82.5,Pro Juniors 20-23,M,SBD,Wraps,210,147.5,220,1993
1,Maksim Ribalka,Максим Рибалка,Ukraine,99.2,280,287.5,292.5,,-150,150,-155,,280,-290,-290,,722.5,100,Pro Juniors 20-23,M,SBD,Wraps,292.5,150,280,1993
2,Pavlo Grabar,Павло Грабар,Ukraine,96.3,230,250,260,,150,160,167.5,,260,280,290,,717.5,100,Pro Juniors 20-23,M,SBD,Wraps,260,167.5,290,1995
3,Dmitro Kotovskiy,Дмитро Котовський,Ukraine,96.2,-210,215,225,,152.5,160,170,,230,250,-270,,645,100,Pro Juniors 20-23,M,SBD,Wraps,225,170,250,1994
1,Yaroslav Apalkov,Ярослав Апальков,Ukraine,158,300,,,,200,,,,300,,,,800,140+,Pro Juniors 20-23,M,SBD,Wraps,300,200,300,1993
1,Glib Orlovskiy,Гліб Орловський,Ukraine,53.3,110,120,130,,70,75,-82.5,,110,120,130,,335,56,Pro Open,M,SBD,Wraps,130,75,130,1987
1,Denis Arkhipov #2,Денис Архіпов,Ukraine,63.5,-110,-110,110,,60,65,-70,,100,110,115,,290,67.5,Pro Open,M,SBD,Wraps,110,65,115,1984
1,Dmitro Kondratenko,Дмитро Кондратенко,Ukraine,71.6,195,-205,210,,120,125,132.5,,180,195,205,,547.5,75,Pro Open,M,SBD,Wraps,210,132.5,205,1986
1,Artur Dubinin,Артур Дубінін,Ukraine,78.3,180,195,210,,130,140,145,,210,220,-230,,575,82.5,Pro Open,M,SBD,Wraps,210,145,220,1987
1,Oleksandr Shapovalov,Олександр Шаповалов,Ukraine,89.5,290,-300,300,,190,-200,-200,,260,270,-280,,760,90,Pro Open,M,SBD,Wraps,300,190,270,1990
2,Yaroslav Litvinenko,Ярослав Литвиненко,Ukraine,87.4,240,-255,257.5,,150,157.5,-160,,260,-280,-280,,675,90,Pro Open,M,SBD,Wraps,257.5,157.5,260,1976
1,Oleg Khristoforov,Олег Христофоров,Ukraine,99.1,-330,-350,350,-351,180,-187.5,187.5,,260,275,285,,822.5,100,Pro Open,M,SBD,Wraps,350,187.5,285,1975
2,Maksim Samoylenko,Максим Самойленко,Ukraine,96.2,-250,-250,265,-270,160,170,175,-180,290,-305,305,,745,100,Pro Open,M,SBD,Wraps,265,175,305,1998
3,Pavlo Grabar,Павло Грабар,Ukraine,96.3,230,250,260,,150,160,167.5,,260,280,290,,717.5,100,Pro Open,M,SBD,Wraps,260,167.5,290,1995
4,Oleg Cherchel,,Moldova,97.4,210,-230,-240,,110,120,,,180,-200,200,,530,100,Pro Open,M,SBD,Wraps,210,120,200,1978
5,Igor Dolzhenko,Ігор Долженко,Ukraine,96.2,130,140,150,,-100,100,-105,,140,155,170,,420,100,Pro Open,M,SBD,Wraps,150,100,170,1961
1,Yaroslav Apalkov,Ярослав Апальков,Ukraine,158,300,,,,200,,,,300,,,,800,140+,Pro Open,M,SBD,Wraps,300,200,300,1993
1,Andriy Bikov,Андрій Биков,Ukraine,69.7,180,190,-200,,140,-150,-150,,180,190,-200,,520,75,Pro Submasters 33-39,M,SBD,Wraps,190,140,190,1982
1,Vladislav Ovcharenko,Владислав Овчаренко,Ukraine,96.4,190,200,210,,135,142.5,-150,,227.5,240,,,592.5,100,Pro Submasters 33-39,M,SBD,Wraps,210,142.5,240,1978
2,Oleg Cherchel,,Moldova,97.4,210,-230,-240,,110,120,,,180,-200,200,,530,100,Pro Submasters 33-39,M,SBD,Wraps,210,120,200,1978
DQ,Vitaliy Chunikhovskiy,,Ukraine,107.4,-280,,,,-182.5,-182.5,-187.5,,-250,,,,,110,Pro Submasters 33-39,M,SBD,Wraps,,,,1983
1,Yaroslav Litvinenko,Ярослав Литвиненко,Ukraine,87.4,240,-255,257.5,,150,157.5,-160,,260,-280,-280,,675,90,Pro Masters 40-44,M,SBD,Wraps,257.5,157.5,260,1976
1,Oleg Khristoforov,Олег Христофоров,Ukraine,99.1,-330,-350,350,-351,180,-187.5,187.5,,260,275,285,,822.5,100,Pro Masters 40-44,M,SBD,Wraps,350,187.5,285,1975
2,Anton Kozlov,Антон Козлов,Ukraine,91.5,130,145,150,,120,-130,-130,,150,170,,,440,100,Pro Masters 40-44,M,SBD,Wraps,150,120,170,1975
1,Andriy Golodyuk,Андрій Голодюк,Ukraine,102,220,240,250,,180,190,-195,,200,-225,,,640,110,Pro Masters 40-44,M,SBD,Wraps,250,190,200,1973
1,Igor Dolzhenko,Ігор Долженко,Ukraine,96.2,130,140,150,,-100,100,-105,,140,155,170,,420,100,Pro Masters 55-59,M,SBD,Wraps,150,100,170,1961
1,Dmitro Kondratenko,Дмитро Кондратенко,Ukraine,71.6,195,-205,210,,120,125,132.5,,180,195,205,,547.5,75,Pro Military/Fire/Police,M,SBD,Wraps,210,132.5,205,1986
1,Oleksandr Golovatskiy,Олександр Головацький,Ukraine,80,190,200,210,,135,142.5,147.5,,210,-220,220,,577.5,82.5,Pro Military/Fire/Police,M,SBD,Wraps,210,147.5,220,1993
1,Vitaliya Tonisheva,Віталія Тонишева,Ukraine,49.4,50,67.5,-80,,-32.5,35,-37.5,,80,90,105,,207.5,52,Pro Open,F,SBD,Wraps,67.5,35,105,1990
1,Oleksandra Dubinina,Олександра Дубініна,Ukraine,76.3,110,125,135,,70,75,80,,120,135,150,,365,82.5,Pro Open,F,SBD,Wraps,135,80,150,1986
1,Andriy Voronovskiy,Андрій Вороновський,Ukraine,99,240,260,-280,,-180,-180,180,,220,-240,,,660,100,Pro Open,M,SBD,Multi-ply,260,180,220,1986
1,Dmitro Medyanik,Дмитро Медяник,Ukraine,114.5,-330,-340,340,,-230,230,240,,210,230,250,,830,125,Pro Masters 40-44,M,SBD,Multi-ply,340,240,250,1973
1,Miron Goncharov,Мирон Гончаров,Ukraine,32.9,,,,,25,27.5,-30,,,,,,27.5,44,Amateur Youth 8,M,B,Raw,,27.5,,2008
1,Dmitro Zaets,Дмитро Заєць,Ukraine,54.7,,,,,57.5,65,-67.5,,,,,,65,56,Amateur Teen 13-15,M,B,Raw,,65,,2002
2,Mikhaylo Mayboroda,Михайло Майборода,Ukraine,53.3,,,,,-30,30,-35,,,,,,30,56,Amateur Teen 13-15,M,B,Raw,,30,,2001
1,Oleksandr Ugrin,Олександр Угрін,Ukraine,66.1,,,,,-90,90,95,,,,,,95,67.5,Amateur Teen 13-15,M,B,Raw,,95,,2001
2,Denis Okhrimenko,Денис Охріменко,Ukraine,65.9,,,,,65,-75,75,,,,,,75,67.5,Amateur Teen 13-15,M,B,Raw,,75,,2001
1,Oleksandr Ovcharenko,Олександр Овчаренко,Ukraine,72.8,,,,,87.5,92.5,-95,,,,,,92.5,75,Amateur Teen 13-15,M,B,Raw,,92.5,,2001
2,Danilo Klyuchik,Данило Ключик,Ukraine,73.5,,,,,77.5,82.5,85,,,,,,85,75,Amateur Teen 13-15,M,B,Raw,,85,,2000
1,Igor Starchenko,Ігор Старченко,Ukraine,81.7,,,,,100,-110,,,,,,,100,82.5,Amateur Teen 13-15,M,B,Raw,,100,,2001
1,Pavlo Garkaviy,Павло Гарькавий,Ukraine,50.6,,,,,82.5,85,92.5,,,,,,92.5,52,Amateur Teen 16-17,M,B,Raw,,92.5,,1999
1,Oleksandr Sitko,Олександр Ситько,Ukraine,60,,,,,-77.5,77.5,-82.5,,,,,,77.5,60,Amateur Teen 16-17,M,B,Raw,,77.5,,1999
1,Eduard Shpirniy,Едуард Шпірний,Ukraine,64.3,,,,,-85,85,92.5,,,,,,92.5,67.5,Amateur Teen 16-17,M,B,Raw,,92.5,,1999
2,Maksim Sukhov,Максим Сухов,Ukraine,63.1,,,,,77.5,80,-82.5,,,,,,80,67.5,Amateur Teen 16-17,M,B,Raw,,80,,2000
1,Dmitro Derev'Yanko,Дмитро Дерев'Янко,Ukraine,82.4,,,,,125,-132.5,132.5,,,,,,132.5,82.5,Amateur Teen 16-17,M,B,Raw,,132.5,,1999
1,Aydin Gulamov,Айдин Гуламов,Ukraine,87.6,,,,,130,140,-145,,,,,,140,90,Amateur Teen 16-17,M,B,Raw,,140,,2000
2,Ruslan Prokhorenko,Руслан Прохоренко,Ukraine,87.7,,,,,115,120,125,,,,,,125,90,Amateur Teen 16-17,M,B,Raw,,125,,1999
3,Igor Novitskiy,Ігор Новицький,Ukraine,86.1,,,,,80,100,-120,,,,,,100,90,Amateur Teen 16-17,M,B,Raw,,100,,1999
1,Artem Bagatskiy,Артем Багацький,Ukraine,50.7,,,,,82.5,87.5,-92.5,,,,,,87.5,52,Amateur Teen 18-19,M,B,Raw,,87.5,,1997
1,Illya Nosenok,Ілля Носенок,Ukraine,58.7,,,,,97.5,105,-112.5,,,,,,105,60,Amateur Teen 18-19,M,B,Raw,,105,,1997
1,Pavlo Pidtoptaniy,Павло Підтоптаний,Ukraine,71.2,,,,,117.5,122.5,-127.5,,,,,,122.5,75,Amateur Teen 18-19,M,B,Raw,,122.5,,1997
2,Miroslav Dryagin,Мирослав Дрягін,Ukraine,70.3,,,,,110,115,-117.5,,,,,,115,75,Amateur Teen 18-19,M,B,Raw,,115,,1997
1,Vladislav Khomenko,Владислав Хоменко,Ukraine,83.4,,,,,120,132.5,140,,,,,,140,90,Amateur Teen 18-19,M,B,Raw,,140,,1997
1,Andriy Plokhoy,Андрій Плохой,Ukraine,65.6,,,,,-110,110,-115,,,,,,110,67.5,Amateur Juniors 20-23,M,B,Raw,,110,,1995
2,Artur Bikov,Артур Биков,Ukraine,63.4,,,,,-100,-105,105,,,,,,105,67.5,Amateur Juniors 20-23,M,B,Raw,,105,,1993
1,Oleksiy Borisov,Олексій Борисов,Ukraine,72.1,,,,,120,127.5,132.5,,,,,,132.5,75,Amateur Juniors 20-23,M,B,Raw,,132.5,,1995
1,Dmitro Goryaynov,Дмитро Горяйнов,Ukraine,81.6,,,,,117.5,-125,125,,,,,,125,82.5,Amateur Juniors 20-23,M,B,Raw,,125,,1995
DQ,Oleksandr Grebenkov,Олександр Гребеньков,Ukraine,76.8,,,,,-120,-125,-125,,,,,,,82.5,Amateur Juniors 20-23,M,B,Raw,,,,1993
1,David Surkov,Давид Сурков,Ukraine,87.1,,,,,145,152.5,-157.5,,,,,,152.5,90,Amateur Juniors 20-23,M,B,Raw,,152.5,,1995
2,Sergiy Derevyanko,Сергій Дерев'янко,Ukraine,89.4,,,,,140,150,-157.5,,,,,,150,90,Amateur Juniors 20-23,M,B,Raw,,150,,1994
3,Evgeniy Golub,Євгеній Голуб,Ukraine,87.5,,,,,100,115,120,,,,,,120,90,Amateur Juniors 20-23,M,B,Raw,,120,,1996
4,Sergiy Sokolskiy,Сергій Сокольський,Ukraine,89.7,,,,,120,-130,-130,,,,,,120,90,Amateur Juniors 20-23,M,B,Raw,,120,,1996
1,Anatoliy Klimenko,Анатолій Клименко,Ukraine,98.7,,,,,120,125,130,,,,,,130,100,Amateur Juniors 20-23,M,B,Raw,,130,,1996
DQ,Mark Berdnikov,Марк Бердніков,Ukraine,93.3,,,,,-110,-110,-110,,,,,,,100,Amateur Juniors 20-23,M,B,Raw,,,,1996
1,Georgiy Sidorin,Георгій Сидорин,Ukraine,103,,,,,140,145,-155,,,,,,145,110,Amateur Juniors 20-23,M,B,Raw,,145,,1996
1,Dmitro Gosman,Дмитро Госман,Ukraine,119.4,,,,,185,192.5,-197.5,,,,,,192.5,125,Amateur Juniors 20-23,M,B,Raw,,192.5,,1993
1,Miron Goncharov,Мирон Гончаров,Ukraine,32.9,,,,,25,27.5,-30,,,,,,27.5,44,Amateur Open,M,B,Raw,,27.5,,2008
1,Pavlo Garkaviy,Павло Гарькавий,Ukraine,50.6,,,,,82.5,85,92.5,,,,,,92.5,52,Amateur Open,M,B,Raw,,92.5,,1999
1,Dmitro Zaets,Дмитро Заєць,Ukraine,54.7,,,,,57.5,65,-67.5,,,,,,65,56,Amateur Open,M,B,Raw,,65,,2002
2,Mikhaylo Mayboroda,Михайло Майборода,Ukraine,53.3,,,,,-30,30,-35,,,,,,30,56,Amateur Open,M,B,Raw,,30,,2001
1,Anton Ishchenko,Антон Іщенко,Ukraine,58,,,,,95,102.5,-107.5,,,,,,102.5,60,Amateur Open,M,B,Raw,,102.5,,1990
1,Stanislav Sheyko,Станислав Шейко,Ukraine,66.6,,,,,117.5,125,-130,,,,,,125,67.5,Amateur Open,M,B,Raw,,125,,1986
2,Andriy Plokhoy,Андрій Плохой,Ukraine,65.6,,,,,-110,110,-115,,,,,,110,67.5,Amateur Open,M,B,Raw,,110,,1995
3,Oleksandr Ugrin,Олександр Угрін,Ukraine,66.1,,,,,-90,90,95,,,,,,95,67.5,Amateur Open,M,B,Raw,,95,,2001
1,Oleksiy Borisov,Олексій Борисов,Ukraine,72.1,,,,,120,127.5,132.5,,,,,,132.5,75,Amateur Open,M,B,Raw,,132.5,,1995
2,Sergiy Goncharuk,Сергій Гончарук,Ukraine,72,,,,,125,130,-135,,,,,,130,75,Amateur Open,M,B,Raw,,130,,1978
3,Oleg Kirichenko,Олег Кириченко,Ukraine,71.1,,,,,117.5,125,127.5,,,,,,127.5,75,Amateur Open,M,B,Raw,,127.5,,1990
4,Pavlo Pidtoptaniy,Павло Підтоптаний,Ukraine,71.2,,,,,117.5,122.5,-127.5,,,,,,122.5,75,Amateur Open,M,B,Raw,,122.5,,1997
5,Oleksandr Danilko,Олександр Данилко,Ukraine,71.7,,,,,-105,105,110,,,,,,110,75,Amateur Open,M,B,Raw,,110,,1983
1,Stanislav Sapon,Станіслав Сапон,Ukraine,80.7,,,,,145,150,155,,,,,,155,82.5,Amateur Open,M,B,Raw,,155,,1990
2,Mikhaylo Kharitonov,Михайло Харитонов,Ukraine,77,,,,,140,-145,-145,,,,,,140,82.5,Amateur Open,M,B,Raw,,140,,1982
3,Taras Smachilo,Тарас Смачило,Ukraine,79.7,,,,,135,140,-142.5,,,,,,140,82.5,Amateur Open,M,B,Raw,,140,,1987
4,Denis Filaretov,Денис Філаретов,Ukraine,79.9,,,,,-140,140,-150,,,,,,140,82.5,Amateur Open,M,B,Raw,,140,,1990
5,Oleksandr Tovkach,Олександр Товкач,Ukraine,82.5,,,,,-125,125,130,,,,,,130,82.5,Amateur Open,M,B,Raw,,130,,1990
6,Mikhaylo Semiovtsa,Михайло Семіовца,Ukraine,81.8,,,,,117.5,122.5,-132.5,,,,,,122.5,82.5,Amateur Open,M,B,Raw,,122.5,,1986
1,Leonid Andrievskiy,Леонід Андрієвський,Ukraine,88.8,,,,,167.5,175,180,-183,,,,,180,90,Amateur Open,M,B,Raw,,180,,1989
2,Danilo Shmatovskiy,Данило Шматовський,Ukraine,86,,,,,160,167.5,172.5,,,,,,172.5,90,Amateur Open,M,B,Raw,,172.5,,1983
3,Oleg Shkatula,Олег Шкатула,Ukraine,86.7,,,,,145,155,157.5,,,,,,157.5,90,Amateur Open,M,B,Raw,,157.5,,1984
4,Oleg Viksich,Олег Віксіч,Ukraine,88.8,,,,,-150,150,-157.5,,,,,,150,90,Amateur Open,M,B,Raw,,150,,1989
5,Oleksandr Klimenko #1,Олександр Кліменко,Ukraine,84.3,,,,,145,-150,-155,,,,,,145,90,Amateur Open,M,B,Raw,,145,,1990
6,Kostyantin Paustovskiy,Костянтин Паустовський,Ukraine,85.9,,,,,140,145,-150,,,,,,145,90,Amateur Open,M,B,Raw,,145,,1992
7,Oleg Pustoviy,Олег Пустовий,Ukraine,89.1,,,,,145,-160,-160,,,,,,145,90,Amateur Open,M,B,Raw,,145,,1987
8,Sergiy Mazur,Сергій Мазур,Ukraine,85.2,,,,,130,140,-145,,,,,,140,90,Amateur Open,M,B,Raw,,140,,1981
9,Oleksiy Bilous,Олексій Білоус,Ukraine,84.7,,,,,135,-142.5,-150,,,,,,135,90,Amateur Open,M,B,Raw,,135,,1992
10,Dmitro Bogomaz,Дмитро Богомаз,Ukraine,85.9,,,,,120,130,135,,,,,,135,90,Amateur Open,M,B,Raw,,135,,1990
11,Oleksandr Malovitsya,Олександр Маловиця,Ukraine,87.9,,,,,120,130,-140,,,,,,130,90,Amateur Open,M,B,Raw,,130,,1991
1,V'yacheslav Telyura,В'ячеслав Телюра,Ukraine,99.4,,,,,182.5,-190,-190,,,,,,182.5,100,Amateur Open,M,B,Raw,,182.5,,1967
2,Artem Kvashnin,Артем Квашнін,Ukraine,98.3,,,,,155,167.5,175,,,,,,175,100,Amateur Open,M,B,Raw,,175,,1985
3,Igor Ilchenko,Ігор Ільченко,Ukraine,98,,,,,170,-180,-180,,,,,,170,100,Amateur Open,M,B,Raw,,170,,1981
4,Volodimir Brizhenyuk,Володимир Бриженюк,Ukraine,98.2,,,,,162.5,167.5,170,,,,,,170,100,Amateur Open,M,B,Raw,,170,,1987
5,Artem Khlopenko,Артем Хлопенко,Ukraine,97.6,,,,,150,160,-167.5,,,,,,160,100,Amateur Open,M,B,Raw,,160,,1989
6,Oleksandr Rozhko,Олександр Рожко,Ukraine,91.7,,,,,140,145,-150,,,,,,145,100,Amateur Open,M,B,Raw,,145,,1981
1,Sergiy Bessel,Сергій Бессель,Ukraine,107.3,,,,,175,185,190,,,,,,190,110,Amateur Open,M,B,Raw,,190,,1984
2,Dmitro Sviridenko,Дмитро Свириденко,Ukraine,101.2,,,,,170,-180,180,,,,,,180,110,Amateur Open,M,B,Raw,,180,,1977
3,Sergiy Shumskiy,Сергій Шумський,Ukraine,105.4,,,,,150,-160,-160,,,,,,150,110,Amateur Open,M,B,Raw,,150,,1985
4,Anton Fedichev,Антон Федічев,Ukraine,105.3,,,,,125,130,-140,,,,,,130,110,Amateur Open,M,B,Raw,,130,,1982
1,Dmitro Gosman,Дмитро Госман,Ukraine,119.4,,,,,185,192.5,-197.5,,,,,,192.5,125,Amateur Open,M,B,Raw,,192.5,,1993
2,Andriy Voloshinenko,Андрій Волошиненко,Ukraine,114.3,,,,,160,165,170,,,,,,170,125,Amateur Open,M,B,Raw,,170,,1980
3,Oleksandr Kalkutin,Олександр Калкутін,Ukraine,122.9,,,,,140,-150,-150,,,,,,140,125,Amateur Open,M,B,Raw,,140,,1965
4,Danilo Udovik,Данило Удовик,Ukraine,110.6,,,,,120,130,135,,,,,,135,125,Amateur Open,M,B,Raw,,135,,1992
1,Oleg Brazhnik,Олег Бражник,Ukraine,157.4,,,,,110,120,-125,,,,,,120,140+,Amateur Open,M,B,Raw,,120,,1970
1,Sergiy Goncharuk,Сергій Гончарук,Ukraine,72,,,,,125,130,-135,,,,,,130,75,Amateur Submasters 33-39,M,B,Raw,,130,,1978
1,Mikhaylo Kharitonov,Михайло Харитонов,Ukraine,77,,,,,140,-145,-145,,,,,,140,82.5,Amateur Submasters 33-39,M,B,Raw,,140,,1982
1,Danilo Shmatovskiy,Данило Шматовський,Ukraine,86,,,,,160,167.5,172.5,,,,,,172.5,90,Amateur Submasters 33-39,M,B,Raw,,172.5,,1983
2,Sergiy Mazur,Сергій Мазур,Ukraine,85.2,,,,,130,140,-145,,,,,,140,90,Amateur Submasters 33-39,M,B,Raw,,140,,1981
3,Ivan Timokhin,Іван Тімохін,Ukraine,88.7,,,,,115,120,-125,,,,,,120,90,Amateur Submasters 33-39,M,B,Raw,,120,,1980
1,Igor Ilchenko,Ігор Ільченко,Ukraine,98,,,,,170,-180,-180,,,,,,170,100,Amateur Submasters 33-39,M,B,Raw,,170,,1981
1,Andriy Voloshinenko,Андрій Волошиненко,Ukraine,114.3,,,,,160,165,170,,,,,,170,125,Amateur Submasters 33-39,M,B,Raw,,170,,1980
1,Dmitro Strelnikov,Дмитро Стрельніков,Ukraine,98.6,,,,,120,125,-127.5,,,,,,125,100,Amateur Masters 40-44,M,B,Raw,,125,,1975
DQ,Andriy Sokolovskiy,Андрій Соколовський,Ukraine,97.4,,,,,-140,-140,,,,,,,,100,Amateur Masters 40-44,M,B,Raw,,,,1974
1,V'yacheslav Telyura,В'ячеслав Телюра,Ukraine,99.4,,,,,182.5,-190,-190,,,,,,182.5,100,Amateur Masters 45-49,M,B,Raw,,182.5,,1967
1,Vladislav Marchenko,Владислав Марченко,Ukraine,120.6,,,,,145,150,-155,,,,,,150,125,Amateur Masters 45-49,M,B,Raw,,150,,1967
1,Oleg Brazhnik,Олег Бражник,Ukraine,157.4,,,,,110,120,-125,,,,,,120,140+,Amateur Masters 45-49,M,B,Raw,,120,,1970
1,Oleksandr Kalkutin,Олександр Калкутін,Ukraine,122.9,,,,,140,-150,-150,,,,,,140,125,Amateur Masters 50-54,M,B,Raw,,140,,1965
1,Maksim Zhuravel,Максим Журавель,Ukraine,96.9,,,,,135,142.5,147.5,,,,,,147.5,100,Amateur Military/Fire/Police,M,B,Raw,,147.5,,1987
1,Dmitro Sviridenko,Дмитро Свириденко,Ukraine,101.2,,,,,170,-180,180,,,,,,180,110,Amateur Military/Fire/Police,M,B,Raw,,180,,1977
1,Diana Chumaeva,Діана Чумаєва,Ukraine,56.9,,,,,35,-40,-40,,,,,,35,60,Amateur Teen 18-19,F,B,Raw,,35,,1996
1,Anastasiya Martim'Yanova,Анастасія Мартим'Янова,Ukraine,78.9,,,,,55,62.5,-67.5,,,,,,62.5,82.5,Amateur Teen 18-19,F,B,Raw,,62.5,,1997
1,Marina Porivay,Марина Поривай,Ukraine,51.8,,,,,65,-70,-70,,,,,,65,52,Amateur Juniors 20-23,F,B,Raw,,65,,1994
1,Ganna Krivokin,Ганна Кривокінь,Ukraine,55,,,,,47.5,52.5,-57.5,,,,,,52.5,56,Amateur Juniors 20-23,F,B,Raw,,52.5,,1996
1,Anastasiya But,Анастасія Бут,Ukraine,58.3,,,,,45,-50,-50,,,,,,45,60,Amateur Juniors 20-23,F,B,Raw,,45,,1994
2,Nadiya Shvets,Надія Швець,Ukraine,58.7,,,,,35,40,42.5,,,,,,42.5,60,Amateur Juniors 20-23,F,B,Raw,,42.5,,1996
1,Alesya Bayda,Алєся Байда,Ukraine,47.2,,,,,47.5,52.5,-57.5,,,,,,52.5,48,Amateur Open,F,B,Raw,,52.5,,1991
2,Yuliya Chernyak,Юлія Черняк,Ukraine,48,,,,,40,45,-50,,,,,,45,48,Amateur Open,F,B,Raw,,45,,1983
DQ,Viktoriya Demura,Вікторія Демура,Ukraine,46.6,,,,,-45,-45,-45,,,,,,,48,Amateur Open,F,B,Raw,,,,1985
1,Oksana Prikhodko,Оксана Приходько,Ukraine,52,,,,,85,-90,,,,,,,85,52,Amateur Open,F,B,Raw,,85,,1991
2,Olga Rumyantseva,Ольга Румянцева,Ukraine,49.9,,,,,57.5,-62.5,62.5,,,,,,62.5,52,Amateur Open,F,B,Raw,,62.5,,1985
3,Olena Shumska,Олена Шумська,Ukraine,48.1,,,,,30,-35,35,,,,,,35,52,Amateur Open,F,B,Raw,,35,,1991
1,Olena Lisenko,Олена Лисенко,Ukraine,53.5,,,,,72.5,77.5,-80,,,,,,77.5,56,Amateur Open,F,B,Raw,,77.5,,1975
2,Olga Skorokhodova,Ольга Скороходова,Ukraine,55.5,,,,,60,-65,-65,,,,,,60,56,Amateur Open,F,B,Raw,,60,,1980
3,Lyana Yakimenko,Ляна Якименко,Ukraine,53.5,,,,,45,47.5,-50,,,,,,47.5,56,Amateur Open,F,B,Raw,,47.5,,1992
4,Kseniya Zolotukhina,Ксенія Золотухіна,Ukraine,56,,,,,37.5,-42.5,-42.5,,,,,,37.5,56,Amateur Open,F,B,Raw,,37.5,,1988
1,Kapitalina Gushchina,Капітоліна Гущина,Ukraine,57.3,,,,,45,50,-52.5,,,,,,50,60,Amateur Open,F,B,Raw,,50,,1982
2,Yuliya Chumaeva,Юлія Чумаєва,Ukraine,58.4,,,,,35,40,-42.5,,,,,,40,60,Amateur Open,F,B,Raw,,40,,1973
3,Dina Eremeeva,Діна Єремеєва,Ukraine,59.1,,,,,-25,25,-27.5,,,,,,25,60,Amateur Open,F,B,Raw,,25,,1985
1,Olena Melnik,Олена Мельник,Ukraine,64.5,,,,,72.5,75,-82.5,,,,,,75,67.5,Amateur Open,F,B,Raw,,75,,1977
2,Katerina Bessel,Катерина Бессель,Ukraine,66.5,,,,,75,-80,-80,,,,,,75,67.5,Amateur Open,F,B,Raw,,75,,1991
3,Oksana Muzika,Оксана Музика,Ukraine,66.5,,,,,60,65,-67.5,,,,,,65,67.5,Amateur Open,F,B,Raw,,65,,1969
4,Valeriya Razumenko,Валерія Разуменко,Ukraine,64.1,,,,,57.5,-60,-60,,,,,,57.5,67.5,Amateur Open,F,B,Raw,,57.5,,1992
1,Tetyana Dudnik,Тетяна Дудник,Ukraine,74.3,,,,,65,72.5,-77.5,,,,,,72.5,75,Amateur Open,F,B,Raw,,72.5,,1983
1,Olga Skorokhodova,Ольга Скороходова,Ukraine,55.5,,,,,60,-65,-65,,,,,,60,56,Amateur Submasters 33-39,F,B,Raw,,60,,1980
2,Lyudmila Sirotchenko,Людмила Сиротченко,Ukraine,55.3,,,,,55,-57.5,-57.5,,,,,,55,56,Amateur Submasters 33-39,F,B,Raw,,55,,1980
1,Kapitalina Gushchina,Капітоліна Гущина,Ukraine,57.3,,,,,45,50,-52.5,,,,,,50,60,Amateur Submasters 33-39,F,B,Raw,,50,,1982
1,Svitlana Plakhtieva-Potebnya,Світлана Плахтієва-Потебня,Ukraine,62.8,,,,,-47.5,47.5,52.5,,,,,,52.5,67.5,Amateur Submasters 33-39,F,B,Raw,,52.5,,1982
1,Tetyana Dudnik,Тетяна Дудник,Ukraine,74.3,,,,,65,72.5,-77.5,,,,,,72.5,75,Amateur Submasters 33-39,F,B,Raw,,72.5,,1983
1,Olena Lisenko,Олена Лисенко,Ukraine,53.5,,,,,72.5,77.5,-80,,,,,,77.5,56,Amateur Masters 40-44,F,B,Raw,,77.5,,1975
2,Olena Levada,Олена Левада,Ukraine,54,,,,,50,57.5,60,,,,,,60,56,Amateur Masters 40-44,F,B,Raw,,60,,1975
1,Yuliya Chumaeva,Юлія Чумаєва,Ukraine,58.4,,,,,35,40,-42.5,,,,,,40,60,Amateur Masters 40-44,F,B,Raw,,40,,1973
1,Oksana Muzika,Оксана Музика,Ukraine,66.5,,,,,60,65,-67.5,,,,,,65,67.5,Amateur Masters 45-49,F,B,Raw,,65,,1969
1,Olga Pisareva,Ольга Писарєва,Ukraine,63.9,,,,,47.5,-52.5,-52.5,,,,,,47.5,67.5,Amateur Masters 60-64,F,B,Raw,,47.5,,1956
1,Viktor Bozhukha,Віктор Божуха,Ukraine,113.9,,,,,205,210,215,,,,,,215,125,Amateur Submasters 33-39,M,B,Multi-ply,,215,,1978
1,Yuriy Maligin,Юрій Малигін,Ukraine,99.7,,,,,100,-150,-150,,,,,,100,100,Amateur Masters 45-49,M,B,Multi-ply,,100,,1967
1,Artem Sukhoviy,Артем Суховій,Ukraine,66,,,,,80,-85,-85,,,,,,80,67.5,Pro Juniors 20-23,M,B,Raw,,80,,1996
1,Ernest Gromov,Ернест Громов,Ukraine,83.2,,,,,165,175,-180,,,,,,175,90,Pro Juniors 20-23,M,B,Raw,,175,,1994
2,Anton Chirkov,Антон Чирков,Ukraine,85.6,,,,,135,-142.5,-150,,,,,,135,90,Pro Juniors 20-23,M,B,Raw,,135,,1993
1,Yan Letuchiy,Ян Летучий,Ukraine,102.4,,,,,175,-185,-185,,,,,,175,110,Pro Juniors 20-23,M,B,Raw,,175,,1996
1,Denis Arkhipov #2,Денис Архіпов,Ukraine,63.5,,,,,60,65,70,,,,,,70,67.5,Pro Open,M,B,Raw,,70,,1984
1,Oleksandr Chernets,Олександр Чернець,Ukraine,73.3,,,,,175,185,-200,,,,,,185,75,Pro Open,M,B,Raw,,185,,1991
2,Pavlo Parakhonenko,Павло Парахоненко,Ukraine,70.4,,,,,135,140,-150,,,,,,140,75,Pro Open,M,B,Raw,,140,,1989
DQ,Oleksandr Kozhemyaka,Олександр Кожемяка,Ukraine,79.7,,,,,-135,-135,-135,,,,,,,82.5,Pro Open,M,B,Raw,,,,1992
1,Ernest Gromov,Ернест Громов,Ukraine,83.2,,,,,165,175,-180,,,,,,175,90,Pro Open,M,B,Raw,,175,,1994
2,Pavlo Krilov,Павло Крилов,Ukraine,85.9,,,,,155,165,175,,,,,,175,90,Pro Open,M,B,Raw,,175,,1974
1,Aleksandr Scherbakov,,Moldova,92.4,,,,,205,220,-225,,,,,,220,100,Pro Open,M,B,Raw,,220,,1966
2,Maksim Medvid,Максим Медвідь,Ukraine,98.4,,,,,-175,175,-177.5,,,,,,175,100,Pro Open,M,B,Raw,,175,,1988
3,Dmitro Tkach,Дмитро Ткач,Ukraine,92.7,,,,,170,-175,-175,,,,,,170,100,Pro Open,M,B,Raw,,170,,1991
4,Dmitro Protsiv,Дмитро Проців,Ukraine,99.1,,,,,-162.5,162.5,167.5,,,,,,167.5,100,Pro Open,M,B,Raw,,167.5,,1981
5,Igor Veretyuk,Ігор Веретюк,Ukraine,99.3,,,,,165,-172.5,-172.5,,,,,,165,100,Pro Open,M,B,Raw,,165,,1989
1,Mikhaylo Strelenko,Михайло Стреленко,Ukraine,102.7,,,,,210,220,-230,,,,,,220,110,Pro Open,M,B,Raw,,220,,1989
2,Yaroslav Bogdan,Ярослав Богдан,Ukraine,102.4,,,,,177.5,-187.5,,,,,,,177.5,110,Pro Open,M,B,Raw,,177.5,,1987
3,Anton Mazur,Антон Мазур,Ukraine,108.2,,,,,160,170,-175,,,,,,170,110,Pro Open,M,B,Raw,,170,,1987
1,Vitaliy Pokinchereda,Віталій Покиньчереда,Ukraine,116.7,,,,,200,210,-212.5,,,,,,210,125,Pro Open,M,B,Raw,,210,,1976
2,Oleksandr Karpenkov,Олександр Карпенков,Ukraine,115.7,,,,,195,207.5,-212.5,,,,,,207.5,125,Pro Open,M,B,Raw,,207.5,,1991
1,Evgen Korotich,Євген Коротич,Ukraine,86,,,,,120,127.5,-130,,,,,,127.5,90,Pro Submasters 33-39,M,B,Raw,,127.5,,1977
1,Andriy Zakharchenko,Андрій Захарченко,Ukraine,97.7,,,,,155,165,170,,,,,,170,100,Pro Submasters 33-39,M,B,Raw,,170,,1979
2,Dmitro Protsiv,Дмитро Проців,Ukraine,99.1,,,,,-162.5,162.5,167.5,,,,,,167.5,100,Pro Submasters 33-39,M,B,Raw,,167.5,,1981
1,Vitaliy Chunikhovskiy,,Ukraine,107.4,,,,,-182.5,182.5,-187.5,,,,,,182.5,110,Pro Submasters 33-39,M,B,Raw,,182.5,,1983
1,Pavlo Krilov,Павло Крилов,Ukraine,85.9,,,,,155,165,175,,,,,,175,90,Pro Masters 40-44,M,B,Raw,,175,,1974
1,Vitaliy Pokinchereda,Віталій Покиньчереда,Ukraine,116.7,,,,,200,210,-212.5,,,,,,210,125,Pro Masters 40-44,M,B,Raw,,210,,1976
1,Igor Klim,Ігор Клім,Ukraine,121.9,,,,,115,120,-132.5,,,,,,120,125,Pro Masters 45-49,M,B,Raw,,120,,1971
1,Aleksandr Scherbakov,,Moldova,92.4,,,,,205,220,-225,,,,,,220,100,Pro Masters 50-54,M,B,Raw,,220,,1966
1,Evgen Kurudimov,Євген Курудімов,Ukraine,96.3,,,,,120,130,140,,,,,,140,100,Pro Masters 60-64,M,B,Raw,,140,,1956
1,Ganna Romanauskene,Ганна Романаускене,Ukraine,72.6,,,,,65,72.5,-75,,,,,,72.5,75,Pro Juniors 20-23,F,B,Raw,,72.5,,1994
1,Vitaliya Tonisheva,Віталія Тонишева,Ukraine,49.4,,,,,-32.5,35,-37.5,,,,,,35,52,Pro Open,F,B,Raw,,35,,1990
1,Ganna Romanauskene,Ганна Романаускене,Ukraine,72.6,,,,,65,72.5,-75,,,,,,72.5,75,Pro Open,F,B,Raw,,72.5,,1994
1,Stanislav Chigirinskiy,Станіслав Чигиринський,Ukraine,75,,,,,115,125,135,,,,,,135,75,Pro Juniors 20-23,M,B,Multi-ply,,135,,1994
1,Stanislav Chigirinskiy,Станіслав Чигиринський,Ukraine,75,,,,,115,125,135,,,,,,135,75,Pro Open,M,B,Multi-ply,,135,,1994
1,Denis Kovalov,Денис Ковальов,Ukraine,90,,,,,220,-230,-235,,,,,,220,90,Pro Open,M,B,Multi-ply,,220,,1978
1,Volodimir Chigirinskiy,Володимир Чигиринський,Ukraine,95.1,,,,,150,170,175,,,,,,175,100,Pro Open,M,B,Multi-ply,,175,,1962
1,Andriy Goncharov,Андрій Гончаров,Ukraine,99,,,,,-235,235,-250,,,,,,235,100,Pro Submasters 33-39,M,B,Multi-ply,,235,,1981
1,Volodimir Chigirinskiy,Володимир Чигиринський,Ukraine,95.1,,,,,150,170,175,,,,,,175,100,Pro Masters 50-54,M,B,Multi-ply,,175,,1962
1,Dmitro Zaets,Дмитро Заєць,Ukraine,54.7,,,,,,,,,130,-142.5,-142.5,,130,56,Amateur Teen 13-15,M,D,Raw,,,130,2002
1,Oleksandr Ugrin,Олександр Угрін,Ukraine,66.1,,,,,,,,,125,130,135,,135,67.5,Amateur Teen 13-15,M,D,Raw,,,135,2001
2,Denis Okhrimenko,Денис Охріменко,Ukraine,65.9,,,,,,,,,115,125,130,,130,67.5,Amateur Teen 13-15,M,D,Raw,,,130,2001
1,Andriy Bukhgolts,Андрій Бухгольц,Ukraine,54,,,,,,,,,125,-132.5,-132.5,,125,56,Amateur Teen 16-17,M,D,Raw,,,125,1999
1,Mikhaylo Yurchenko,Михайло Юрченко,Ukraine,74,,,,,,,,,240,255,-260,,255,75,Amateur Teen 16-17,M,D,Raw,,,255,1999
2,Ivan Avidenkov,Іван Авіденков,Ukraine,71.6,,,,,,,,,160,170,180,,180,75,Amateur Teen 16-17,M,D,Raw,,,180,1999
1,Aydin Gulamov,Айдин Гуламов,Ukraine,87.6,,,,,,,,,175,185,195,,195,90,Amateur Teen 16-17,M,D,Raw,,,195,2000
1,Evgeniy Timokhin,Євгеній Тимохін,Ukraine,75,,,,,,,,,160,-170,-170,,160,75,Amateur Teen 18-19,M,D,Raw,,,160,1997
1,Viktor Bordichev,Віктор Бордичев,Ukraine,79.8,,,,,,,,,202.5,210,215,,215,82.5,Amateur Teen 18-19,M,D,Raw,,,215,1997
2,Oleksandr Kinash,Олександр Кінаш,Ukraine,79.3,,,,,,,,,185,195,202.5,,202.5,82.5,Amateur Teen 18-19,M,D,Raw,,,202.5,1996
1,Oleksandr Nayden,Олександр Найден,Ukraine,82.6,,,,,,,,,175,185,195,,195,90,Amateur Teen 18-19,M,D,Raw,,,195,1997
1,Mikita Mitryukhin,Микита Мітрюхін,Ukraine,102.4,,,,,,,,,210,220,-230,,220,110,Amateur Teen 18-19,M,D,Raw,,,220,1997
1,Roman Stanishevskiy,Роман Станішевський,Ukraine,64.5,,,,,,,,,140,150,-155,,150,67.5,Amateur Juniors 20-23,M,D,Raw,,,150,1995
1,Yaroslav Kalugin,Ярослав Калугін,Ukraine,73.4,,,,,,,,,215,225,-230,,225,75,Amateur Juniors 20-23,M,D,Raw,,,225,1994
2,Vladislav Skopa,Владислав Скопа,Ukraine,70.8,,,,,,,,,180,195,-200,,195,75,Amateur Juniors 20-23,M,D,Raw,,,195,1994
3,Sergiy Shpak,Сергій Шпак,Ukraine,73.9,,,,,,,,,-175,175,-195,,175,75,Amateur Juniors 20-23,M,D,Raw,,,175,1994
1,Oleksandr Panov,Олександр Панов,Ukraine,80.1,,,,,,,,,190,202.5,-215,,202.5,82.5,Amateur Juniors 20-23,M,D,Raw,,,202.5,1993
2,Sergiy Chaliy,Сергій Чалий,Ukraine,80.6,,,,,,,,,190,202.5,,,202.5,82.5,Amateur Juniors 20-23,M,D,Raw,,,202.5,1993
3,Oleksandr Grebenkov,Олександр Гребеньков,Ukraine,76.8,,,,,,,,,-150,150,165,,165,82.5,Amateur Juniors 20-23,M,D,Raw,,,165,1993
4,Vitaliy Sakalo,Віталій Сакало,Ukraine,80.5,,,,,,,,,140,155,-167.5,,155,82.5,Amateur Juniors 20-23,M,D,Raw,,,155,1994
1,Vitaliy Goncharov,Віталій Гончаров,Ukraine,87.6,,,,,,,,,220,235,242.5,,242.5,90,Amateur Juniors 20-23,M,D,Raw,,,242.5,1994
2,Mikola Udovenko,Микола Удовенко,Ukraine,88.5,,,,,,,,,195,210,222.5,,222.5,90,Amateur Juniors 20-23,M,D,Raw,,,222.5,1993
3,Evgeniy Golub,Євгеній Голуб,Ukraine,87.5,,,,,,,,,190,210,220,,220,90,Amateur Juniors 20-23,M,D,Raw,,,220,1996
1,Anton Mikhaylenko,Антон Михайленко,Ukraine,94,,,,,,,,,205,222.5,230,,230,100,Amateur Juniors 20-23,M,D,Raw,,,230,1994
2,Oleksiy Matlay,Олексій Матлай,Ukraine,93.3,,,,,,,,,220,-240,-250,,220,100,Amateur Juniors 20-23,M,D,Raw,,,220,1994
3,Anatoliy Klimenko,Анатолій Клименко,Ukraine,98.7,,,,,,,,,180,190,197.5,,197.5,100,Amateur Juniors 20-23,M,D,Raw,,,197.5,1996
1,Dmitro Zaets,Дмитро Заєць,Ukraine,54.7,,,,,,,,,130,-142.5,-142.5,,130,56,Amateur Open,M,D,Raw,,,130,2002
2,Konstyantin Yakimenko,Константин Якименко,Ukraine,53.5,,,,,,,,,72.5,-77.5,77.5,,77.5,56,Amateur Open,M,D,Raw,,,77.5,1989
1,Boris Novoselov,Борис Новоселов,Ukraine,66.1,,,,,,,,,190,205,-217.5,,205,67.5,Amateur Open,M,D,Raw,,,205,1992
DQ,Oleksiy Kudrin,Олексій Кудрін,Ukraine,63,,,,,,,,,-165,-165,,,,67.5,Amateur Open,M,D,Raw,,,,1981
1,Mikhaylo Yurchenko,Михайло Юрченко,Ukraine,74,,,,,,,,,240,255,-260,,255,75,Amateur Open,M,D,Raw,,,255,1999
2,Vyacheslav Mironenko,Вячеслав Мироненко,Ukraine,73.7,,,,,,,,,230,245,-250,,245,75,Amateur Open,M,D,Raw,,,245,1990
3,Rostislav Petruk,Ростислав Петрук,Ukraine,71.7,,,,,,,,,155,-170,-170,,155,75,Amateur Open,M,D,Raw,,,155,1990
DQ,Oleksandr Shevchenko #4,Александр Шевченко,Ukraine,69.6,,,,,,,,,-210,-210,-210,,,75,Amateur Open,M,D,Raw,,,,1980
DQ,Oleg Kirichenko,Олег Кириченко,Ukraine,71.1,,,,,,,,,-117.5,-117.5,-117.5,,,75,Amateur Open,M,D,Raw,,,,1990
1,Evgen Kitaygorodskiy,Євген Китайгородський,Ukraine,80.2,,,,,,,,,210,220,222.5,,222.5,82.5,Amateur Open,M,D,Raw,,,222.5,1989
2,Sergiy Bogaychuk,Сергій Богайчук,Ukraine,80,,,,,,,,,220,-232.5,-232.5,,220,82.5,Amateur Open,M,D,Raw,,,220,1985
3,Oleksandr Panov,Олександр Панов,Ukraine,80.1,,,,,,,,,190,202.5,-215,,202.5,82.5,Amateur Open,M,D,Raw,,,202.5,1993
4,Mikhaylo Moshkovich,Михайло Мошкович,Ukraine,77,,,,,,,,,185,-195,-202.5,,185,82.5,Amateur Open,M,D,Raw,,,185,1984
1,Leonid Andrievskiy,Леонід Андрієвський,Ukraine,88.8,,,,,,,,,240,-257.5,257.5,,257.5,90,Amateur Open,M,D,Raw,,,257.5,1989
2,Vitaliy Goncharov,Віталій Гончаров,Ukraine,87.6,,,,,,,,,220,235,242.5,,242.5,90,Amateur Open,M,D,Raw,,,242.5,1994
3,Sergiy Mazur,Сергій Мазур,Ukraine,85.2,,,,,,,,,220,230,-240,,230,90,Amateur Open,M,D,Raw,,,230,1981
4,Kostyantin Paustovskiy,Костянтин Паустовський,Ukraine,85.9,,,,,,,,,-200,210,220,,220,90,Amateur Open,M,D,Raw,,,220,1992
5,Dmitro Bogomaz,Дмитро Богомаз,Ukraine,85.9,,,,,,,,,210,-220,-230,,210,90,Amateur Open,M,D,Raw,,,210,1990
6,Evgen Bilozer,Євген Білозер,Ukraine,88.5,,,,,,,,,195,210,-222.5,,210,90,Amateur Open,M,D,Raw,,,210,1989
7,Boris Kovalenko,Борис Коваленко,Ukraine,89,,,,,,,,,200,-207.5,-207.5,,200,90,Amateur Open,M,D,Raw,,,200,1983
1,Denis Petrov,Денис Петров,Ukraine,99.7,,,,,,,,,210,222.5,235,,235,100,Amateur Open,M,D,Raw,,,235,1984
2,Viktor Telyatnik,Віктор Телятник,Ukraine,95.9,,,,,,,,,210,217.5,-222.5,,217.5,100,Amateur Open,M,D,Raw,,,217.5,1988
1,Sergiy Bessel,Сергій Бессель,Ukraine,107.3,,,,,,,,,240,-255,255,,255,110,Amateur Open,M,D,Raw,,,255,1984
2,Mikita Mitryukhin,Микита Мітрюхін,Ukraine,102.4,,,,,,,,,210,220,-230,,220,110,Amateur Open,M,D,Raw,,,220,1997
3,Anton Fedichev,Антон Федічев,Ukraine,105.3,,,,,,,,,-170,170,185,,185,110,Amateur Open,M,D,Raw,,,185,1982
1,Andriy Voloshinenko,Андрій Волошиненко,Ukraine,114.3,,,,,,,,,207.5,217.5,-222.5,,217.5,125,Amateur Open,M,D,Raw,,,217.5,1980
2,Danilo Udovik,Данило Удовик,Ukraine,110.6,,,,,,,,,190,205,215,,215,125,Amateur Open,M,D,Raw,,,215,1992
3,Oleksandr Kalkutin,Олександр Калкутін,Ukraine,122.9,,,,,,,,,180,210,-230,,210,125,Amateur Open,M,D,Raw,,,210,1965
1,Oleg Brazhnik,Олег Бражник,Ukraine,157.4,,,,,,,,,170,190,200,,200,140+,Amateur Open,M,D,Raw,,,200,1970
1,Sergiy Goncharuk,Сергій Гончарук,Ukraine,72,,,,,,,,,170,,,,170,75,Amateur Submasters 33-39,M,D,Raw,,,170,1978
DQ,Oleksandr Shevchenko #4,Александр Шевченко,Ukraine,69.6,,,,,,,,,-210,-210,-210,,,75,Amateur Submasters 33-39,M,D,Raw,,,,1980
1,Oleksandr Smalyukh,Олександр Смалюх,Ukraine,82.3,,,,,,,,,205,225,232.5,,232.5,82.5,Amateur Submasters 33-39,M,D,Raw,,,232.5,1983
1,Sergiy Mazur,Сергій Мазур,Ukraine,85.2,,,,,,,,,220,230,-240,,230,90,Amateur Submasters 33-39,M,D,Raw,,,230,1981
2,Ivan Timokhin,Іван Тімохін,Ukraine,88.7,,,,,,,,,175,-185,-185,,175,90,Amateur Submasters 33-39,M,D,Raw,,,175,1980
1,Vitaliy Poryadkov,Віталій Порядков,Ukraine,86.5,,,,,,,,,180,195,-210,,195,90,Amateur Masters 40-44,M,D,Raw,,,195,1972
1,Dmitro Strelnikov,Дмитро Стрельніков,Ukraine,98.6,,,,,,,,,170,180,195,,195,100,Amateur Masters 40-44,M,D,Raw,,,195,1975
1,Oleg Brazhnik,Олег Бражник,Ukraine,157.4,,,,,,,,,170,190,200,,200,140+,Amateur Masters 45-49,M,D,Raw,,,200,1970
1,Oleksandr Kalkutin,Олександр Калкутін,Ukraine,122.9,,,,,,,,,180,210,-230,,210,125,Amateur Masters 50-54,M,D,Raw,,,210,1965
1,Stanislav Sapon,Станіслав Сапон,Ukraine,80.7,,,,,,,,,190,202.5,-210,,202.5,82.5,Amateur Military/Fire/Police,M,D,Raw,,,202.5,1990
1,Maksim Zhuravel,Максим Журавель,Ukraine,96.9,,,,,,,,,210,220,-225,,220,100,Amateur Military/Fire/Police,M,D,Raw,,,220,1987
1,Vlada Sova,Влада Сова,Ukraine,54,,,,,,,,,97.5,-107.5,-107.5,,97.5,56,Amateur Teen 16-17,F,D,Raw,,,97.5,1999
1,Anastasiya Martim'Yanova,Анастасія Мартим'Янова,Ukraine,78.9,,,,,,,,,127.5,135,140,,140,82.5,Amateur Teen 18-19,F,D,Raw,,,140,1997
1,Svitlana Bilokon,Світлана Білоконь,Ukraine,51.6,,,,,,,,,100,110,115,,115,52,Amateur Juniors 20-23,F,D,Raw,,,115,1993
1,Ganna Krivokin,Ганна Кривокінь,Ukraine,55,,,,,,,,,90,95,97.5,,97.5,56,Amateur Juniors 20-23,F,D,Raw,,,97.5,1996
2,Liliya Teplitska,Лілія Теплицька,Ukraine,52.7,,,,,,,,,-90,-90,90,,90,56,Amateur Juniors 20-23,F,D,Raw,,,90,1996
1,Nadiya Shvets,Надія Швець,Ukraine,58.7,,,,,,,,,80,95,105,,105,60,Amateur Juniors 20-23,F,D,Raw,,,105,1996
1,Nadiya Osaenko,Надія Осаєнко,Ukraine,42.3,,,,,,,,,75,80,-85,,80,44,Amateur Open,F,D,Raw,,,80,1990
1,Taya Ruban,Тая Рубан,Ukraine,48,,,,,,,,,-105,110,115,,115,48,Amateur Open,F,D,Raw,,,115,1988
2,Viktoriya Demura,Вікторія Демура,Ukraine,46.6,,,,,,,,,100,110,-112.5,,110,48,Amateur Open,F,D,Raw,,,110,1985
3,Yuliya Chernyak,Юлія Черняк,Ukraine,48,,,,,,,,,90,95,100,,100,48,Amateur Open,F,D,Raw,,,100,1983
1,Oksana Prikhodko,Оксана Приходько,Ukraine,52,,,,,,,,,150,160,-165,,160,52,Amateur Open,F,D,Raw,,,160,1991
2,Yuliya Sotnikova,Юлія Сотнікова,Ukraine,50.9,,,,,,,,,145,-152.5,-152.5,,145,52,Amateur Open,F,D,Raw,,,145,1991
3,Svitlana Bilokon,Світлана Білоконь,Ukraine,51.6,,,,,,,,,100,110,115,,115,52,Amateur Open,F,D,Raw,,,115,1993
4,Dina Eremeeva,Діна Єремеєва,Ukraine,51.9,,,,,,,,,40,50,60,,60,52,Amateur Open,F,D,Raw,,,60,1985
1,Darina Kovalova,Дарина Ковальова,Ukraine,55.9,,,,,,,,,150,160,162.5,,162.5,56,Amateur Open,F,D,Raw,,,162.5,1990
2,Olga Skorokhodova,Ольга Скороходова,Ukraine,55.5,,,,,,,,,110,120,127.5,,127.5,56,Amateur Open,F,D,Raw,,,127.5,1980
3,Kseniya Zolotukhina,Ксенія Золотухіна,Ukraine,56,,,,,,,,,100,110,117.5,,117.5,56,Amateur Open,F,D,Raw,,,117.5,1988
1,Yuliya Chumaeva,Юлія Чумаєва,Ukraine,58.4,,,,,,,,,85,-95,95,,95,60,Amateur Open,F,D,Raw,,,95,1973
2,Kapitalina Gushchina,Капітоліна Гущина,Ukraine,57.3,,,,,,,,,85,-100,-100,,85,60,Amateur Open,F,D,Raw,,,85,1982
1,Valeriya Razumenko,Валерія Разуменко,Ukraine,64.1,,,,,,,,,122.5,127.5,135,,135,67.5,Amateur Open,F,D,Raw,,,135,1992
2,Oksana Muzika,Оксана Музика,Ukraine,66.5,,,,,,,,,115,-120,-120,,115,67.5,Amateur Open,F,D,Raw,,,115,1969
1,Viktoriya Oliynik,Вікторія Олійник,Ukraine,72.6,,,,,,,,,117.5,-122.5,-122.5,,117.5,75,Amateur Open,F,D,Raw,,,117.5,1968
1,Katerina Vnukova,Катерина Внукова,Ukraine,50,,,,,,,,,60,65,-67.5,,65,52,Amateur Submasters 33-39,F,D,Raw,,,65,1982
1,Olga Skorokhodova,Ольга Скороходова,Ukraine,55.5,,,,,,,,,110,120,127.5,,127.5,56,Amateur Submasters 33-39,F,D,Raw,,,127.5,1980
1,Kapitalina Gushchina,Капітоліна Гущина,Ukraine,57.3,,,,,,,,,85,-100,-100,,85,60,Amateur Submasters 33-39,F,D,Raw,,,85,1982
1,Olena Levada,Олена Левада,Ukraine,54,,,,,,,,,100,110,,,110,56,Amateur Masters 40-44,F,D,Raw,,,110,1975
1,Yuliya Chumaeva,Юлія Чумаєва,Ukraine,58.4,,,,,,,,,85,-95,95,,95,60,Amateur Masters 40-44,F,D,Raw,,,95,1973
1,Oksana Muzika,Оксана Музика,Ukraine,66.5,,,,,,,,,115,-120,-120,,115,67.5,Amateur Masters 45-49,F,D,Raw,,,115,1969
1,Viktoriya Oliynik,Вікторія Олійник,Ukraine,72.6,,,,,,,,,117.5,-122.5,-122.5,,117.5,75,Amateur Masters 45-49,F,D,Raw,,,117.5,1968
1,Olga Pisareva,Ольга Писарєва,Ukraine,63.9,,,,,,,,,70,75,82.5,,82.5,67.5,Amateur Masters 60-64,F,D,Raw,,,82.5,1956
1,Maksim Samoylenko,Максим Самойленко,Ukraine,96.2,,,,,,,,,290,-305,305,,305,100,Pro Teen 18-19,M,D,Raw,,,305,1998
1,Artem Sukhoviy,Артем Суховій,Ukraine,66,,,,,,,,,100,105,,,105,67.5,Pro Juniors 20-23,M,D,Raw,,,105,1996
1,Maksim Karban,Максим Карбан,Ukraine,71.8,,,,,,,,,230,-240,-240,,230,75,Pro Juniors 20-23,M,D,Raw,,,230,1996
2,Oleg Ilїn,Олег Ильин,Ukraine,72.2,,,,,,,,,100,105,110,,110,75,Pro Juniors 20-23,M,D,Raw,,,110,1996
1,Oleksandr Golovatskiy,Олександр Головацький,Ukraine,80,,,,,,,,,210,-220,220,,220,82.5,Pro Juniors 20-23,M,D,Raw,,,220,1993
1,Anton Chirkov,Антон Чирков,Ukraine,85.6,,,,,,,,,190,205,-220,,205,90,Pro Juniors 20-23,M,D,Raw,,,205,1993
1,Maksim Ribalka,Максим Рибалка,Ukraine,99.2,,,,,,,,,280,-290,-290,,280,100,Pro Juniors 20-23,M,D,Raw,,,280,1993
1,Denis Arkhipov #2,Денис Архіпов,Ukraine,63.5,,,,,,,,,100,110,115,,115,67.5,Pro Open,M,D,Raw,,,115,1984
1,Maksim Karban,Максим Карбан,Ukraine,71.8,,,,,,,,,230,-240,-240,,230,75,Pro Open,M,D,Raw,,,230,1996
2,Dmitro Kondratenko,Дмитро Кондратенко,Ukraine,71.6,,,,,,,,,180,195,205,,205,75,Pro Open,M,D,Raw,,,205,1986
3,Andriy Tertishniy,Андрій Тертишний,Ukraine,73.9,,,,,,,,,-180,180,195,,195,75,Pro Open,M,D,Raw,,,195,1990
1,Sergiy Zrazhevskyy,Сергій Зражевський,Ukraine,78.4,,,,,,,,,260,-265,-265,,260,82.5,Pro Open,M,D,Raw,,,260,1990
2,Sergiy Zakharev,Сергій Захарьєв,Ukraine,82.1,,,,,,,,,220,227.5,-232.5,,227.5,82.5,Pro Open,M,D,Raw,,,227.5,1982
3,Oleksiy Kozulin,Олексій Козулін,Ukraine,81.3,,,,,,,,,220,-235,-235,,220,82.5,Pro Open,M,D,Raw,,,220,1980
1,Pavlo Ishchenko,Павло Іщенко,Ukraine,87.2,,,,,,,,,290,302.5,,,302.5,90,Pro Open,M,D,Raw,,,302.5,1991
2,V'yacheslav Kravchenko #1,Вячеслав Кравченко,Ukraine,85.9,,,,,,,,,260,272.5,-280,,272.5,90,Pro Open,M,D,Raw,,,272.5,1969
3,Yaroslav Litvinenko,Ярослав Литвиненко,Ukraine,87.4,,,,,,,,,260,-280,-280,,260,90,Pro Open,M,D,Raw,,,260,1976
4,Artem Makarov,Артем Макаров,Ukraine,86.1,,,,,,,,,230,240,250,,250,90,Pro Open,M,D,Raw,,,250,1992
1,Maksim Samoylenko,Максим Самойленко,Ukraine,96.2,,,,,,,,,290,-305,305,,305,100,Pro Open,M,D,Raw,,,305,1998
2,Evgen Litvinenko,Євген Литвиненко,Ukraine,94.3,,,,,,,,,265,280,-290,,280,100,Pro Open,M,D,Raw,,,280,1992
3,Igor Veretyuk,Ігор Веретюк,Ukraine,99.3,,,,,,,,,230,240,-252.5,,240,100,Pro Open,M,D,Raw,,,240,1989
4,Vladislav Ovcharenko,Владислав Овчаренко,Ukraine,96.4,,,,,,,,,227.5,-252.5,-252.5,,227.5,100,Pro Open,M,D,Raw,,,227.5,1978
5,Dmitro Tkach,Дмитро Ткач,Ukraine,92.7,,,,,,,,,190,205,,,205,100,Pro Open,M,D,Raw,,,205,1991
1,Yaroslav Bogdan,Ярослав Богдан,Ukraine,102.4,,,,,,,,,245,255,265,,265,110,Pro Open,M,D,Raw,,,265,1987
2,Anton Mazur,Антон Мазур,Ukraine,108.2,,,,,,,,,250,-265,-265,,250,110,Pro Open,M,D,Raw,,,250,1987
3,Roman Krasitskiy,Роман Красицький,Ukraine,106.3,,,,,,,,,225,237.5,238,,238,110,Pro Open,M,D,Raw,,,238,1980
1,Oleksiy Voychek,Олексій Войчек,Ukraine,124.2,,,,,,,,,260,-265,-265,,260,125,Pro Open,M,D,Raw,,,260,1984
DQ,Oleksandr Karpenkov,Олександр Карпенков,Ukraine,115.7,,,,,,,,,-260,-260,-260,,,125,Pro Open,M,D,Raw,,,,1991
1,Sergiy Zakharev,Сергій Захарьєв,Ukraine,82.1,,,,,,,,,220,227.5,-232.5,,227.5,82.5,Pro Submasters 33-39,M,D,Raw,,,227.5,1982
2,Oleksiy Kozulin,Олексій Козулін,Ukraine,81.3,,,,,,,,,220,-235,-235,,220,82.5,Pro Submasters 33-39,M,D,Raw,,,220,1980
1,Vladislav Ovcharenko,Владислав Овчаренко,Ukraine,96.4,,,,,,,,,227.5,-252.5,-252.5,,227.5,100,Pro Submasters 33-39,M,D,Raw,,,227.5,1978
1,Ruslan Stepanov,Руслан Степанов,Ukraine,109,,,,,,,,,130,140,150,,150,110,Pro Submasters 33-39,M,D,Raw,,,150,1978
1,Yaroslav Litvinenko,Ярослав Литвиненко,Ukraine,87.4,,,,,,,,,260,-280,-280,,260,90,Pro Masters 40-44,M,D,Raw,,,260,1976
1,V'yacheslav Kravchenko #1,Вячеслав Кравченко,Ukraine,85.9,,,,,,,,,260,272.5,-280,,272.5,90,Pro Masters 45-49,M,D,Raw,,,272.5,1969
1,Volodimir Vasilenko,Володимир Василенко,Ukraine,75,,,,,,,,,130,140,145,,145,75,Pro Masters 70-74,M,D,Raw,,,145,1943
1,Dmitro Kondratenko,Дмитро Кондратенко,Ukraine,71.6,,,,,,,,,180,195,205,,205,75,Pro Military/Fire/Police,M,D,Raw,,,205,1986
1,Oleksandr Golovatskiy,Олександр Головацький,Ukraine,80,,,,,,,,,210,-220,220,,220,82.5,Pro Military/Fire/Police,M,D,Raw,,,220,1993
1,Elizaveta Borsuk,Єлизавета Борсук,Ukraine,55.9,,,,,,,,,95,105,-110,,105,56,Pro Teen 18-19,F,D,Raw,,,105,1998
1,Ganna Romanauskene,Ганна Романаускене,Ukraine,72.6,,,,,,,,,130,135,-140,,135,75,Pro Juniors 20-23,F,D,Raw,,,135,1994
1,Vitaliya Tonisheva,Віталія Тонишева,Ukraine,49.4,,,,,,,,,80,90,105,,105,52,Pro Open,F,D,Raw,,,105,1990
1,Ganna Romanauskene,Ганна Романаускене,Ukraine,72.6,,,,,,,,,130,135,-140,,135,75,Pro Open,F,D,Raw,,,135,1994
1,Irina Krivokhizha,Ірина Кривохижа,Ukraine,63.5,,,,,,,,,110,-120,,,110,67.5,Pro Submasters 33-39,F,D,Raw,,,110,1980
1,Anzhela Barkova,Анжела Баркова,Ukraine,59.5,,,,,,,,,100,107.5,-112.5,,107.5,60,Pro Masters 45-49,F,D,Raw,,,107.5,1969
1,Nataliya Penkova,Наталія Пенькова,Ukraine,63.5,,,,,,,,,90,-100,100,,100,67.5,Pro Masters 50-54,F,D,Raw,,,100,1965
1,Dmitro Gavrilyuk,Дмитро Гаврилюк,Ukraine,89.5,,,,,,,,,250,260,275,,275,90,Pro Open,M,D,Multi-ply,,,275,1989
1,Evgen Korotich,Євген Коротич,Ukraine,86,,,,,,,,,220,-232.5,,,220,90,Pro Submasters 33-39,M,D,Multi-ply,,,220,1977
1,Oleg Kovbasa,Олег Ковбаса,Ukraine,96.1,,,,,,,,,160,180,201,,201,100,Pro Masters 40-44,M,D,Multi-ply,,,201,1975
1,Sergiy Kolesnik,Сергій Колесник,Ukraine,99.3,,,,,,,,,190,210,-230,,210,100,Pro Masters 50-54,M,D,Multi-ply,,,210,1963
1,Mariya Markovich,Марія Маркович,Ukraine,54.6,,,,,,,,,120,-125,,,120,56,Pro Open,F,D,Multi-ply,,,120,1985
