Place,Name,CyrillicName,Sex,BodyweightKg,Squat1Kg,Squat2Kg,Squat3Kg,Best3SquatKg,Squat4Kg,Bench1Kg,Bench2Kg,Bench3Kg,Best3BenchKg,Bench4Kg,Deadlift1Kg,Deadlift2Kg,Deadlift3Kg,Best3DeadliftKg,Deadlift4Kg,TotalKg,WeightClassKg,Event,Equipment,Tested,Division,Age
1,Inna Kalinichenko,Инна Калиниченко,F,47.35,72.5,77.5,-82.5,77.5,,45,47.5,50,50,,112.5,117.5,-120,117.5,,245,48,SBD,Wraps,Yes,Amateur Open,18
1,Ekaterina Belyaeva,Екатерина Беляева,F,51.9,70,-77.5,80,80,,42.5,-47.5,-47.5,42.5,,90,95,100,100,,222.5,52,SBD,Wraps,Yes,Amateur Open,32
1,Tatyana Seredintseva,Татьяна Серединцева,F,65,110,115,122.5,122.5,,50,55,60,60,,130,137.5,142.5,142.5,,325,67.5,SBD,Wraps,Yes,Amateur Open,38
2,Olga Saydaeva,Ольга Сайдаева,F,66.2,95,105,112.5,112.5,,50,55,-60,55,,125,135,140,140,,307.5,67.5,SBD,Wraps,Yes,Amateur Open,31
3,Yuliya Serezhnikova,Юлия Сережникова,F,67.1,85,95,-102.5,95,,45,-52.5,52.5,52.5,,115,122.5,127.5,127.5,,275,67.5,SBD,Wraps,Yes,Amateur Open,28
4,Kristina Saveleva,Кристина Савельева,F,66.2,100,-107.5,107.5,107.5,,55,-57.5,-57.5,55,,105,110,-115,110,,272.5,67.5,SBD,Wraps,Yes,Amateur Open,30
1,Sergey Alekseenko,Сергей Алексеенко,M,57.6,75,82.5,85,85,,50,57.5,60,60,,100,110,115,115,,260,60,SBD,Wraps,Yes,Amateur Teen 14-16,14
1,Ruslan Rakhmanov,Руслан Рахманов,M,66.2,135,145,,145,,97.5,105,,105,,205,-225,225,225,,475,67.5,SBD,Wraps,Yes,Amateur Open,22
1,Dmitriy Tekutev,Дмитрий Текутьев,M,71.3,175,-182.5,-182.5,175,,105,112.5,115,115,,205,215,,215,,505,75,SBD,Wraps,Yes,Amateur Sub-Juniors 17-19,18
2,Stepan Devlyashov,Степан Девляшов,M,71.1,135,142.5,150,150,,97.5,105,-110,105,,165,175,-185,175,,430,75,SBD,Wraps,Yes,Amateur Sub-Juniors 17-19,19
1,Evgeniy Pautov,Евгений Паутов,M,75.8,-80,-80,80,80,,40,45,-47.5,45,,-110,115,125,125,,250,82.5,SBD,Wraps,Yes,Amateur Teen 14-16,14
1,Vladislav Ivchenko,Владислав Ивченко,M,81.1,140,150,157.5,157.5,,80,-92.5,-92.5,80,,185,200,-205,200,,437.5,82.5,SBD,Wraps,Yes,Amateur Sub-Juniors 17-19,19
1,Denis Lutsenko,Денис Луценко,M,84.6,160,170,175,175,,110,-115,115,115,,160,170,180,180,,470,90,SBD,Wraps,Yes,Amateur Teen 14-16,16
1,Vladimir Lopyrev,Владимир Лопырев,M,87.9,180,190,195,195,,145,152.5,-160,152.5,,200,215,222.5,222.5,,570,90,SBD,Wraps,Yes,Amateur Open,45
2,Zhasulan Konisov,Жасулан Конисов,M,89.5,-140,140,-150,140,,135,-140,-140,135,,180,190,-200,190,,465,90,SBD,Wraps,Yes,Amateur Open,36
DQ,Timofey Rogalskiy,Тимофей Рогальский,M,89.2,-205,-205,-205,,,,,,,,,,,,,,90,SBD,Wraps,Yes,Amateur Open,26
1,Pavel Goldshteyn,Павел Гольдштейн,M,96.5,-185,-190,190,190,,105,-110,-110,105,,200,210,217.5,217.5,,512.5,100,SBD,Wraps,Yes,Amateur Open,39
1,Yuriy Sunyaev,Юрий Суняев,M,91.7,115,125,130,130,,100,110,112.5,112.5,,145,155,160,160,,402.5,100,SBD,Wraps,Yes,Amateur Masters 50-59,52
1,Viktor Shibarin,Виктор Шибарин,M,106.5,215,225,230,230,,160,172.5,180,180,,245,260,270,270,,680,110,SBD,Wraps,Yes,Amateur Open,29
2,Eduard Chibasov,Эдуард Чибасов,M,100.9,140,-160,-170,140,,120,122.5,125,125,,-170,175,-180,175,,440,110,SBD,Wraps,Yes,Amateur Open,24
1,Valentin Trepshin,Валентин Трепшин,M,111.2,210,225,240,240,,110,122.5,135,135,,210,230,240,240,,615,125,SBD,Wraps,Yes,Amateur Open,30
1,Aygerim Altay,Айгерим Алтай,F,46.1,40,-45,45,45,,25,27.5,-30,27.5,,55,60,65,65,,137.5,48,SBD,Wraps,No,Pro Teen 14-16,14
1,Tatyana Gorb,Татьяна Горб,F,51.5,80,-90,90,90,,42.5,47.5,-50,47.5,,115,122.5,-127.5,122.5,,260,52,SBD,Wraps,No,Pro Sub-Juniors 17-19,19
2,Mariya Konkina,Мария Конкина,F,51.3,80,87.5,-92.5,87.5,,35,40,-45,40,,-105,105,115,115,,242.5,52,SBD,Wraps,No,Pro Sub-Juniors 17-19,18
3,Alina Khasanova,Алина Хасанова,F,51.5,-80,-85,85,85,,45,50,-52.5,50,,95,100,105,105,,240,52,SBD,Wraps,No,Pro Sub-Juniors 17-19,18
1,Laurita Zemlyanskaya,Лаурита Землянская,F,55.5,-50,50,-60,50,,-30,30,-40,30,,80,-90,90,90,,170,56,SBD,Wraps,No,Pro Teen 14-16,16
1,Olga Prokhorenko,Ольга Прохоренко,F,57,130,-140,-140,130,,60,-65,-65,60,,165,170,175,175,,365,60,SBD,Wraps,No,Pro Open,39
1,Darya Getmanova,Дарья Гетманова,F,74.3,70,-80,80,80,,25,30,-40,30,,80,95,100,100,,210,75,SBD,Wraps,No,Pro Teen 14-16,15
1,Elena Pimenova,Елена Пименова,F,74.5,110,112.5,-115,112.5,,77.5,80,-82.5,80,,150,155,160,160,,352.5,75,SBD,Wraps,No,Pro Open,33
1,Ivan Cherednichenko #1,Иван Чередниченко,M,74,160,-170,-170,160,,115,125,-135,125,,190,-205,-205,190,,475,75,SBD,Wraps,No,Pro Juniors 20-23,22
1,Ilya Beskrovnyy,Илья Бескровный,M,87,60,70,-80,70,,40,45,-50,45,,80,95,100,100,,215,90,SBD,Wraps,No,Pro Teen 14-16,14
1,Denis Yalovenko,Денис Яловенко,M,84.7,140,145,-147.5,145,,95,-102.5,102.5,102.5,,155,162.5,172.5,172.5,,420,90,SBD,Wraps,No,Pro Open,37
DQ,Aleksey Blagodyrev,Алексей Благодырев,M,89.4,-225,-225,-225,,,,,,,,,,,,,,90,SBD,Wraps,No,Pro Open,26
1,Konstantin Lozychenko,Константин Лозыченко,M,96.8,170,180,185,185,,135,145,150,150,,220,230,235,235,,570,100,SBD,Wraps,No,Pro Masters 40-49,46
1,Vladimir Baushev,Владимир Баушев,M,105.8,210,225,-230,225,,140,-150,,140,,55,,,55,,420,110,SBD,Wraps,No,Pro Masters 40-49,41
1,Tikhon Zotov,Тихон Зотов,M,119.8,-240,-245,245,245,,150,155,-160,155,,265,280,-285,280,,680,125,SBD,Wraps,No,Pro Juniors 20-23,22
1,Anna Dudkina,Анна Дудкина,F,60,90,100,102.5,102.5,,50,57.5,-60,57.5,,100,110,-120,110,,270,60,SBD,Wraps,Yes,Amateur Juniors 20-23,22
1,Dmitriy Popkov,Дмитрий Попков,M,72.8,180,-190,-190,180,,130,-135,-135,130,,-190,190,-200,190,,500,75,SBD,Wraps,Yes,Amateur Open,33
2,Sergey Omelyanenko,Сергей Омельяненко,M,73.6,140,147.5,155,155,,82.5,90,-92.5,90,,140,150,152.5,152.5,,397.5,75,SBD,Wraps,Yes,Amateur Open,28
1,Nikolay Shalunov,Николай Шалунов,M,78.9,135,145,157.5,157.5,,85,92.5,-97.5,92.5,,145,157.5,165,165,,415,82.5,SBD,Wraps,Yes,Amateur Teen 14-16,16
2,Dmitriy Nikolaev,Дмитрий Николаев,M,77.6,130,140,152.5,152.5,,75,82.5,-87.5,82.5,,160,170,-177.5,170,,405,82.5,SBD,Wraps,Yes,Amateur Teen 14-16,16
1,Andrey Prokhorov,Андрей Прохоров,M,80.1,180,185,-190,185,,117.5,120,122.5,122.5,,-170,175,180,180,,487.5,82.5,SBD,Wraps,Yes,Amateur Juniors 20-23,21
1,Konstantin Ivashchenko,Константин Иващенко,M,99.9,160,175,190,190,,95,102.5,-110,102.5,,170,190,210,210,,502.5,100,SBD,Wraps,Yes,Amateur Open,27
DQ,Aleksandr Muravev,Александр Муравьев,M,117.6,-230,-235,-237.5,,,,,,,,,,,,,,125,SBD,Wraps,Yes,Amateur Open,38
DQ,Marina Morozova,Марина Морозова,F,74.5,-210,-210,215,215,,-105,-105,-105,,,,,,,,,75,SBD,Wraps,No,Pro Open,39
1,Ilya Korsunov,Илья Корсунов,M,74.4,-210,210,-225,210,,120,127.5,-132.5,127.5,,220,230,-252.5,230,,567.5,75,SBD,Wraps,No,Pro Open,27
DQ,Bulat Sarin,Булат Сарин,M,69.3,-170,-170,-170,,,,,,,,,,,,,,75,SBD,Wraps,No,Pro Open,35
1,Konstantin Sobolev,Константин Соболев,M,80,215,222.5,-230,222.5,,142.5,150,-155,150,,220,227.5,-232.5,227.5,,600,82.5,SBD,Wraps,No,Pro Open,37
DQ,Sergey Nozrenkov,Сергей Нозренков,M,80.1,215,225,-235,225,,145,150,-155,150,,-230,-230,-230,,,,82.5,SBD,Wraps,No,Pro Open,29
1,Konstantin Terekhin,Константин Терехин,M,88.1,-215,215,230,230,,145,155,162.5,162.5,,210,220,230,230,,622.5,90,SBD,Wraps,No,Pro Open,32
1,Andrey Belyakov,Андрей Беляков,M,89,210,225,-235,225,,130,145,155,155,,180,200,225,225,,605,90,SBD,Wraps,No,Pro Masters 40-49,43
1,Denis Goncharov,Денис Гончаров,M,95.4,230,240,250,250,,125,132.5,140,140,,230,240,-250,240,,630,100,SBD,Wraps,No,Pro Juniors 20-23,21
1,Igor Vorobev,Игорь Воробьев,M,97.4,300,315,330,330,,175,185,,185,,320,-335,340,340,350,855,100,SBD,Wraps,No,Pro Open,23
2,Artem Maroz,Артем Мароз,M,98.3,-240,240,-250,240,,140,-150,155,155,,240,250,260,260,,655,100,SBD,Wraps,No,Pro Open,31
DQ,Sergey Vypov,Сергей Выпов,M,97.9,-220,-230,-250,,,,,,,,,,,,,,100,SBD,Wraps,No,Pro Open,36
DQ,Aleksey Demidov,Алексей Демидов,M,98.3,-212.5,-220,-220,,,,,,,,,,,,,,100,SBD,Wraps,No,Pro Open,36
1,Maksim Sleptsov,Максим Слепцов,M,99.5,-220,220,230,230,,155,165,-170,165,,250,-260,270,270,,665,100,SBD,Wraps,No,Pro Masters 40-49,40
1,Andrey Tumanov,Андрей Туманов,M,106.5,260,280,-300,280,,140,150,,150,,260,-280,-290,260,,690,110,SBD,Wraps,No,Pro Juniors 20-23,22
1,Razmik Khudunts,Размик Худунц,M,130.2,350,365,375,375,,180,,,180,,300,320,-330,320,,875,140,SBD,Wraps,No,Pro Open,22
1,Ruslan Rakhmanov,Руслан Рахманов,M,66.2,,,,,,97.5,105,,105,,205,-225,225,225,,330,67.5,BD,Raw,Yes,Amateur Open,22
1,Aleksandr Lopyrev,Александр Лопырев,M,88.5,,,,,,155,165,-175,165,,230,-250,-250,230,,395,90,BD,Raw,Yes,Amateur Open,23
2,Vladimir Kruglov,Владимир Круглов,M,90,,,,,,145,-152.5,-152.5,145,,205,215,-222.5,215,,360,90,BD,Raw,Yes,Amateur Open,35
3,Zhasulan Konisov,Жасулан Конисов,M,89.5,,,,,,135,-140,-140,135,,180,190,-200,190,,325,90,BD,Raw,Yes,Amateur Open,36
1,Aleksey Nazarov,Алексей Назаров,M,98,,,,,,130,-140,140,140,,260,-275,-275,260,,400,100,BD,Raw,Yes,Amateur Open,28
2,Sergey Amcheslavskiy,Сергей Амчеславский,M,99,,,,,,120,125,-130,125,,247.5,257.5,265,265,,390,100,BD,Raw,Yes,Amateur Open,30
1,Vasiliy Shelestov,Василий Шелестов,M,105.2,,,,,,192.5,-197.5,-197.5,192.5,,255,265,270,270,,462.5,110,BD,Raw,Yes,Amateur Open,42
2,Aleksandr Buylov,Александр Буйлов,M,107.7,,,,,,155,165,-172.5,165,,247.5,255,-265,255,,420,110,BD,Raw,Yes,Amateur Open,29
3,Yuriy Kharitonov,Юрий Харитонов,M,106.3,,,,,,-160,-165,165,165,,230,-240,,230,,395,110,BD,Raw,Yes,Amateur Open,36
1,Tatyana Gorb,Татьяна Горб,F,51.5,,,,,,42.5,47.5,-50,47.5,,115,122.5,-127.5,122.5,,170,52,BD,Raw,No,Pro Sub-Juniors 17-19,19
1,Viktoriya Malinovskaya,Виктория Малиновская,F,58.4,,,,,,67.5,72.5,77.5,77.5,,165,172.5,177.5,177.5,,255,60,BD,Raw,No,Pro Open,34
1,Sergey Zheleznyy,Сергей Железный,M,79.4,,,,,,100,105,-110,105,,165,180,190,190,,295,82.5,BD,Raw,No,Pro Juniors 20-23,20
1,Aleksandr Asfandiarov,Александр Асфандиаров,M,82.5,,,,,,132.5,140,,140,,190,205,215,215,,355,82.5,BD,Raw,No,Pro Open,34
1,Aleksey Blagodyrev,Алексей Благодырев,M,89.4,,,,,,150,165,-170,165,,250,262.5,270,270,,435,90,BD,Raw,No,Pro Open,26
2,Denis Smirnov,Денис Смирнов,M,85.5,,,,,,135,137.5,140,140,,205,212.5,-217.5,212.5,,352.5,90,BD,Raw,No,Pro Open,25
1,Evgeniy Kurnosov,Евгений Курносов,M,94.6,,,,,,160,167.5,-172.5,167.5,,240,250,-270,250,,417.5,100,BD,Raw,No,Pro Open,27
2,Sergey Vypov,Сергей Выпов,M,97.9,,,,,,-140,140,150,150,,200,230,-245,230,,380,100,BD,Raw,No,Pro Open,36
1,Dmitriy Greznev,Дмитрий Грезнев,M,106,,,,,,170,180,-187.5,180,,260,290,300,300,,480,110,BD,Raw,No,Pro Open,43
2,Evgeniy Nemkevich,Евгений Немкевич,M,107.3,,,,,,150,-155,160,160,,285,-300,-300,285,,445,110,BD,Raw,No,Pro Open,35
3,Said Gamzabekov,Саид Гамзабеков,M,103,,,,,,-185,190,-195,190,,-190,210,240,240,,430,110,BD,Raw,No,Pro Open,26
1,Dmitriy Greznev,Дмитрий Грезнев,M,106,,,,,,170,180,-187.5,180,,260,290,300,300,,480,110,BD,Raw,No,Pro Masters 40-49,43
1,Stanislav Kulikov,Станислав Куликов,M,99.8,,,,,,230,-240,-240,230,,300,320,330,330,,560,100,BD,Raw,No,Pro Open,39
2,Aleksey Demidov,Алексей Демидов,M,98.3,,,,,,145,150,155,155,,245,255,-265,255,,410,100,BD,Raw,No,Pro Open,36
1,Darya Lopyreva,Дарья Лопырева,F,36.4,,,,,,30,35,-40,35,,,,,,,35,44,B,Raw,Yes,Youth,13
1,Elena Melnikova,Елена Мельникова,F,48,,,,,,40,45,-50,45,,,,,,,45,48,B,Raw,Yes,Amateur Open,29
1,Anastasiya Chernousova,Анастасия Черноусова,F,50.5,,,,,,-55,55,-57.5,55,,,,,,,55,52,B,Raw,Yes,Amateur Sub-Juniors 17-19,18
1,Ekaterina Belyaeva,Екатерина Беляева,F,51.9,,,,,,42.5,-47.5,-47.5,42.5,,,,,,,42.5,52,B,Raw,Yes,Amateur Open,32
DQ,Olga Leonova,Ольга Леонова,F,54.7,,,,,,-45,-50,-50,,,,,,,,,56,B,Raw,Yes,Amateur Juniors 20-23,22
1,Yana Yakusheva,Яна Якушева,F,52.5,,,,,,42.5,-45,-45,42.5,,,,,,,42.5,56,B,Raw,Yes,Amateur Open,27
1,Rodion Rizaev,Родион Ризаев,M,31.2,,,,,,20,22.5,25,25,,,,,,,25,52,B,Raw,Yes,Youth,
1,Aleksey Petrov,Алексей Петров,M,53.5,,,,,,55,60,65,65,,,,,,,65,56,B,Raw,Yes,Amateur Teen 14-16,15
1,Aleksey Kuznetsov,Алексей Кузнецов,M,56,,,,,,80,85,-90,85,,,,,,,85,56,B,Raw,Yes,Amateur Sub-Juniors 17-19,19
1,Afraim Makhfuzov,Афраим Махфузов,M,59.7,,,,,,-105,110,112.5,112.5,,,,,,,112.5,60,B,Raw,Yes,Amateur Juniors 20-23,20
1,Aleksandr Molodov,Александр Молодов,M,64.8,,,,,,-55,55,-60,55,,,,,,,55,67.5,B,Raw,Yes,Amateur Teen 14-16,15
1,Vladislav Balashov,Владислав Балашов,M,63.8,,,,,,95,107.5,110,110,,,,,,,110,67.5,B,Raw,Yes,Amateur Sub-Juniors 17-19,17
1,Ruslan Rakhmanov,Руслан Рахманов,M,66.2,,,,,,97.5,105,,105,,,,,,,105,67.5,B,Raw,Yes,Amateur Juniors 20-23,22
1,Vyacheslav Vavilov,Вячеслав Вавилов,M,66.6,,,,,,120,125,-127.5,125,,,,,,,125,67.5,B,Raw,Yes,Amateur Open,27
1,Igor Popov,Игорь Попов,M,67,,,,,,102.5,-107.5,-107.5,102.5,,,,,,,102.5,67.5,B,Raw,Yes,Amateur Masters 40-49,49
1,Razmik Ayvazyan,Размик Айвазян,M,67.5,,,,,,100,-105,105,105,,,,,,,105,67.5,B,Raw,Yes,Amateur Masters 60-69,60
1,Maksim Karplyuk,Максим Карплюк,M,74.2,,,,,,140,145,155,155,,,,,,,155,75,B,Raw,Yes,Amateur Sub-Juniors 17-19,18
1,Valeriy Vasilev,Валерий Васильев,M,73.6,,,,,,135,140,-145,140,,,,,,,140,75,B,Raw,Yes,Amateur Open,32
2,Vyacheslav Kolodezhnyy,Вячеслав Колодежный,M,72.5,,,,,,127.5,-135,-135,127.5,,,,,,,127.5,75,B,Raw,Yes,Amateur Open,28
3,Mikhail Novikov,Михаил Новиков,M,74.2,,,,,,125,-135,-135,125,,,,,,,125,75,B,Raw,Yes,Amateur Open,31
4,Maksim Bugrov,Максим Бугров,M,75,,,,,,120,-130,-135,120,,,,,,,120,75,B,Raw,Yes,Amateur Open,30
1,Yuriy Dvizov,Юрий Двизов,M,74.7,,,,,,115,120,-125,120,,,,,,,120,75,B,Raw,Yes,Amateur Masters 70-79,71
1,Aleksandr Priymakov,Александр Приймаков,M,81.1,,,,,,130,-140,140,140,,,,,,,140,82.5,B,Raw,Yes,Amateur Juniors 20-23,22
2,Kirill Chupik,Кирилл Чупик,M,79.9,,,,,,120,125,-130,125,,,,,,,125,82.5,B,Raw,Yes,Amateur Juniors 20-23,20
1,Evgeniy Lebedev,Евгений Лебедев,M,81.1,,,,,,125,130,-132.5,130,,,,,,,130,82.5,B,Raw,Yes,Amateur Open,30
2,Sergey Komarov,Сергей Комаров,M,81.9,,,,,,110,127.5,-130,127.5,,,,,,,127.5,82.5,B,Raw,Yes,Amateur Open,32
3,Aleksandr Popov #19,Александр Попов,M,81.2,,,,,,117.5,122.5,-125,122.5,,,,,,,122.5,82.5,B,Raw,Yes,Amateur Open,31
4,Aleksandr Bocharov,Александр Бочаров,M,79.5,,,,,,117.5,120,-127.5,120,,,,,,,120,82.5,B,Raw,Yes,Amateur Open,25
1,Aleksey Malivanov,Алексей Маливанов,M,89.2,,,,,,145,152.5,157.5,157.5,,,,,,,157.5,90,B,Raw,Yes,Amateur Juniors 20-23,23
1,Oleg Filimonov,Олег Филимонов,M,89.7,,,,,,220,230,-232.5,230,,,,,,,230,90,B,Raw,Yes,Amateur Open,31
2,Aleksandr Lopyrev,Александр Лопырев,M,88.5,,,,,,155,165,-175,165,,,,,,,165,90,B,Raw,Yes,Amateur Open,23
3,Artur Davtyan,Артур Давтян,M,85,,,,,,155,-165,-165,155,,,,,,,155,90,B,Raw,Yes,Amateur Open,29
4,Sergey Galich,Сергей Галич,M,85,,,,,,135,145,152.5,152.5,,,,,,,152.5,90,B,Raw,Yes,Amateur Open,26
5,Damir Ableev,Дамир Аблеев,M,88.5,,,,,,140,152.5,-157.5,152.5,,,,,,,152.5,90,B,Raw,Yes,Amateur Open,29
6,Vladimir Kruglov,Владимир Круглов,M,90,,,,,,145,-152.5,-152.5,145,,,,,,,145,90,B,Raw,Yes,Amateur Open,35
7,Timur Saydaev,Тимур Сайдаев,M,88.7,,,,,,125,132.5,140,140,,,,,,,140,90,B,Raw,Yes,Amateur Open,37
8,Gennadiy Razgonin,Геннадий Разгонин,M,89.2,,,,,,120,-132.5,-132.5,120,,,,,,,120,90,B,Raw,Yes,Amateur Open,31
1,Vladimir Lopyrev,Владимир Лопырев,M,87.9,,,,,,145,152.5,-160,152.5,,,,,,,152.5,90,B,Raw,Yes,Amateur Masters 40-49,45
1,Denis Zavyalov,Денис Завьялов,M,99.5,,,,,,120,-127.5,-127.5,120,,,,,,,120,100,B,Raw,Yes,Amateur Sub-Juniors 17-19,17
1,Vladimir Petrykin,Владимир Петрыкин,M,98,,,,,,-192.5,192.5,-197.5,192.5,,,,,,,192.5,100,B,Raw,Yes,Amateur Open,36
2,Aleksey Kiryanov,Алексей Кирьянов,M,100,,,,,,175,185,-195,185,,,,,,,185,100,B,Raw,Yes,Amateur Open,28
3,Maksim Sergeev,Максим Сергеев,M,94.6,,,,,,157.5,165,170,170,,,,,,,170,100,B,Raw,Yes,Amateur Open,26
4,Nikolay Nilov,Николай Нилов,M,96.2,,,,,,162.5,-167.5,167.5,167.5,,,,,,,167.5,100,B,Raw,Yes,Amateur Open,35
5,Pavel Pismennyy,Павел Письменный,M,96.7,,,,,,162.5,-167.5,-167.5,162.5,,,,,,,162.5,100,B,Raw,Yes,Amateur Open,29
6,Aleksandr Bliznyuk,Александр Близнюк,M,98.4,,,,,,155,-162.5,-162.5,155,,,,,,,155,100,B,Raw,Yes,Amateur Open,35
7,Viktor Geyntse,Виктор Гейнце,M,93.8,,,,,,140,-150,,140,,,,,,,140,100,B,Raw,Yes,Amateur Open,27
8,Denis Nazarenko,Денис Назаренко,M,99.2,,,,,,-130,-130,130,130,,,,,,,130,100,B,Raw,Yes,Amateur Open,31
1,Vyacheslav Rudykh,Вячеслав Рудых,M,99.6,,,,,,-160,-160,160,160,,,,,,,160,100,B,Raw,Yes,Amateur Masters 40-49,45
1,Vasiliy Shelestov,Василий Шелестов,M,105.2,,,,,,192.5,-197.5,-197.5,192.5,,,,,,,192.5,110,B,Raw,Yes,Amateur Open,42
2,Viktor Shibarin,Виктор Шибарин,M,106.5,,,,,,160,172.5,180,180,,,,,,,180,110,B,Raw,Yes,Amateur Open,29
1,Sergey Zhurlov,Сергей Журлов,M,109,,,,,,135,142.5,147.5,147.5,,,,,,,147.5,110,B,Raw,Yes,Amateur Masters 40-49,48
1,Tatyana Gorb,Татьяна Горб,F,51.5,,,,,,42.5,47.5,-50,47.5,,,,,,,47.5,52,B,Raw,No,Pro Sub-Juniors 17-19,19
1,Tatyana Sapronova,Татьяна Сапронова,F,56,,,,,,40,42.5,-45,42.5,,,,,,,42.5,56,B,Raw,No,Pro Juniors 20-23,22
1,Yuliya Mikhaylova,Юлия Михайлова,F,59.7,,,,,,87.5,-95,95,95,,,,,,,95,60,B,Raw,No,Pro Open,36
1,Aleksandr Bareev,Александр Бареев,M,74.2,,,,,,135,-145,-155,135,,,,,,,135,75,B,Raw,No,Pro Juniors 20-23,23
DQ,Konstantin Novikov,Константин Новиков,M,72.6,,,,,,-137.5,-137.5,-137.5,,,,,,,,,75,B,Raw,No,Pro Juniors 20-23,22
1,Artur Abdyushev,Артур Абдюшев,M,73.5,,,,,,172.5,-177.5,-177.5,172.5,,,,,,,172.5,75,B,Raw,No,Pro Open,25
1,Valeriy Vasyutenko,Валерий Васютенко,M,77.5,,,,,,-110,110,120,120,,,,,,,120,82.5,B,Raw,No,Pro Sub-Juniors 17-19,19
1,Ruslan Rukavishnikov,Руслан Рукавишников,M,80.5,,,,,,152.5,160,162.5,162.5,,,,,,,162.5,82.5,B,Raw,No,Pro Juniors 20-23,23
DQ,Artem Gadyshev,Артем Гадышев,M,82.4,,,,,,-145,-145,-145,,,,,,,,,82.5,B,Raw,No,Pro Open,28
1,Oleg Filimonov,Олег Филимонов,M,89.7,,,,,,230,,,230,,,,,,,230,90,B,Raw,No,Pro Open,31
2,Andrey Shkarpetin,Андрей Шкарпетин,M,89.9,,,,,,195,202.5,205,205,,,,,,,205,90,B,Raw,No,Pro Open,27
3,Sergey Kuznetsov,Сергей Кузнецов,M,87.5,,,,,,145,152.5,-155,152.5,,,,,,,152.5,90,B,Raw,No,Pro Open,27
4,Oleg Nisenbaum,Олег Нисенбаум,M,87.7,,,,,,140,-152.5,-152.5,140,,,,,,,140,90,B,Raw,No,Pro Open,38
1,Aleksandr Adamovich,Александр Адамович,M,86.7,,,,,,135,142.5,,142.5,,,,,,,142.5,90,B,Raw,No,Pro Masters 40-49,47
1,Asaf Akhmedov,Асаф Ахмедов,M,88.9,,,,,,130,-135,-135,130,,,,,,,130,90,B,Raw,No,Pro Masters 50-59,52
1,Anton Galkin,Антон Галкин,M,94.2,,,,,,185,190,,190,,,,,,,190,100,B,Raw,No,Pro Open,30
2,Aleksey Evseev,Алексей Евсеев,M,94.7,,,,,,177.5,185,-192.5,185,,,,,,,185,100,B,Raw,No,Pro Open,34
3,Dmitriy Ovsyannikov,Дмитрий Овсянников,M,100,,,,,,180,-185,-185,180,,,,,,,180,100,B,Raw,No,Pro Open,33
4,Aleksey Chupik,Алексей Чупик,M,91.6,,,,,,130,135,145,145,,,,,,,145,100,B,Raw,No,Pro Open,28
DQ,Eldar Agarzaev,Эльдар Агарзаев,M,97.1,,,,,,-200,-215,-215,,,,,,,,,100,B,Raw,No,Pro Open,24
1,Vadim Yashin,Вадим Яшин,M,94.4,,,,,,160,170,,170,,,,,,,170,100,B,Raw,No,Pro Masters 40-49,48
1,Valeriy Korolev,Валерий Королев,M,104.9,,,,,,170,-180,180,180,,,,,,,180,110,B,Raw,No,Pro Juniors 20-23,21
1,Denis Chekalov,Денис Чекалов,M,108,,,,,,175,185,-192.5,185,,,,,,,185,110,B,Raw,No,Pro Open,30
1,Dmitriy Sukhov,Дмитрий Сухов,M,108.6,,,,,,195,-200,200,200,,,,,,,200,110,B,Raw,No,Pro Masters 40-49,42
1,Evgeniy Abrosimov,Евгений Абросимов,M,106.2,,,,,,-200,200,-205,200,,,,,,,200,110,B,Raw,No,Pro Masters 50-59,51
2,Roman Rudnitskiy,Роман Рудницкий,M,104.7,,,,,,-155,155,165,165,,,,,,,165,110,B,Raw,No,Pro Masters 50-59,57
1,Aleksandr Nikishov,Александр Никишов,M,113.7,,,,,,160,-165,165,165,,,,,,,165,125,B,Raw,No,Pro Juniors 20-23,22
1,Dmitriy Dyakonov,Дмитрий Дьяконов,M,111.4,,,,,,240,250,-260,250,,,,,,,250,125,B,Raw,No,Pro Open,29
DQ,Igor Shcherbakov,Игорь Щербаков,M,111.5,,,,,,-160,-160,-160,,,,,,,,,125,B,Raw,No,Pro Open,33
1,Aleksandr Khmelev,Александр Хмелев,M,119.5,,,,,,177.5,202.5,210,210,,,,,,,210,125,B,Raw,No,Pro Masters 40-49,46
1,Aleksey Efremov,Алексей Ефремов,M,131.3,,,,,,230,237.5,-242.5,237.5,,,,,,,237.5,140,B,Raw,No,Pro Open,35
2,Zakhar Sukhorukov,Захар Сухоруков,M,138,,,,,,220,230,-242.5,230,,,,,,,230,140,B,Raw,No,Pro Open,29
1,Margarita Boluchevtseva,Маргарита Болучевцева,F,43.95,,,,,,,,,,,77.5,87.5,-90,87.5,,87.5,44,D,Raw,Yes,Amateur Sub-Juniors 17-19,19
1,Darya Lopyreva,Дарья Лопырева,F,36.4,,,,,,,,,,,65,72.5,80,80,,80,44,D,Raw,Yes,Amateur Open,13
1,Ekaterina Belyaeva,Екатерина Беляева,F,51.9,,,,,,,,,,,90,95,100,100,,100,52,D,Raw,Yes,Amateur Open,32
1,Yuliya Kruss,Юлия Крусс,F,55.3,,,,,,,,,,,100,107.5,112.5,112.5,,112.5,56,D,Raw,Yes,Amateur Open,29
2,Olesya Nikolenko,Олеся Николенко,F,54.7,,,,,,,,,,,-105,105,-110,105,,105,56,D,Raw,Yes,Amateur Open,31
1,Marina Polyakova,Марина Полякова,F,55.1,,,,,,,,,,,120,125,130,130,,130,56,D,Raw,Yes,Amateur Masters 40-49,41
1,Olga Khodyreva,Ольга Ходырева,F,55.8,,,,,,,,,,,90,-95,-95,90,,90,56,D,Raw,Yes,Amateur Masters 60-69,61
1,Anna Dudkina,Анна Дудкина,F,60,,,,,,,,,,,100,110,-120,110,,110,60,D,Raw,Yes,Amateur Juniors 20-23,22
1,Irina Stukovina,Ирина Стуковина,F,59.9,,,,,,,,,,,115,122.5,-132.5,122.5,,122.5,60,D,Raw,Yes,Amateur Open,33
1,Nina Kolodtseva,Нина Колодцева,F,67.5,,,,,,,,,,,135,140,145,145,,145,67.5,D,Raw,Yes,Amateur Open,32
2,Valeriya Chernomashentseva,Валерия Черномашенцева,F,67.5,,,,,,,,,,,132.5,140,-147.5,140,,140,67.5,D,Raw,Yes,Amateur Open,29
1,Rodion Rizaev,Родион Ризаев,M,31.2,,,,,,,,,,,60,70,72.5,72.5,,72.5,52,D,Raw,Yes,Youth,
1,Ruslan Rakhmanov,Руслан Рахманов,M,66.2,,,,,,,,,,,205,-225,225,225,,225,67.5,D,Raw,Yes,Amateur Juniors 20-23,22
1,Ruslan Rakhmanov,Руслан Рахманов,M,66.2,,,,,,,,,,,205,-225,225,225,,225,67.5,D,Raw,Yes,Amateur Open,22
2,Vyacheslav Vavilov,Вячеслав Вавилов,M,66.6,,,,,,,,,,,195,205,-222.5,205,,205,67.5,D,Raw,Yes,Amateur Open,27
1,Dmitriy Tekutev,Дмитрий Текутьев,M,71.3,,,,,,,,,,,205,215,,215,,215,75,D,Raw,Yes,Amateur Sub-Juniors 17-19,18
1,Sergey Skalozubov,Сергей Скалозубов,M,71.4,,,,,,,,,,,-210,-215,220,220,,220,75,D,Raw,Yes,Amateur Juniors 20-23,21
2,Sergey Ustimanov,Сергей Устиманов,M,68.3,,,,,,,,,,,-160,165,-170,165,,165,75,D,Raw,Yes,Amateur Juniors 20-23,22
1,Sergey Kostin,Сергей Костин,M,73.2,,,,,,,,,,,215,227.5,-237.5,227.5,,227.5,75,D,Raw,Yes,Amateur Open,26
2,Arsen Shamilov,Арсен Шамилов,M,74,,,,,,,,,,,205,210,215,215,,215,75,D,Raw,Yes,Amateur Open,27
3,Dmitriy Popkov,Дмитрий Попков,M,72.8,,,,,,,,,,,-190,190,-200,190,,190,75,D,Raw,Yes,Amateur Open,33
1,Aleksandr Dambinov,Александр Дамбинов,M,68.2,,,,,,,,,,,160,-170,,160,,160,75,D,Raw,Yes,Amateur Masters 80-89,82
1,Vladislav Ivchenko,Владислав Ивченко,M,81.1,,,,,,,,,,,185,200,-205,200,,200,82.5,D,Raw,Yes,Amateur Sub-Juniors 17-19,19
1,Dmitriy Tanyushkin,Дмитрий Танюшкин,M,81.3,,,,,,,,,,,190,205,-220,205,,205,82.5,D,Raw,Yes,Amateur Juniors 20-23,20
2,Aleksandr Priymakov,Александр Приймаков,M,81.1,,,,,,,,,,,180,190,200,200,,200,82.5,D,Raw,Yes,Amateur Juniors 20-23,22
1,Maksim Bannov,Максим Баннов,M,82,,,,,,,,,,,240,250,-255,250,,250,82.5,D,Raw,Yes,Amateur Open,27
2,Evgeniy Melkhanov,Евгений Мельханов,M,80.2,,,,,,,,,,,180,190,-200,190,,190,82.5,D,Raw,Yes,Amateur Open,24
3,Dmitriy Popov,Дмитрий Попов,M,82.4,,,,,,,,,,,-140,140,155,155,,155,82.5,D,Raw,Yes,Amateur Open,25
1,Sergey Balychev,Сергей Балычев,M,89.7,,,,,,,,,,,230,240,-250,240,,240,90,D,Raw,Yes,Amateur Open,37
2,Aleksanr Lopyrev,Алексанр Лопырев,M,88.5,,,,,,,,,,,230,-250,-250,230,,230,90,D,Raw,Yes,Amateur Open,23
3,Vladimir Kruglov,Владимир Круглов,M,90,,,,,,,,,,,205,215,-222.5,215,,215,90,D,Raw,Yes,Amateur Open,35
4,Maksim Kharkin,Максим Харькин,M,90,,,,,,,,,,,200,210,-217.5,210,,210,90,D,Raw,Yes,Amateur Open,32
DQ,Nikita Rybalchenko,Никита Рыбальченко,M,88.4,,,,,,,,,,,-190,-210,-210,,,,90,D,Raw,Yes,Amateur Open,25
1,Sergey Medvedev,Сергей Медведев,M,93.9,,,,,,,,,,,250,-265,265,265,,265,100,D,Raw,Yes,Amateur Open,25
2,Sergey Amcheslavskiy,Сергей Амчеславский,M,99,,,,,,,,,,,247.5,257.5,265,265,,265,100,D,Raw,Yes,Amateur Open,30
3,Aleksey Nazarov,Алексей Назаров,M,98,,,,,,,,,,,-260,260,,260,,260,100,D,Raw,Yes,Amateur Open,28
4,Andrey Ivanyuk,Андрей Иванюк,M,97.9,,,,,,,,,,,-240,240,-275,240,,240,100,D,Raw,Yes,Amateur Open,31
1,Evgeniy Nefedov,Евгений Нефедов,M,99.2,,,,,,,,,,,245,255,262.5,262.5,267.5,262.5,100,D,Raw,Yes,Amateur Masters 40-49,44
1,Vasiliy Shelestov,Василий Шелестов,M,105.2,,,,,,,,,,,255,265,270,270,,270,110,D,Raw,Yes,Amateur Open,42
2,Viktor Shibarin,Виктор Шибарин,M,106.5,,,,,,,,,,,245,260,270,270,,270,110,D,Raw,Yes,Amateur Open,29
3,Aleksandr Shekhovtsov,Александр Шеховцов,M,109.1,,,,,,,,,,,250,-260,260,260,,260,110,D,Raw,Yes,Amateur Open,30
4,Aleksandr Buylov,Александр Буйлов,M,107.7,,,,,,,,,,,247.5,255,-265,255,,255,110,D,Raw,Yes,Amateur Open,29
5,Eduard Chibasov,Эдуард Чибасов,M,100.9,,,,,,,,,,,170,175,-180,175,,175,110,D,Raw,Yes,Amateur Open,24
1,Veronika Lebedeva,Вероника Лебедева,F,46.5,,,,,,,,,,,125,135,-140,135,,135,48,D,Raw,No,Pro Open,28
1,Tatyana Gorb,Татьяна Горб,F,51.5,,,,,,,,,,,115,122.5,-127.5,122.5,,122.5,52,D,Raw,No,Pro Sub-Juniors 17-19,19
2,Mariya Konkina,Мария Конкина,F,51.3,,,,,,,,,,,-105,105,115,115,,115,52,D,Raw,No,Pro Sub-Juniors 17-19,18
1,Valentina Brykalina,Валентина Брыкалина,F,51.9,,,,,,,,,,,95,100,105,105,,105,52,D,Raw,No,Pro Juniors 20-23,21
1,Tatyana Gorb,Татьяна Горб,F,51.5,,,,,,,,,,,115,122.5,-127.5,122.5,,122.5,52,D,Raw,No,Pro Open,19
1,Tatyana Sapronova,Татьяна Сапронова,F,56,,,,,,,,,,,62.5,67.5,72.5,72.5,,72.5,56,D,Raw,No,Pro Juniors 20-23,22
1,Viktoriya Malinovskaya,Виктория Малиновская,F,58.4,,,,,,,,,,,165,172.5,177.5,177.5,,177.5,60,D,Raw,No,Pro Open,34
1,Musa Ibishov,Муса Ибишов,M,44,,,,,,,,,,,55,62.5,70,70,,70,52,D,Raw,No,Pro Teen 14-16,14
1,Orkhan Alekberov,Орхан Алекберов,M,67,,,,,,,,,,,220,227.5,232.5,232.5,,232.5,67.5,D,Raw,No,Pro Open,34
1,Sergey Nikitin,Сергей Никитин,M,71,,,,,,,,,,,237.5,242.5,250,250,252.5,250,75,D,Raw,No,Pro Open,54
2,Sergey Petrov,Сергей Петров,M,74.6,,,,,,,,,,,240,-245,250,250,,250,75,D,Raw,No,Pro Open,39
3,Sergey Russkov,Сергей Руссков,M,72.1,,,,,,,,,,,230,240,245,245,,245,75,D,Raw,No,Pro Open,26
1,Sergey Nikitin,Сергей Никитин,M,71,,,,,,,,,,,237.5,242.5,250,250,252.5,250,75,D,Raw,No,Pro Masters 50-59,54
1,Roman Churushkin,Роман Чурушкин,M,80.8,,,,,,,,,,,200,215,230,230,,230,82.5,D,Raw,No,Pro Sub-Juniors 17-19,18
1,Konstantin Sobolev,Константин Соболев,M,80,,,,,,,,,,,220,227.5,-232.5,227.5,,227.5,82.5,D,Raw,No,Pro Open,37
1,Pavel Podkovyrin,Павел Подковырин,M,88.5,,,,,,,,,,,235,250,260,260,,260,90,D,Raw,No,Pro Open,24
1,Aleksandr Losuchenko,Александр Лосученко,M,89.4,,,,,,,,,,,250,265,-270,265,,265,90,D,Raw,No,Pro Masters 60-69,62
1,Amin Nazarli,Амин Назарли,M,94.9,,,,,,,,,,,250,265,272.5,272.5,,272.5,100,D,Raw,No,Pro Juniors 20-23,22
1,Sergey Aseev,Сергей Асеев,M,100,,,,,,,,,,,260,272.5,-280,272.5,,272.5,100,D,Raw,No,Pro Open,37
2,Maksim Ulyanov,Максим Ульянов,M,96,,,,,,,,,,,252.5,262.5,-272.5,262.5,,262.5,100,D,Raw,No,Pro Open,32
3,Maksim Makoshenko,Максим Макошенко,M,98.8,,,,,,,,,,,250,-262.5,262.5,262.5,,262.5,100,D,Raw,No,Pro Open,37
4,Evgeniy Kurnosov,Евгений Курносов,M,94.6,,,,,,,,,,,240,250,-270,250,,250,100,D,Raw,No,Pro Open,27
1,Maksim Kalinin,Максим Калинин,M,102.6,,,,,,,,,,,270,285,-305,285,,285,110,D,Raw,No,Pro Open,24
2,Aleksey Kiselev,Алексей Киселев,M,106.3,,,,,,,,,,,240,260,-280,260,,260,110,D,Raw,No,Pro Open,43
3,Artem Tarakanov,Артем Тараканов,M,106.6,,,,,,,,,,,220,230,247.5,247.5,,247.5,110,D,Raw,No,Pro Open,25
1,Aleksandr Amelchenko,Александр Амельченко,M,122,,,,,,,,,,,320,335,-340,335,,335,125,D,Raw,No,Pro Open,26
1,Dmitriy Egorov,Дмитрий Егоров,M,126.5,,,,,,,,,,,180,200,-210,200,,200,140,D,Raw,No,Pro Open,35
1,Stanislav Kulikov,Станислав Куликов,M,99.8,,,,,,,,,,,300,320,330,330,,330,100,D,Raw,No,Pro Open,39
2,Aleksey Demidov,Алексей Демидов,M,98.3,,,,,,,,,,,-260,260,,260,,260,100,D,Raw,No,Pro Open,36
DQ,Sergey Yurev,Сергей Юрьев,M,94,,,,,,,,,,,-240,-240,-240,,,,100,D,Raw,No,Pro Open,24
1,Irina Zenina,Ирина Зенина,F,51.8,,,,,,72.5,-75,-75,72.5,,,,,,,72.5,52,B,Raw,Yes,Amateur Teen 14-16,16
1,Daniil Pogorelov,Даниил Погорелов,M,64.8,,,,,,-100,100,105,105,,,,,,,105,67.5,B,Raw,Yes,Amateur Teen 14-16,16
1,Nikolay Reshetov,Николай Решетов,M,89.6,,,,,,-205,205,-215,205,,,,,,,205,90,B,Raw,Yes,Amateur Masters 50-59,59
1,Alena Sotnikova,Алена Сотникова,F,55.5,,,,,,80,-85,85,85,,,,,,,85,56,B,Raw,No,Pro Open,28
1,Anton Mazalov,Антон Мазалов,M,87.2,,,,,,270,-280,-292.5,270,,,,,,,270,90,B,Single-ply,No,Pro Open,35
1,Nikolay Reshetov,Николай Решетов,M,89.6,,,,,,205,,,205,,,,,,,205,90,B,Raw,No,Pro Masters 50-59,59
1,Aleksandr Zavyalov,Александр Завьялов,M,115.5,,,,,,250,-270,-275,250,,,,,,,250,125,B,Raw,No,Pro Open,38
1,Vladimir Tishkovskiy,Владимир Тишковский,M,85.8,,,,,,220,-230,230,230,,,,,,,230,90,B,Single-ply,Yes,Amateur Open,31
2,Dmitriy Kosterin,Дмитрий Костерин,M,88.6,,,,,,190,200,-210,200,,,,,,,200,90,B,Single-ply,Yes,Amateur Open,27
1,Aleksandr Onishchuk,Александр Онищук,M,110.4,,,,,,220,242.5,-260,242.5,,,,,,,242.5,125,B,Single-ply,Yes,Amateur Open,35
1,Rustam Valitov,Рустам Валитов,M,82.1,,,,,,180,-190,-200,180,,,,,,,180,82.5,B,Single-ply,No,Pro Open,27
1,Stanislav Kulikov,Станислав Куликов,M,99.8,,,,,,230,-240,-240,230,,,,,,,230,100,B,Single-ply,No,Pro Open,39
DQ,Nikolay Glazev,Николай Глазьев,M,117.9,,,,,,-260,-270,-270,,,,,,,,,125,B,Single-ply,No,Pro Open,34
1,Yana Terekhova,Яна Терехова,F,48,,,,,,-62.5,62.5,67.5,67.5,,,,,,,67.5,48,B,Multi-ply,Yes,Amateur Open,26
DQ,Kseniya Lyalikova,Ксения Ляликова,F,55.5,,,,,,-87.5,-87.5,-87.5,,,,,,,,,56,B,Multi-ply,Yes,Amateur Juniors 20-23,22
1,Ekaterina Rudenko,Екатерина Руденко,F,59.55,,,,,,65,72.5,-80,72.5,,,,,,,72.5,60,B,Multi-ply,Yes,Amateur Open,29
1,Elena Grigoreva,Елена Григорьева,F,59.1,,,,,,70,80,-95,80,,,,,,,80,60,B,Multi-ply,Yes,Amateur Masters 40-49,41
1,Elena Shevyreva,Елена Шевырева,F,67.05,,,,,,95,105,,105,,,,,,,105,67.5,B,Multi-ply,Yes,Amateur Masters 40-49,43
1,Igor Popov,Игорь Попов,M,54.95,,,,,,-115,115,-120,115,,,,,,,115,56,B,Multi-ply,Yes,Amateur Open,24
1,Danila Shevyrev,Данила Шевырев,M,75.65,,,,,,115,120,125,125,,,,,,,125,82.5,B,Multi-ply,Yes,Amateur Sub-Juniors 17-19,17
1,Ivan Gudkov,Иван Гудков,M,82.15,,,,,,220,-230,-230,220,,,,,,,220,82.5,B,Multi-ply,Yes,Amateur Open,26
1,Roman Sokolov,Роман Соколов,M,82.5,,,,,,182.5,200,-230,200,,,,,,,200,82.5,B,Multi-ply,Yes,Amateur Masters 40-49,43
1,Danil Chuvakov,Данил Чуваков,M,85.5,,,,,,190,200,-210,200,,,,,,,200,90,B,Multi-ply,Yes,Amateur Sub-Juniors 17-19,17
1,Dmitriy Malyy,Дмитрий Малый,M,86,,,,,,-155,155,-165,155,,,,,,,155,90,B,Multi-ply,Yes,Amateur Open,26
1,Georgiy Elkanishvili,Георгий Элканишвили,M,87.85,,,,,,240,250,260,260,-280.5,,,,,,260,90,B,Multi-ply,No,Pro Open,29
1,Aleksandr Zhukov,Александр Жуков,M,101,,,,,,270,-290,-290,270,,,,,,,270,110,B,Multi-ply,No,Pro Open,35
2,Mikhail Vasilenko,Михаил Василенко,M,107.3,,,,,,250,265,-287.5,265,,,,,,,265,110,B,Multi-ply,No,Pro Open,34
3,Dmitriy Vasilev,Дмитрий Васильев,M,101.15,,,,,,230,250,-265,250,,,,,,,250,110,B,Multi-ply,No,Pro Open,28
DQ,Grachik Egozaryan,Грачик Егозарьян,M,107.8,,,,,,-250,-260,-260,,,,,,,,,110,B,Multi-ply,No,Pro Masters,65
1,Vasiliy Shpodarev,Василий Шподарев,M,139,,,,,,280,-300,322.5,322.5,-340,,,,,,322.5,140,B,Multi-ply,No,Pro Open,29
2,Aleksandr Deryabin,Александр Дерябин,M,130.6,,,,,,270,-300,-310,270,,,,,,,270,140,B,Multi-ply,No,Pro Open,20
1,Nikolay Reshetov,Николай Решетов,M,89.6,,,,,,225,-235,,225,,,,,,,225,90,B,Multi-ply,Yes,Amateur Open,59
1,Nikolay Reshetov,Николай Решетов,M,89.6,,,,,,225,-235,,225,,,,,,,225,90,B,Multi-ply,Yes,Amateur Masters 50-59,59
1,Dmitriy Gonzhal,Дмитрий Гонжал,M,99.3,,,,,,215,230,-245,230,,,,,,,230,100,B,Multi-ply,Yes,Amateur Open,31
1,Dmitriy Gorodzhiy,Дмитрий Городжий,M,108.25,,,,,,305,-315,-315,305,,,,,,,305,110,B,Multi-ply,Yes,Amateur Open,24
DQ,Pavel Guzev,Павел Гузев,M,122,,,,,,-285,-285,-285,,,,,,,,,125,B,Multi-ply,Yes,Amateur Open,51
DQ,Pavel Guzev,Павел Гузев,M,122,,,,,,-285,-285,-285,,,,,,,,,125,B,Multi-ply,Yes,Amateur Masters 50-59,51
1,Nikolay Reshetov,Николай Решетов,M,89.6,,,,,,225,-235,,225,,,,,,,225,90,B,Multi-ply,No,Pro Open,59
1,Nikolay Reshetov,Николай Решетов,M,89.6,,,,,,225,-235,,225,,,,,,,225,90,B,Multi-ply,No,Pro Masters 50-59,59
1,Andrey Makeev,Андрей Макеев,M,108.4,,,,,,-320,320,-350,320,,,,,,,320,110,B,Multi-ply,No,Pro Open,32
1,Pavel Guzev,Павел Гузев,M,122,,,,,,255,285.5,300,300,-310,,,,,,300,125,B,Multi-ply,No,Pro Open,51
1,Pavel Guzev,Павел Гузев,M,122,,,,,,255,285.5,300,300,-310,,,,,,300,125,B,Multi-ply,No,Pro Masters 50-59,51
