Name,Team,Division,BodyweightKg,WeightClassKg,Squat1Kg,Squat2Kg,Squat3Kg,Best3SquatKg,Bench1Kg,Bench2Kg,Bench3Kg,Best3BenchKg,Deadlift1Kg,Deadlift2Kg,Deadlift3Kg,Best3DeadliftKg,TotalKg,Place,Sex,Equipment,Event,BirthDate
Jasmine Hurst,NM,F-C-U18,50.8,52,35,40,-42.5,40,20,22.5,25,25,52.5,60,-65,60,125,1,F,Raw,SBD,
Tracey Burn,NM,F-C-M2,59.7,63,35,40,45,45,25,27.5,30,30,75,82.5,90,90,165,1,F,Raw,SBD,
Elizabeth Flitcroft,NM,F-C-U18,66.1,72,47.5,52.5,55,55,22.5,25,27.5,27.5,60,65,70,70,152.5,1,F,Raw,SBD,
Rachel Fairclough,NM,F-C-Open,56.8,57,60,62.5,-65,62.5,35,37.5,40,40,87.5,95,100,100,202.5,1,F,Raw,SBD,
Lydia Neary,NM,F-C-Open,55.8,57,57.5,62.5,67.5,67.5,30,35,-42.5,35,85,90,95,95,197.5,2,F,Raw,SBD,
Elizabeth Fletcher,NM,F-C-Open,60.6,63,70,75,-80,75,32.5,35,37.5,37.5,90,95,100,100,212.5,2,F,Raw,SBD,
Rachel Hyatt,NM,F-C-Open,61.8,63,87.5,-95,97.5,97.5,42.5,50,-55,50,110,115,117.5,117.5,265,1,F,Raw,SBD,
Aymee Biegaj,NM,F-C-U23,67,72,70,75,80,80,32.5,35,37.5,37.5,70,77.5,82.5,82.5,200,2,F,Raw,SBD,
Sam Shillitto,NM,F-C-M1,70.6,72,85,90,95,95,50,55,57.5,57.5,112.5,120,125,125,277.5,3,F,Raw,SBD,
Olivia Alder Woolf,NM,F-C-U23,70.7,72,-90,90,95,95,40,42.5,45,45,110,115,-120,115,255,1,F,Raw,SBD,
Katie Freeman,NM,F-C-Open,69.5,72,100,105,107.5,107.5,40,-42.5,-42.5,40,130,135,140,140,287.5,3,F,Raw,SBD,
Leanne Wilson,NM,F-C-Open,70.6,72,100,110,115,115,47.5,52.5,-55,52.5,140,150,160,160,327.5,1,F,Raw,SBD,
Natalie Hill #1,NM,F-C-Open,69,72,100,107.5,112.5,112.5,-50,55,-60,55,105,115,122.5,122.5,290,2,F,Raw,SBD,
Kathleen Bailey,NM,F-C-M1,68.1,72,105,107.5,-110,107.5,62.5,65,67.5,67.5,142.5,147.5,155,155,330,2,F,Raw,SBD,
Wendie Kirkland,NM,F-C-M1,70.4,72,120,125,131,131,72.5,-77.5,-77.5,72.5,130,137.5,-145,137.5,341,1,F,Raw,SBD,
Lynne Berrie,NM,F-C-M3,79,84,50,57.5,62.5,62.5,30,32.5,35,35,80,85,-90,85,182.5,1,F,Raw,SBD,
Stephanie Wilson,NM,F-C-Open,81.6,84,80,85,90,90,40,42.5,45,45,87.5,90,92.5,92.5,227.5,3,F,Raw,SBD,
Bethany Reynolds,NM,F-C-U18,76.1,84,80,85,87.5,87.5,-45,-45,45,45,85,95,100,100,232.5,2,F,Raw,SBD,
Elizabeth Barnard #1,NM,F-C-M2,82.5,84,95,100,102.5,102.5,50,55,57.5,57.5,112.5,120,125,125,285,1,F,Raw,SBD,
Lisa Dawn Welch,NM,F-C-M1,82.2,84,100,-105,-105,100,42.5,45,47.5,47.5,120,125,127.5,127.5,275,1,F,Raw,SBD,
Chloe Ann Waby,NM,F-C-U18,84,84,100,105,110,110,35,37.5,40,40,120,125,-130,125,275,1,F,Raw,SBD,
Eve Wylie,NM,F-C-Open,82.8,84,102.5,-107.5,110,110,67.5,70,-72.5,70,140,145,150,150,330,2,F,Raw,SBD,
Ruby Hryniszak,NM,F-C-Open,82.9,84,145,152.5,160,160,75,80,85,85,145,155,160,160,405,1,F,Raw,SBD,
Aline Flitcrof,NM,F-C-M2,129.8,84+,60,-62.5,62.5,62.5,35,37.5,40,40,67.5,70,72.5,72.5,175,1,F,Raw,SBD,
Kate Parton,NM,F-C-M1,100.1,84+,60,65,67.5,67.5,35,37.5,40,40,97.5,105,110,110,217.5,4,F,Raw,SBD,
Tori Alanis Saunders,NM,F-C-U23,98.3,84+,80,85,87.5,87.5,35,37.5,40,40,105,110,115,115,242.5,1,F,Raw,SBD,
Lois Ashlea Oliver,NM,F-C-Open,119.6,84+,-80,80,87.5,87.5,32.5,35,-37.5,35,97.5,105,110,110,232.5,3,F,Raw,SBD,
Louise Ward,NM,F-C-Open,105.8,84+,85,92.5,100,100,57.5,62.5,67.5,67.5,-105,105,,105,272.5,2,F,Raw,SBD,
Amy Enever,NM,F-C-U18,91.3,84+,90,95,101,101,40,42.5,45,45,110,117.5,122.5,122.5,268.5,1,F,Raw,SBD,
Polly Begy,NM,F-C-M1,115.9,84+,105,112.5,120,120,52.5,57.5,62.5,62.5,117.5,127.5,140,140,322.5,3,F,Raw,SBD,
Rachael Delaney,NM,F-C-M1,109.2,84+,117.5,125,130,130,50,52.5,55,55,142.5,150,155,155,340,2,F,Raw,SBD,
Meg Robertson,NM,F-C-M1,93.8,84+,130,137.5,142.5,142.5,67.5,72.5,-77.5,72.5,152.5,162.5,170,170,385,1,F,Raw,SBD,
Inara Kuisele,NM,F-C-Open,108.7,84+,135,140,150,150,75,80,82.5,82.5,170,180,192.5,192.5,425,1,F,Raw,SBD,1984-04-01
Jamie Green #1,NM,M-C-U18,99.5,105,-137.5,,,,-115,,,,,,,,,DQ,M,Raw,SBD,
William Flynn,NM,M-C-U18,90.8,93,170,180,195,195,105,112.5,115,115,215,230,240,240,550,1,M,Raw,SBD,
Owen Timmins,NM,M-C-U23,78.3,83,150,160,165,165,-110,110,-117.5,110,180,190,202.5,202.5,477.5,1,M,Raw,SBD,
Andy O'Connor,NM,M-C-U23,82.1,83,-160,160,-165,160,95,100,102.5,102.5,190,200,210,210,472.5,2,M,Raw,SBD,
George Turner,NM,M-C-U23,92.8,93,215,225,235,235,150,157.5,160,160,220,232.5,245,245,640,1,M,Raw,SBD,
Ben Whitehouse,NM,M-C-U23,102.1,105,210,222.5,230,230,135,145,152.5,152.5,220,235,-250,235,617.5,1,M,Raw,SBD,
Adam Williams #1,NM,M-C-U23,104.2,105,160,170,180,180,95,-107.5,-107.5,95,180,190,-205,190,465,2,M,Raw,SBD,
Sam Hodgetts,NM,M-C-U23,107.8,120,180,200,210,210,125,132.5,140,140,200,220,-235,220,570,1,M,Raw,SBD,
Roshan Pisavadia,NM,M-C-U23,107,120,160,170,180,180,110,115,120,120,200,220,-230,220,520,2,M,Raw,SBD,
Alex Fodor,NM,M-C-Open,73.7,74,205,215,225,225,130,135,-140,135,240,255,265,265,625,1,M,Raw,SBD,
David Saunders,NM,M-C-Open,72.9,74,180,190,200,200,92.5,97.5,-102.5,97.5,215,227.5,-240,227.5,525,2,M,Raw,SBD,
Leigh Edwards,NM,M-C-Open,72.2,74,172.5,180,187.5,187.5,110,115,117.5,117.5,167.5,175,-182.5,175,480,3,M,Raw,SBD,
Gareth Murchie,NM,M-C-Open,82.4,83,140,150,160,160,115,122.5,130,130,215,225,230,230,520,1,M,Raw,SBD,
Matt Coupland,NM,M-C-Open,78.2,83,157.5,167.5,175,175,107.5,115,-122.5,115,182.5,192.5,202.5,202.5,492.5,2,M,Raw,SBD,
Bevan Prior,NM,M-C-Open,81.1,83,130,145,150,150,80,-90,-90,80,170,185,-200,185,415,3,M,Raw,SBD,
Ajay Rai,NM,M-C-Open,82.9,83,140,150,155,155,80,87.5,90,90,140,152.5,157.5,157.5,402.5,4,M,Raw,SBD,
Hamed Farjam,NM,M-C-Open,92.3,93,227.5,,,227.5,150,,,150,295,310,,310,687.5,1,M,Raw,SBD,
Matt Merrick,NM,M-C-Open,91.2,93,200,210,215,215,140,150,-160,150,235,250,270,270,635,2,M,Raw,SBD,
Tom Freestone,NM,M-C-Open,89.8,93,200,205,210,210,130,-135,-137.5,130,220,225,230,230,570,3,M,Raw,SBD,
Aaron Pyatt,NM,M-C-Open,88.1,93,187.5,197.5,200,200,120,127.5,-132.5,127.5,225,235,-242.5,235,562.5,4,M,Raw,SBD,
Stuart Saunders,NM,M-C-Open,91,93,180,190,195,195,125,132.5,135,135,210,220,-230,220,550,5,M,Raw,SBD,
Oliver Lindsay,NM,M-C-Open,88.2,93,150,162.5,170,170,102.5,110,-117.5,110,185,195,205,205,485,6,M,Raw,SBD,
Ashley Rendall Tyrrell,NM,M-C-Open,103.4,105,190,200,-207.5,200,120,127.5,-130,127.5,250,-265,-265,250,577.5,1,M,Raw,SBD,
Damian Hird,NM,M-C-Open,102,105,-190,190,207.5,207.5,-130,140,-150,140,200,215,227.5,227.5,575,2,M,Raw,SBD,
Sam Fleming,NM,M-C-Open,96.3,105,175,180,-190,180,125,130,132.5,132.5,225,232.5,245,245,557.5,3,M,Raw,SBD,
Callum Simmons,NM,M-C-Open,100,105,185,187.5,200,200,115,120,125,125,205,217.5,230,230,555,4,M,Raw,SBD,
Ken Vernon,NM,M-C-Open,103.7,105,160,170,-180,170,130,132.5,-135,132.5,220,225,227.5,227.5,530,5,M,Raw,SBD,
Chris Walsh,NM,M-C-Open,104.3,105,150,155,160,160,115,-117.5,130,130,175,185,-195,185,475,6,M,Raw,SBD,
Paul McCaffery,NM,M-C-M1,93,93,240,260,,260,150,160,,160,240,-260,-260,240,660,1,M,Raw,SBD,
Alistair Mag,NM,M-C-M1,92.8,93,180,190,200,200,100,110,120,120,230,250,-260,250,570,2,M,Raw,SBD,
Nigel Needham,NM,M-C-M1,92.2,93,200,210,-215,210,135,140,-145,140,130,,,130,480,3,M,Raw,SBD,
Nathan Turner,NM,M-C-M1,118.2,120,225,235,242.5,242.5,160,170,-172.5,170,200,222.5,231,231,643.5,1,M,Raw,SBD,
James Saunders,NM,M-C-M2,73,74,80,-90,-90,80,90,95,100,100,100,120,-150,120,300,1,M,Raw,SBD,
Nigel Gillis,NM,M-C-M2,68.4,74,-165,,,,-102.5,,,,,,,,,DQ,M,Raw,SBD,
Paul Leatherland,NM,M-C-M2,91.5,93,100,110,120,120,80,85,-87.5,85,120,130,,130,335,1,M,Raw,SBD,
Ted Byrne,NM,M-C-M3,58.9,59,110,120,128,128,70,75,-80,75,150,165,181,181,384,1,M,Raw,SBD,
Dave Turner,NM,M-C-M3,109.9,120,150,160,170,170,90,95,100,100,150,160,170,170,440,1,M,Raw,SBD,
Gavin MacDonald,NM,M-C-M3,122.9,120+,-200,210,220,220,140,150,-160,150,190,200,210,210,580,1,M,Raw,SBD,
